{
  "accessors": [
    {
      "bufferView": 1,
      "componentType": 5126,
      "count": 1362,
      "max": [
        6.2100653648376465,
        3.2690117359161377,
        4.1296005249023438
      ],
      "min": [
        2.4782648086547852,
        1.6338745355606079,
        2.1855118274688721
      ],
      "type": "VEC3"
    },
    {
      "bufferView": 1,
      "byteOffset": 16344,
      "componentType": 5126,
      "count": 1362,
      "max": [
        1,
        1,
        1
      ],
      "min": [
        -1,
        -1,
        -1
      ],
      "type": "VEC3"
    },
    {
      "bufferView": 0,
      "componentType": 5125,
      "count": 9840,
      "max": [
        1361
      ],
      "min": [
        0
      ],
      "type": "SCALAR"
    },
    {
      "bufferView": 1,
      "byteOffset": 32688,
      "componentType": 5126,
      "count": 1284,
      "max": [
        5.653900146484375,
        2.7826001644134521,
        3.6459000110626221
      ],
      "min": [
        4.2835001945495605,
        2.1215000152587891,
        2.8255000114440918
      ],
      "type": "VEC3"
    },
    {
      "bufferView": 1,
      "byteOffset": 48096,
      "componentType": 5126,
      "count": 1284,
      "max": [
        1,
        1,
        1
      ],
      "min": [
        -1,
        -1,
        -1
      ],
      "type": "VEC3"
    },
    {
      "bufferView": 0,
      "byteOffset": 39360,
      "componentType": 5125,
      "count": 7680,
      "max": [
        1283
      ],
      "min": [
        0
      ],
      "type": "SCALAR"
    },
    {
      "bufferView": 1,
      "byteOffset": 63504,
      "componentType": 5126,
      "count": 1284,
      "max": [
        5.653900146484375,
        2.2427000999450684,
        3.6459000110626221
      ],
      "min": [
        3.0342998504638672,
        2.1215000152587891,
        3.5247001647949219
      ],
      "type": "VEC3"
    },
    {
      "bufferView": 1,
      "byteOffset": 78912,
      "componentType": 5126,
      "count": 1284,
      "max": [
        1,
        1,
        1
      ],
      "min": [
        -1,
        -1,
        -1
      ],
      "type": "VEC3"
    },
    {
      "bufferView": 0,
      "byteOffset": 70080,
      "componentType": 5125,
      "count": 7680,
      "max": [
        1283
      ],
      "min": [
        0
      ],
      "type": "SCALAR"
    },
    {
      "bufferView": 1,
      "byteOffset": 94320,
      "componentType": 5126,
      "count": 1284,
      "max": [
        7.293299674987793,
        3.8821001052856445,
        5.2853002548217773
      ],
      "min": [
        3.0342998504638672,
        0.48210012912750244,
        1.8853000402450562
      ],
      "type": "VEC3"
    },
    {
      "bufferView": 1,
      "byteOffset": 109728,
      "componentType": 5126,
      "count": 1284,
      "max": [
        1,
        1,
        1
      ],
      "min": [
        -1,
        -1,
        -1
      ],
      "type": "VEC3"
    },
    {
      "bufferView": 0,
      "byteOffset": 100800,
      "componentType": 5125,
      "count": 7680,
      "max": [
        1283
      ],
      "min": [
        0
      ],
      "type": "SCALAR"
    },
    {
      "bufferView": 1,
      "byteOffset": 125136,
      "componentType": 5126,
      "count": 1284,
      "max": [
        4.4046998023986816,
        2.7826001644134521,
        3.6459000110626221
      ],
      "min": [
        3.0342998504638672,
        2.1215000152587891,
        2.8255000114440918
      ],
      "type": "VEC3"
    },
    {
      "bufferView": 1,
      "byteOffset": 140544,
      "componentType": 5126,
      "count": 1284,
      "max": [
        1,
        1,
        1
      ],
      "min": [
        -1,
        -1,
        -1
      ],
      "type": "VEC3"
    },
    {
      "bufferView": 0,
      "byteOffset": 131520,
      "componentType": 5125,
      "count": 7680,
      "max": [
        1283
      ],
      "min": [
        0
      ],
      "type": "SCALAR"
    },
    {
      "bufferView": 1,
      "byteOffset": 155952,
      "componentType": 5126,
      "count": 1284,
      "max": [
        5.653900146484375,
        2.2427000999450684,
        3.6459000110626221
      ],
      "min": [
        3.0342998504638672,
        2.1215000152587891,
        3.5247001647949219
      ],
      "type": "VEC3"
    },
    {
      "bufferView": 1,
      "byteOffset": 171360,
      "componentType": 5126,
      "count": 1284,
      "max": [
        1,
        1,
        1
      ],
      "min": [
        -1,
        -1,
        -1
      ],
      "type": "VEC3"
    },
    {
      "bufferView": 0,
      "byteOffset": 162240,
      "componentType": 5125,
      "count": 7680,
      "max": [
        1283
      ],
      "min": [
        0
      ],
      "type": "SCALAR"
    },
    {
      "bufferView": 1,
      "byteOffset": 186768,
      "componentType": 5126,
      "count": 1284,
      "max": [
        5.653900146484375,
        3.8821001052856445,
        5.2853002548217773
      ],
      "min": [
        1.3949000835418701,
        0.48210012912750244,
        1.8853000402450562
      ],
      "type": "VEC3"
    },
    {
      "bufferView": 1,
      "byteOffset": 202176,
      "componentType": 5126,
      "count": 1284,
      "max": [
        1,
        1,
        1
      ],
      "min": [
        -1,
        -1,
        -1
      ],
      "type": "VEC3"
    },
    {
      "bufferView": 0,
      "byteOffset": 192960,
      "componentType": 5125,
      "count": 7680,
      "max": [
        1283
      ],
      "min": [
        0
      ],
      "type": "SCALAR"
    },
    {
      "bufferView": 1,
      "byteOffset": 217584,
      "componentType": 5126,
      "count": 642,
      "max": [
        6.0440998077392578,
        4.4219999313354492,
        4.5861001014709473
      ],
      "min": [
        2.6440999507904053,
        1.0220000743865967,
        1.1861001253128052
      ],
      "type": "VEC3"
    },
    {
      "bufferView": 1,
      "byteOffset": 225288,
      "componentType": 5126,
      "count": 642,
      "max": [
        1,
        1,
        1
      ],
      "min": [
        -1,
        -1,
        -1
      ],
      "type": "VEC3"
    },
    {
      "bufferView": 0,
      "byteOffset": 223680,
      "componentType": 5125,
      "count": 3840,
      "max": [
        641
      ],
      "min": [
        0
      ],
      "type": "SCALAR"
    },
    {
      "bufferView": 1,
      "byteOffset": 232992,
      "componentType": 5126,
      "count": 1716,
      "max": [
        8.2771997451782227,
        4.2967000007629395,
        4.5272998809814453
      ],
      "min": [
        1.4848377704620361,
        0.7827000617980957,
        0
      ],
      "type": "VEC3"
    },
    {
      "bufferView": 1,
      "byteOffset": 253584,
      "componentType": 5126,
      "count": 1716,
      "max": [
        1,
        1,
        1
      ],
      "min": [
        -1,
        -1,
        -1
      ],
      "type": "VEC3"
    },
    {
      "bufferView": 0,
      "byteOffset": 239040,
      "componentType": 5125,
      "count": 8976,
      "max": [
        1715
      ],
      "min": [
        0
      ],
      "type": "SCALAR"
    },
    {
      "bufferView": 1,
      "byteOffset": 274176,
      "componentType": 5126,
      "count": 1284,
      "max": [
        3.4509999752044678,
        4.2967000007629395,
        4.5272998809814453
      ],
      "min": [
        0.41100001335144043,
        1.2567001581192017,
        1.4873000383377075
      ],
      "type": "VEC3"
    },
    {
      "bufferView": 1,
      "byteOffset": 289584,
      "componentType": 5126,
      "count": 1284,
      "max": [
        1,
        1,
        1
      ],
      "min": [
        -1,
        -1,
        -1
      ],
      "type": "VEC3"
    },
    {
      "bufferView": 0,
      "byteOffset": 274944,
      "componentType": 5125,
      "count": 7680,
      "max": [
        1283
      ],
      "min": [
        0
      ],
      "type": "SCALAR"
    },
    {
      "bufferView": 1,
      "byteOffset": 304992,
      "componentType": 5126,
      "count": 1284,
      "max": [
        6.8178000450134277,
        2.8373000621795654,
        3.0679001808166504
      ],
      "min": [
        1.8703999519348145,
        2.7161002159118652,
        2.9467000961303711
      ],
      "type": "VEC3"
    },
    {
      "bufferView": 1,
      "byteOffset": 320400,
      "componentType": 5126,
      "count": 1284,
      "max": [
        1,
        1,
        1
      ],
      "min": [
        -1,
        -1,
        -1
      ],
      "type": "VEC3"
    },
    {
      "bufferView": 0,
      "byteOffset": 305664,
      "componentType": 5125,
      "count": 7680,
      "max": [
        1283
      ],
      "min": [
        0
      ],
      "type": "SCALAR"
    },
    {
      "bufferView": 1,
      "byteOffset": 335808,
      "componentType": 5126,
      "count": 1284,
      "max": [
        6.8178000450134277,
        2.8373000621795654,
        3.0679001808166504
      ],
      "min": [
        4.2835001945495605,
        2.2421000003814697,
        1.4594000577926636
      ],
      "type": "VEC3"
    },
    {
      "bufferView": 1,
      "byteOffset": 351216,
      "componentType": 5126,
      "count": 1284,
      "max": [
        1,
        1,
        1
      ],
      "min": [
        -1,
        -1,
        -1
      ],
      "type": "VEC3"
    },
    {
      "bufferView": 0,
      "byteOffset": 336384,
      "componentType": 5125,
      "count": 7680,
      "max": [
        1283
      ],
      "min": [
        0
      ],
      "type": "SCALAR"
    },
    {
      "bufferView": 1,
      "byteOffset": 366624,
      "componentType": 5126,
      "count": 642,
      "max": [
        4.4046998023986816,
        2.363300085067749,
        1.5806000232696533
      ],
      "min": [
        4.2835001945495605,
        2.2421000003814697,
        1.4594000577926636
      ],
      "type": "VEC3"
    },
    {
      "bufferView": 1,
      "byteOffset": 374328,
      "componentType": 5126,
      "count": 642,
      "max": [
        1,
        1,
        1
      ],
      "min": [
        -1,
        -1,
        -1
      ],
      "type": "VEC3"
    },
    {
      "bufferView": 0,
      "byteOffset": 367104,
      "componentType": 5125,
      "count": 3840,
      "max": [
        641
      ],
      "min": [
        0
      ],
      "type": "SCALAR"
    },
    {
      "bufferView": 1,
      "byteOffset": 382032,
      "componentType": 5126,
      "count": 1860,
      "max": [
        7.6188621520996094,
        3.813511848449707,
        4.6603007316589355
      ],
      "min": [
        1.0693378448486328,
        1.0394001007080078,
        1.3426001071929932
      ],
      "type": "VEC3"
    },
    {
      "bufferView": 1,
      "byteOffset": 404352,
      "componentType": 5126,
      "count": 1860,
      "max": [
        1,
        1,
        1
      ],
      "min": [
        -1,
        -1,
        -1
      ],
      "type": "VEC3"
    },
    {
      "bufferView": 0,
      "byteOffset": 382464,
      "componentType": 5125,
      "count": 9408,
      "max": [
        1859
      ],
      "min": [
        0
      ],
      "type": "SCALAR"
    },
    {
      "bufferView": 1,
      "byteOffset": 426672,
      "componentType": 5126,
      "count": 1284,
      "max": [
        3.1991000175476074,
        2.5404000282287598,
        4.7073001861572266
      ],
      "min": [
        1.0394001007080078,
        2.3655002117156982,
        3.3422000408172607
      ],
      "type": "VEC3"
    },
    {
      "bufferView": 1,
      "byteOffset": 442080,
      "componentType": 5126,
      "count": 1284,
      "max": [
        1,
        1,
        1
      ],
      "min": [
        -1,
        -1,
        -1
      ],
      "type": "VEC3"
    },
    {
      "bufferView": 0,
      "byteOffset": 420096,
      "componentType": 5125,
      "count": 7680,
      "max": [
        1283
      ],
      "min": [
        0
      ],
      "type": "SCALAR"
    },
    {
      "bufferView": 1,
      "byteOffset": 457488,
      "componentType": 5126,
      "count": 1284,
      "max": [
        7.6487998962402344,
        2.5404000282287598,
        3.5234000682830811
      ],
      "min": [
        5.578700065612793,
        1.0394001007080078,
        3.3422000408172607
      ],
      "type": "VEC3"
    },
    {
      "bufferView": 1,
      "byteOffset": 472896,
      "componentType": 5126,
      "count": 1284,
      "max": [
        1,
        1,
        1
      ],
      "min": [
        -1,
        -1,
        -1
      ],
      "type": "VEC3"
    },
    {
      "bufferView": 0,
      "byteOffset": 450816,
      "componentType": 5125,
      "count": 7680,
      "max": [
        1283
      ],
      "min": [
        0
      ],
      "type": "SCALAR"
    },
    {
      "bufferView": 1,
      "byteOffset": 488304,
      "componentType": 5126,
      "count": 1284,
      "max": [
        5.6103000640869141,
        3.8716001510620117,
        4.7073001861572266
      ],
      "min": [
        4.2835001945495605,
        2.3655002117156982,
        2.8712999820709229
      ],
      "type": "VEC3"
    },
    {
      "bufferView": 1,
      "byteOffset": 503712,
      "componentType": 5126,
      "count": 1284,
      "max": [
        1,
        1,
        1
      ],
      "min": [
        -1,
        -1,
        -1
      ],
      "type": "VEC3"
    },
    {
      "bufferView": 0,
      "byteOffset": 481536,
      "componentType": 5125,
      "count": 7680,
      "max": [
        1283
      ],
      "min": [
        0
      ],
      "type": "SCALAR"
    },
    {
      "bufferView": 1,
      "byteOffset": 519120,
      "componentType": 5126,
      "count": 1284,
      "max": [
        6.7392997741699219,
        3.5261001586914062,
        5.7467002868652344
      ],
      "min": [
        4.449699878692627,
        0,
        2.362800121307373
      ],
      "type": "VEC3"
    },
    {
      "bufferView": 1,
      "byteOffset": 534528,
      "componentType": 5126,
      "count": 1284,
      "max": [
        1,
        1,
        1
      ],
      "min": [
        -1,
        -1,
        -1
      ],
      "type": "VEC3"
    },
    {
      "bufferView": 0,
      "byteOffset": 512256,
      "componentType": 5125,
      "count": 7680,
      "max": [
        1283
      ],
      "min": [
        0
      ],
      "type": "SCALAR"
    },
    {
      "bufferView": 1,
      "byteOffset": 549936,
      "componentType": 5126,
      "count": 1284,
      "max": [
        8.6881999969482422,
        3.5798001289367676,
        4.5027999877929688
      ],
      "min": [
        0,
        1.3798000812530518,
        2.302800178527832
      ],
      "type": "VEC3"
    },
    {
      "bufferView": 1,
      "byteOffset": 565344,
      "componentType": 5126,
      "count": 1284,
      "max": [
        1,
        1,
        1
      ],
      "min": [
        -1,
        -1,
        -1
      ],
      "type": "VEC3"
    },
    {
      "bufferView": 0,
      "byteOffset": 542976,
      "componentType": 5125,
      "count": 7680,
      "max": [
        1283
      ],
      "min": [
        0
      ],
      "type": "SCALAR"
    },
    {
      "bufferView": 1,
      "byteOffset": 580752,
      "componentType": 5126,
      "count": 1284,
      "max": [
        4.2385001182556152,
        3.5261001586914062,
        5.7467002868652344
      ],
      "min": [
        1.9488999843597412,
        0,
        2.362800121307373
      ],
      "type": "VEC3"
    },
    {
      "bufferView": 1,
      "byteOffset": 596160,
      "componentType": 5126,
      "count": 1284,
      "max": [
        1,
        1,
        1
      ],
      "min": [
        -1,
        -1,
        -1
      ],
      "type": "VEC3"
    },
    {
      "bufferView": 0,
      "byteOffset": 573696,
      "componentType": 5125,
      "count": 7680,
      "max": [
        1283
      ],
      "min": [
        0
      ],
      "type": "SCALAR"
    },
    {
      "bufferView": 1,
      "byteOffset": 611568,
      "componentType": 5126,
      "count": 1284,
      "max": [
        5.4440999031066895,
        4.9110002517700195,
        4.0318999290466309
      ],
      "min": [
        3.2441000938415527,
        0.24270009994506836,
        0.30320000648498535
      ],
      "type": "VEC3"
    },
    {
      "bufferView": 1,
      "byteOffset": 626976,
      "componentType": 5126,
      "count": 1284,
      "max": [
        1,
        1,
        1
      ],
      "min": [
        -1,
        -1,
        -1
      ],
      "type": "VEC3"
    },
    {
      "bufferView": 0,
      "byteOffset": 604416,
      "componentType": 5125,
      "count": 7680,
      "max": [
        1283
      ],
      "min": [
        0
      ],
      "type": "SCALAR"
    }
  ],
  "asset": {
    "extras": {
      "author": "Edumol (https://sketchfab.com/edumol)",
      "license": "CC-BY-4.0 (http://creativecommons.org/licenses/by/4.0/)",
      "source": "https://sketchfab.com/models/00b221d38992427ab83e0e5b91c3b073",
      "title": "Glycerol"
    },
    "generator": "Sketchfab-3.18.7",
    "version": "2.0"
  },
  "bufferViews": [
    {
      "buffer": 0,
      "byteLength": 635136,
      "byteOffset": 0,
      "name": "floatBufferViews",
      "target": 34963
    },
    {
      "buffer": 0,
      "byteLength": 642384,
      "byteOffset": 635136,
      "byteStride": 12,
      "name": "floatBufferViews",
      "target": 34962
    }
  ],
  "buffers": [
    {
      "byteLength": 1277520,
      "uri": "scene.bin"
    }
  ],
  "extensionsRequired": [
    "KHR_materials_pbrSpecularGlossiness"
  ],
  "extensionsUsed": [
    "KHR_materials_pbrSpecularGlossiness"
  ],
  "materials": [
    {
      "doubleSided": true,
      "emissiveFactor": [
        0,
        0,
        0
      ],
      "extensions": {
        "KHR_materials_pbrSpecularGlossiness": {
          "diffuseFactor": [
            0.18447499449999999,
            0.18447499449999999,
            0.18447499449999999,
            1
          ],
          "glossinessFactor": 0.40000000000000002,
          "specularFactor": [
            0,
            0,
            0
          ]
        }
      },
      "name": "k909090"
    },
    {
      "doubleSided": true,
      "emissiveFactor": [
        0,
        0,
        0
      ],
      "extensions": {
        "KHR_materials_pbrSpecularGlossiness": {
          "diffuseFactor": [
            1,
            0.055,
            0.055,
            1
          ],
          "glossinessFactor": 0.40000000000000002,
          "specularFactor": [
            0,
            0,
            0
          ]
        }
      },
      "name": "kff0d0d"
    },
    {
      "doubleSided": true,
      "emissiveFactor": [
        0,
        0,
        0
      ],
      "extensions": {
        "KHR_materials_pbrSpecularGlossiness": {
          "diffuseFactor": [
            1,
            1,
            1,
            1
          ],
          "glossinessFactor": 0.40000000000000002,
          "specularFactor": [
            0,
            0,
            0
          ]
        }
      },
      "name": "kffffff"
    }
  ],
  "meshes": [
    {
      "primitives": [
        {
          "attributes": {
            "NORMAL": 1,
            "POSITION": 0
          },
          "indices": 2,
          "material": 0,
          "mode": 4
        }
      ]
    },
    {
      "primitives": [
        {
          "attributes": {
            "NORMAL": 4,
            "POSITION": 3
          },
          "indices": 5,
          "material": 0,
          "mode": 4
        }
      ]
    },
    {
      "primitives": [
        {
          "attributes": {
            "NORMAL": 7,
            "POSITION": 6
          },
          "indices": 8,
          "material": 0,
          "mode": 4
        }
      ]
    },
    {
      "primitives": [
        {
          "attributes": {
            "NORMAL": 10,
            "POSITION": 9
          },
          "indices": 11,
          "material": 0,
          "mode": 4
        }
      ]
    },
    {
      "primitives": [
        {
          "attributes": {
            "NORMAL": 13,
            "POSITION": 12
          },
          "indices": 14,
          "material": 0,
          "mode": 4
        }
      ]
    },
    {
      "primitives": [
        {
          "attributes": {
            "NORMAL": 16,
            "POSITION": 15
          },
          "indices": 17,
          "material": 0,
          "mode": 4
        }
      ]
    },
    {
      "primitives": [
        {
          "attributes": {
            "NORMAL": 19,
            "POSITION": 18
          },
          "indices": 20,
          "material": 0,
          "mode": 4
        }
      ]
    },
    {
      "primitives": [
        {
          "attributes": {
            "NORMAL": 22,
            "POSITION": 21
          },
          "indices": 23,
          "material": 0,
          "mode": 4
        }
      ]
    },
    {
      "primitives": [
        {
          "attributes": {
            "NORMAL": 25,
            "POSITION": 24
          },
          "indices": 26,
          "material": 1,
          "mode": 4
        }
      ]
    },
    {
      "primitives": [
        {
          "attributes": {
            "NORMAL": 28,
            "POSITION": 27
          },
          "indices": 29,
          "material": 1,
          "mode": 4
        }
      ]
    },
    {
      "primitives": [
        {
          "attributes": {
            "NORMAL": 31,
            "POSITION": 30
          },
          "indices": 32,
          "material": 1,
          "mode": 4
        }
      ]
    },
    {
      "primitives": [
        {
          "attributes": {
            "NORMAL": 34,
            "POSITION": 33
          },
          "indices": 35,
          "material": 1,
          "mode": 4
        }
      ]
    },
    {
      "primitives": [
        {
          "attributes": {
            "NORMAL": 37,
            "POSITION": 36
          },
          "indices": 38,
          "material": 1,
          "mode": 4
        }
      ]
    },
    {
      "primitives": [
        {
          "attributes": {
            "NORMAL": 40,
            "POSITION": 39
          },
          "indices": 41,
          "material": 2,
          "mode": 4
        }
      ]
    },
    {
      "primitives": [
        {
          "attributes": {
            "NORMAL": 43,
            "POSITION": 42
          },
          "indices": 44,
          "material": 2,
          "mode": 4
        }
      ]
    },
    {
      "primitives": [
        {
          "attributes": {
            "NORMAL": 46,
            "POSITION": 45
          },
          "indices": 47,
          "material": 2,
          "mode": 4
        }
      ]
    },
    {
      "primitives": [
        {
          "attributes": {
            "NORMAL": 49,
            "POSITION": 48
          },
          "indices": 50,
          "material": 2,
          "mode": 4
        }
      ]
    },
    {
      "primitives": [
        {
          "attributes": {
            "NORMAL": 52,
            "POSITION": 51
          },
          "indices": 53,
          "material": 2,
          "mode": 4
        }
      ]
    },
    {
      "primitives": [
        {
          "attributes": {
            "NORMAL": 55,
            "POSITION": 54
          },
          "indices": 56,
          "material": 2,
          "mode": 4
        }
      ]
    },
    {
      "primitives": [
        {
          "attributes": {
            "NORMAL": 58,
            "POSITION": 57
          },
          "indices": 59,
          "material": 2,
          "mode": 4
        }
      ]
    },
    {
      "primitives": [
        {
          "attributes": {
            "NORMAL": 61,
            "POSITION": 60
          },
          "indices": 62,
          "material": 2,
          "mode": 4
        }
      ]
    }
  ],
  "nodes": [
    {
      "children": [
        1
      ],
      "name": "RootNode (gltf orientation matrix)",
      "rotation": [
        -0.70710678118654746,
        -0,
        -0,
        0.70710678118654757
      ]
    },
    {
      "children": [
        2
      ],
      "name": "RootNode (model correction matrix)"
    },
    {
      "children": [
        3,
        4,
        5,
        6,
        7,
        8,
        9,
        10,
        11,
        12,
        13,
        14,
        15,
        16,
        17,
        18,
        19,
        20,
        21,
        22,
        23
      ],
      "matrix": [
        1,
        0,
        0,
        0,
        0,
        1,
        0,
        0,
        0,
        0,
        1,
        0,
        -4.3440999984741211,
        -2.4769001007080078,
        -2.9200000762939453,
        1
      ],
      "name": "glycerol.obj.cleaner.gles"
    },
    {
      "mesh": 0,
      "name": ""
    },
    {
      "mesh": 1,
      "name": ""
    },
    {
      "mesh": 2,
      "name": ""
    },
    {
      "mesh": 3,
      "name": ""
    },
    {
      "mesh": 4,
      "name": ""
    },
    {
      "mesh": 5,
      "name": ""
    },
    {
      "mesh": 6,
      "name": ""
    },
    {
      "mesh": 7,
      "name": ""
    },
    {
      "mesh": 8,
      "name": ""
    },
    {
      "mesh": 9,
      "name": ""
    },
    {
      "mesh": 10,
      "name": ""
    },
    {
      "mesh": 11,
      "name": ""
    },
    {
      "mesh": 12,
      "name": ""
    },
    {
      "mesh": 13,
      "name": ""
    },
    {
      "mesh": 14,
      "name": ""
    },
    {
      "mesh": 15,
      "name": ""
    },
    {
      "mesh": 16,
      "name": ""
    },
    {
      "mesh": 17,
      "name": ""
    },
    {
      "mesh": 18,
      "name": ""
    },
    {
      "mesh": 19,
      "name": ""
    },
    {
      "mesh": 20,
      "name": ""
    }
  ],
  "scene": 0,
  "scenes": [
    {
      "name": "OSG_Scene",
      "nodes": [
        0
      ]
    }
  ]
}

