{
  "accessors": [
    {
      "bufferView": 2,
      "componentType": 5126,
      "count": 26810,
      "max": [
        4.2012782096862793,
        -0,
        3.5
      ],
      "min": [
        -0,
        -4.943303108215332,
        0
      ],
      "type": "VEC3"
    },
    {
      "bufferView": 2,
      "byteOffset": 321720,
      "componentType": 5126,
      "count": 26810,
      "max": [
        0.99992340803146362,
        0.99986577033996582,
        0.99999010562896729
      ],
      "min": [
        -0.99998033046722412,
        -0.99987459182739258,
        -0.99993360042572021
      ],
      "type": "VEC3"
    },
    {
      "bufferView": 3,
      "componentType": 5126,
      "count": 26810,
      "max": [
        0.99999856948852539,
        0.99999833106994629,
        0.90471243858337402,
        1
      ],
      "min": [
        -0.20155780017375946,
        -0.99999815225601196,
        -0.74212735891342163,
        -1
      ],
      "type": "VEC4"
    },
    {
      "bufferView": 1,
      "componentType": 5126,
      "count": 26810,
      "max": [
        1,
        1
      ],
      "min": [
        0,
        0
      ],
      "type": "VEC2"
    },
    {
      "bufferView": 0,
      "componentType": 5125,
      "count": 160404,
      "max": [
        26809
      ],
      "min": [
        0
      ],
      "type": "SCALAR"
    },
    {
      "bufferView": 2,
      "byteOffset": 643440,
      "componentType": 5126,
      "count": 65532,
      "max": [
        2.9755818843841553,
        -0.13043999671936035,
        2.6928761005401611
      ],
      "min": [
        0.093238003551959991,
        -4.0319228172302246,
        0.034441001713275909
      ],
      "type": "VEC3"
    },
    {
      "bufferView": 2,
      "byteOffset": 1429824,
      "componentType": 5126,
      "count": 65532,
      "max": [
        0.99994444847106934,
        0.99999552965164185,
        0.99995273351669312
      ],
      "min": [
        -0.99993151426315308,
        -0.99998569488525391,
        -0.99999320507049561
      ],
      "type": "VEC3"
    },
    {
      "bufferView": 3,
      "byteOffset": 428960,
      "componentType": 5126,
      "count": 65532,
      "max": [
        1,
        0.99999970197677612,
        0.98922204971313477,
        1
      ],
      "min": [
        -0.41460362076759338,
        -0.99999552965164185,
        -0.99055260419845581,
        -1
      ],
      "type": "VEC4"
    },
    {
      "bufferView": 0,
      "byteOffset": 641616,
      "componentType": 5125,
      "count": 304665,
      "max": [
        65531
      ],
      "min": [
        0
      ],
      "type": "SCALAR"
    },
    {
      "bufferView": 2,
      "byteOffset": 2216208,
      "componentType": 5126,
      "count": 65532,
      "max": [
        4.1550679206848145,
        -1.1535090208053589,
        3.3989999294281006
      ],
      "min": [
        0.22251699864864349,
        -4.9384360313415527,
        0.50551801919937134
      ],
      "type": "VEC3"
    },
    {
      "bufferView": 2,
      "byteOffset": 3002592,
      "componentType": 5126,
      "count": 65532,
      "max": [
        0.99992454051971436,
        0.99996465444564819,
        0.99998855590820312
      ],
      "min": [
        -0.99997752904891968,
        -0.99999505281448364,
        -0.99998104572296143
      ],
      "type": "VEC3"
    },
    {
      "bufferView": 3,
      "byteOffset": 1477472,
      "componentType": 5126,
      "count": 65532,
      "max": [
        1,
        0.99999970197677612,
        0.98547041416168213,
        1
      ],
      "min": [
        -0.49697345495223999,
        -1,
        -0.9914020299911499,
        -1
      ],
      "type": "VEC4"
    },
    {
      "bufferView": 0,
      "byteOffset": 1860276,
      "componentType": 5125,
      "count": 287583,
      "max": [
        65531
      ],
      "min": [
        0
      ],
      "type": "SCALAR"
    },
    {
      "bufferView": 2,
      "byteOffset": 3788976,
      "componentType": 5126,
      "count": 65532,
      "max": [
        4.1558189392089844,
        -0.63291901350021362,
        3.3955769538879395
      ],
      "min": [
        0.18011899292469025,
        -4.9383201599121094,
        0.62921798229217529
      ],
      "type": "VEC3"
    },
    {
      "bufferView": 2,
      "byteOffset": 4575360,
      "componentType": 5126,
      "count": 65532,
      "max": [
        0.99993699789047241,
        0.99999278783798218,
        0.99998092651367188
      ],
      "min": [
        -0.99991589784622192,
        -0.99996840953826904,
        -0.99998104572296143
      ],
      "type": "VEC3"
    },
    {
      "bufferView": 3,
      "byteOffset": 2525984,
      "componentType": 5126,
      "count": 65532,
      "max": [
        1,
        0.99999970197677612,
        0.99313813447952271,
        1
      ],
      "min": [
        -0.50099426507949829,
        -0.99999904632568359,
        -0.99637496471405029,
        -1
      ],
      "type": "VEC4"
    },
    {
      "bufferView": 0,
      "byteOffset": 3010608,
      "componentType": 5125,
      "count": 266319,
      "max": [
        65531
      ],
      "min": [
        0
      ],
      "type": "SCALAR"
    },
    {
      "bufferView": 2,
      "byteOffset": 5361744,
      "componentType": 5126,
      "count": 21773,
      "max": [
        3.9271810054779053,
        -0.63134801387786865,
        3.0997929573059082
      ],
      "min": [
        0.17198599874973297,
        -2.8612110614776611,
        1.3549439907073975
      ],
      "type": "VEC3"
    },
    {
      "bufferView": 2,
      "byteOffset": 5623020,
      "componentType": 5126,
      "count": 21773,
      "max": [
        0.99992406368255615,
        0.99988973140716553,
        0.99997931718826294
      ],
      "min": [
        -0.99972552061080933,
        -0.99987268447875977,
        -0.99997049570083618
      ],
      "type": "VEC3"
    },
    {
      "bufferView": 3,
      "byteOffset": 3574496,
      "componentType": 5126,
      "count": 21773,
      "max": [
        1,
        0.99999696016311646,
        0.95702880620956421,
        1
      ],
      "min": [
        -0.44448679685592651,
        -0.99999797344207764,
        -0.9474908709526062,
        -1
      ],
      "type": "VEC4"
    },
    {
      "bufferView": 0,
      "byteOffset": 4075884,
      "componentType": 5125,
      "count": 91113,
      "max": [
        21772
      ],
      "min": [
        0
      ],
      "type": "SCALAR"
    },
    {
      "bufferView": 2,
      "byteOffset": 5884296,
      "componentType": 5126,
      "count": 8436,
      "max": [
        2.7064371109008789,
        -0.83539700508117676,
        2.5794448852539062
      ],
      "min": [
        1.2945090532302856,
        -3.9905529022216797,
        0.67370998859405518
      ],
      "type": "VEC3"
    },
    {
      "bufferView": 2,
      "byteOffset": 5985528,
      "componentType": 5126,
      "count": 8436,
      "max": [
        0.99989813566207886,
        0.99966615438461304,
        0.99907493591308594
      ],
      "min": [
        -0.99998170137405396,
        -0.99731212854385376,
        -0.99489378929138184
      ],
      "type": "VEC3"
    },
    {
      "bufferView": 3,
      "byteOffset": 3922864,
      "componentType": 5126,
      "count": 8436,
      "max": [
        1,
        0.99998927116394043,
        0.49351844191551208,
        1
      ],
      "min": [
        -0.16005811095237732,
        -0.99999934434890747,
        -0.74610388278961182,
        -1
      ],
      "type": "VEC4"
    },
    {
      "bufferView": 1,
      "byteOffset": 214480,
      "componentType": 5126,
      "count": 8436,
      "max": [
        1,
        1
      ],
      "min": [
        0,
        0
      ],
      "type": "VEC2"
    },
    {
      "bufferView": 0,
      "byteOffset": 4440336,
      "componentType": 5125,
      "count": 31104,
      "max": [
        8435
      ],
      "min": [
        0
      ],
      "type": "SCALAR"
    },
    {
      "bufferView": 2,
      "byteOffset": 6086760,
      "componentType": 5126,
      "count": 18859,
      "max": [
        3.6142590045928955,
        -0.05814800038933754,
        3.1155021190643311
      ],
      "min": [
        0.16393999755382538,
        -3.6693499088287354,
        0.86316698789596558
      ],
      "type": "VEC3"
    },
    {
      "bufferView": 2,
      "byteOffset": 6313068,
      "componentType": 5126,
      "count": 18859,
      "max": [
        0.99978935718536377,
        0.99994015693664551,
        0.99999052286148071
      ],
      "min": [
        -0.99978142976760864,
        -0.99990284442901611,
        -0.99979180097579956
      ],
      "type": "VEC3"
    },
    {
      "bufferView": 3,
      "byteOffset": 4057840,
      "componentType": 5126,
      "count": 18859,
      "max": [
        1,
        0.99999839067459106,
        0.93206268548965454,
        1
      ],
      "min": [
        -0.25497442483901978,
        -0.99999922513961792,
        -0.98746985197067261,
        -1
      ],
      "type": "VEC4"
    },
    {
      "bufferView": 1,
      "byteOffset": 281968,
      "componentType": 5126,
      "count": 18859,
      "max": [
        1,
        1
      ],
      "min": [
        0,
        0
      ],
      "type": "VEC2"
    },
    {
      "bufferView": 0,
      "byteOffset": 4564752,
      "componentType": 5125,
      "count": 69984,
      "max": [
        18858
      ],
      "min": [
        0
      ],
      "type": "SCALAR"
    }
  ],
  "asset": {
    "generator": "Sketchfab (OSG glTF plugin)",
    "version": "2.0"
  },
  "bufferViews": [
    {
      "buffer": 0,
      "byteLength": 4844688,
      "byteOffset": 0,
      "name": "floatBufferViews",
      "target": 34963
    },
    {
      "buffer": 0,
      "byteLength": 432840,
      "byteOffset": 4844688,
      "byteStride": 8,
      "name": "floatBufferViews",
      "target": 34962
    },
    {
      "buffer": 0,
      "byteLength": 6539376,
      "byteOffset": 5277528,
      "byteStride": 12,
      "name": "floatBufferViews",
      "target": 34962
    },
    {
      "buffer": 0,
      "byteLength": 4359584,
      "byteOffset": 11816904,
      "byteStride": 16,
      "name": "floatBufferViews",
      "target": 34962
    }
  ],
  "buffers": [
    {
      "byteLength": 16176488,
      "uri": "scene.bin"
    }
  ],
  "extensionsRequired": [
    "KHR_materials_pbrSpecularGlossiness"
  ],
  "extensionsUsed": [
    "KHR_materials_pbrSpecularGlossiness"
  ],
  "images": [
    {
      "uri": "textures/mat3_diffuse.jpeg"
    },
    {
      "uri": "textures/mat2_diffuse.jpeg"
    },
    {
      "uri": "textures/mat0_diffuse.jpeg"
    }
  ],
  "materials": [
    {
      "alphaMode": "BLEND",
      "doubleSided": true,
      "emissiveFactor": [
        0,
        0,
        0
      ],
      "extensions": {
        "KHR_materials_pbrSpecularGlossiness": {
          "diffuseFactor": [
            1,
            1,
            1,
            0.28000000000000003
          ],
          "diffuseTexture": {
            "index": 2,
            "texCoord": 0
          },
          "glossinessFactor": 0,
          "specularFactor": [
            0,
            0,
            0
          ]
        }
      },
      "name": "mat0",
      "occlusionFactor": 1
    },
    {
      "doubleSided": true,
      "emissiveFactor": [
        0,
        0,
        0
      ],
      "extensions": {
        "KHR_materials_pbrSpecularGlossiness": {
          "diffuseFactor": [
            0.97998638100000002,
            0.32466854979999998,
            0,
            1
          ],
          "glossinessFactor": 0,
          "specularFactor": [
            0,
            0,
            0
          ]
        }
      },
      "name": "mat1",
      "occlusionFactor": 1
    },
    {
      "doubleSided": true,
      "emissiveFactor": [
        0,
        0,
        0
      ],
      "extensions": {
        "KHR_materials_pbrSpecularGlossiness": {
          "diffuseFactor": [
            1,
            1,
            1,
            1
          ],
          "diffuseTexture": {
            "index": 1,
            "texCoord": 0
          },
          "glossinessFactor": 0,
          "specularFactor": [
            0,
            0,
            0
          ]
        }
      },
      "name": "mat2",
      "occlusionFactor": 1
    },
    {
      "doubleSided": true,
      "emissiveFactor": [
        0,
        0,
        0
      ],
      "extensions": {
        "KHR_materials_pbrSpecularGlossiness": {
          "diffuseFactor": [
            1,
            1,
            1,
            1
          ],
          "diffuseTexture": {
            "index": 0,
            "texCoord": 0
          },
          "glossinessFactor": 0,
          "specularFactor": [
            0,
            0,
            0
          ]
        }
      },
      "name": "mat3",
      "occlusionFactor": 1
    }
  ],
  "meshes": [
    {
      "primitives": [
        {
          "attributes": {
            "NORMAL": 1,
            "POSITION": 0,
            "TANGENT": 2,
            "TEXCOORD_0": 3
          },
          "indices": 4,
          "material": 0,
          "mode": 4
        }
      ]
    },
    {
      "primitives": [
        {
          "attributes": {
            "NORMAL": 6,
            "POSITION": 5,
            "TANGENT": 7
          },
          "indices": 8,
          "material": 1,
          "mode": 4
        }
      ]
    },
    {
      "primitives": [
        {
          "attributes": {
            "NORMAL": 10,
            "POSITION": 9,
            "TANGENT": 11
          },
          "indices": 12,
          "material": 1,
          "mode": 4
        }
      ]
    },
    {
      "primitives": [
        {
          "attributes": {
            "NORMAL": 14,
            "POSITION": 13,
            "TANGENT": 15
          },
          "indices": 16,
          "material": 1,
          "mode": 4
        }
      ]
    },
    {
      "primitives": [
        {
          "attributes": {
            "NORMAL": 18,
            "POSITION": 17,
            "TANGENT": 19
          },
          "indices": 20,
          "material": 1,
          "mode": 4
        }
      ]
    },
    {
      "primitives": [
        {
          "attributes": {
            "NORMAL": 22,
            "POSITION": 21,
            "TANGENT": 23,
            "TEXCOORD_0": 24
          },
          "indices": 25,
          "material": 2,
          "mode": 4
        }
      ]
    },
    {
      "primitives": [
        {
          "attributes": {
            "NORMAL": 27,
            "POSITION": 26,
            "TANGENT": 28,
            "TEXCOORD_0": 29
          },
          "indices": 30,
          "material": 3,
          "mode": 4
        }
      ]
    }
  ],
  "nodes": [
    {
      "children": [
        1
      ],
      "name": "RootNode (gltf orientation matrix)",
      "rotation": [
        -0.70710678118654746,
        -0,
        -0,
        0.70710678118654757
      ]
    },
    {
      "children": [
        2
      ],
      "matrix": [
        0.24197952449321747,
        0,
        0.97028136253356934,
        0,
        0,
        1,
        0,
        0,
        -0.97028136253356934,
        0,
        0.24197952449321747,
        0,
        3.2903263568878174,
        0,
        -0.71167635917663574,
        1
      ],
      "name": "RootNode (model correction matrix)"
    },
    {
      "children": [
        3
      ],
      "name": "Cas9N.obj.cleaner.gles"
    },
    {
      "children": [
        4,
        5,
        6,
        7,
        8,
        9,
        10
      ],
      "name": "Geode"
    },
    {
      "mesh": 0,
      "name": ""
    },
    {
      "mesh": 1,
      "name": ""
    },
    {
      "mesh": 2,
      "name": ""
    },
    {
      "mesh": 3,
      "name": ""
    },
    {
      "mesh": 4,
      "name": ""
    },
    {
      "mesh": 5,
      "name": ""
    },
    {
      "mesh": 6,
      "name": ""
    }
  ],
  "samplers": [
    {
      "magFilter": 9729,
      "minFilter": 9987,
      "wrapS": 10497,
      "wrapT": 10497
    }
  ],
  "scene": 0,
  "scenes": [
    {
      "name": "OSG_Scene",
      "nodes": [
        0
      ]
    }
  ],
  "textures": [
    {
      "sampler": 0,
      "source": 0
    },
    {
      "sampler": 0,
      "source": 1
    },
    {
      "sampler": 0,
      "source": 2
    }
  ]
}

