# Rhino

o object_1
v -71500 5437.6138 -9002.9688
v -71500 5341.2354 -15660.77
v -71500 4783.9492 -22317.084
v -71500 3767.0264 -28924.086
v -71500 2298.3274 -35434.5
v -71492.172 2216.7705 -35743.461
v -71468.727 2134.3911 -36051.41
v -71429.75 2051.3972 -36357.617
v -71375.352 1968.0046 -36661.352
v -71305.68 1884.4371 -36961.902
v -71220.891 1800.9253 -37258.559
v -71006.781 1635.0266 -37837.406
v -70253.133 1106.927 -39595.926
v -71006.781 1106.927 -37837.406
v -71500 1106.927 -35434.5
v -71500 1106.927 -31568.078
v -71500 4056.3484 -20574.125
v -71500 4833.2358 -9217.958
vt 0 1
vt 0.022254711 0.83078748
vt 0.15093784 0.64141494
vt 0.38575581 0.4239988
vt 0.72489345 0.16114505
vt 0.74372572 0.14973001
vt 0.762748 0.13836691
vt 0.78191215 0.12703896
vt 0.80116832 0.11572943
vt 0.82046491 0.10442167
vt 0.83974868 0.093098864
vt 0.87805635 0.070340119
vt 1 0
vt 1 0.070340119
vt 1 0.16114505
vt 1 0.32491645
vt 0.31894836 0.69337964
vt 0.13955706 0.99479008
vn -1 0 -6.0529469e-14
vn -1 5.0517045e-18 -6.6563156e-14
vn -1 6.561456e-17 -7.5188357e-14
vn -1 -5.8668467e-17 -8.8574689e-14
vn -1 0 -1.1248129e-13
vn -0.99871647 4.7676073e-17 -0.0506493
vn -0.99487293 -1.2228642e-16 -0.10113297
vn -0.98848319 5.267904e-17 -0.15133063
vn -0.97956586 2.1472976e-16 -0.20112352
vn -0.968144 4.3401442e-17 -0.25039399
vn -0.95424485 4.620883e-17 -0.29902631
vn -0.91914505 0 -0.39391929
vn -0.91914505 -4.8531434e-17 -0.39391929
vn -0.91914505 0 -0.39391929
vn -1 -5.6696366e-33 -1.1303812e-13
vn -1 -3.2491549e-17 -9.6062915e-14
vn -1 2.7755576e-17 -7.2510438e-14
vn -1 1.110223e-16 -6.1001754e-14
f 4/4/4 16/16/16 17/17/17
f 4/4/4 5/5/5 16/16/16
f 5/5/5 6/6/6 15/15/15
f 18/18/18 1/1/1 2/2/2
f 18/18/18 2/2/2 17/17/17
f 3/3/3 17/17/17 2/2/2
f 4/4/4 17/17/17 3/3/3
f 7/7/7 15/15/15 6/6/6
f 14/14/14 11/11/11 12/12/12
f 12/12/12 13/13/13 14/14/14
f 15/15/15 11/11/11 14/14/14
f 15/15/15 8/8/8 9/9/9
f 15/15/15 16/16/16 5/5/5
f 11/11/11 15/15/15 10/10/10
f 10/10/10 15/15/15 9/9/9
f 8/8/8 15/15/15 7/7/7
o object_2
v 71500 5437.6138 -59866.031
v 71500 5341.2354 -53208.23
v 71500 4783.9492 -46551.914
v 71500 3767.0264 -39944.914
v 71500 2298.3274 -33434.5
v 71492.172 2216.7705 -33125.539
v 71468.727 2134.3911 -32817.59
v 71429.75 2051.3972 -32511.383
v 71375.352 1968.0046 -32207.646
v 71305.68 1884.4371 -31907.096
v 71220.891 1800.9253 -31610.439
v 71006.781 1635.0266 -31031.592
v 70253.133 1106.927 -29273.076
v 71006.781 1106.927 -31031.592
v 71500 1106.927 -33434.5
v 71500 1106.927 -37300.922
v 71500 4056.3484 -48294.875
v 71500 4833.2358 -59651.043
vt 0 1
vt 0.022254711 0.83078748
vt 0.15093784 0.64141494
vt 0.38575581 0.4239988
vt 0.72489345 0.16114505
vt 0.74372572 0.14973001
vt 0.762748 0.13836691
vt 0.78191215 0.12703896
vt 0.80116832 0.11572943
vt 0.82046491 0.10442167
vt 0.83974868 0.093098864
vt 0.87805635 0.070340119
vt 1 0
vt 1 0.070340119
vt 1 0.16114505
vt 1 0.32491645
vt 0.31894836 0.69337964
vt 0.13955706 0.99479008
vn 1 -3.3600605e-30 6.0529469e-14
vn 1 -1.110223e-16 6.691584e-14
vn 1 -1.110223e-16 7.5188357e-14
vn 1 3.1537154e-17 8.8485974e-14
vn 1 0 2.4592547e-15
vn 0.99871647 -1.729251e-16 0.0506493
vn 0.99487293 -5.7858842e-17 0.10113297
vn 0.98848319 5.7522987e-17 0.15133063
vn 0.97956586 -5.7757754e-17 0.20112352
vn 0.968144 7.5763284e-18 0.25039399
vn 0.95424485 -3.3335243e-17 0.29902631
vn 0.91914505 0 0.39391929
vn 0.91914505 8.5141403e-18 0.39391929
vn 0.91914505 0 0.39391929
vn 1 -5.6696366e-33 1.1303812e-13
vn 1 -2.9022102e-17 9.6181215e-14
vn 1 -5.5511151e-17 7.2510438e-14
vn 1 5.5511151e-17 6.07086e-14
f 22/22/22 34/34/34 35/35/35
f 22/22/22 23/23/23 34/34/34
f 23/23/23 24/24/24 33/33/33
f 36/36/36 19/19/19 20/20/20
f 36/36/36 20/20/20 35/35/35
f 21/21/21 35/35/35 20/20/20
f 22/22/22 35/35/35 21/21/21
f 25/25/25 33/33/33 24/24/24
f 32/32/32 29/29/29 30/30/30
f 30/30/30 31/31/31 32/32/32
f 33/33/33 29/29/29 32/32/32
f 33/33/33 26/26/26 27/27/27
f 33/33/33 34/34/34 23/23/23
f 29/29/29 33/33/33 28/28/28
f 28/28/28 33/33/33 27/27/27
f 26/26/26 33/33/33 25/25/25
