# Rhino

o object_1
v -71200 12133.69 -12552.567
v -71200 10295.896 -12552.567
v -71200 8458.1025 -12552.567
v -71200 6620.3086 -12552.567
v -71200 4782.5146 -12552.567
v -71200 2944.7207 -12552.567
v -71200 12133.69 -16403.131
v -71200 10295.896 -16403.131
v -71200 8458.1025 -16403.131
v -71200 6620.3086 -16403.131
v -71200 4782.5146 -16403.131
v -71200 2944.7207 -16403.131
v -71200 1106.927 -16403.131
v -71200 12133.69 -20122.732
v -71200 10295.896 -20122.732
v -71200 8458.1025 -20122.732
v -71200 6620.3086 -20122.732
v -71200 4782.5146 -20122.732
v -71200 2944.7207 -20122.732
v -71200 1106.927 -20122.732
v -71200 12133.69 -23968.736
v -71200 10295.896 -23968.736
v -71200 8458.1025 -23968.736
v -71200 6620.3086 -23968.736
v -71200 4782.5146 -23968.736
v -71200 2944.7207 -23968.736
v -71200 1106.927 -23968.736
v -71200 12133.69 -27812.787
v -71200 10295.896 -27812.787
v -71200 8458.1025 -27812.787
v -71200 6620.3086 -27812.787
v -71200 4782.5146 -27812.787
v -71200 2944.7207 -27812.787
v -71200 1106.927 -27812.787
v -71200 10295.896 -31651.818
v -71200 8458.1025 -31651.818
v -71200 6620.3086 -31651.818
v -71200 4782.5146 -31651.818
v -71200 2944.7207 -31651.818
v -71200 1106.927 -31651.818
v -71200 1106.927 -35434.5
v -71200 13965.243 -12778.227
v -71200 13612.494 -15469.516
v -71200 13306.386 -18167.744
v -71200 13047.108 -20871.697
v -71200 12834.812 -23580.156
v -71200 12669.604 -26291.895
v -71200 12551.545 -29005.684
v -71200 12480.66 -31720.295
v -71200 12456.927 -34434.5
v -71200 12460.189 -35434.5
v -71200 1106.927 -12235.66
v -71200 2165.1663 -10960.601
v -71200 3490.48 -9907.2012
v -71200 5005.2876 -9151.248
v -71200 6608.1152 -8731.0244
v -71200 8262.8613 -8644.6445
v -71200 9935.7002 -8904.8691
v -71200 11518.325 -9506.0391
v -71200 12913.804 -10399.508
v -71200 13732.456 -11459.386
v -71200 9621.874 -35434.5
v -71200 6783.5581 -35434.5
v -71200 3945.2424 -35434.5
v -71200 12133.69 -31651.818
v -71200 1106.927 -35434.5
v -71075.422 1106.927 -36661
v -70706.781 12494.179 -37837.406
v -70706.781 1106.927 -37837.406
v -71200 12460.189 -35434.5
v -71168.773 12465.387 -36050.949
v -71075.414 12472.924 -36661.059
v -70920.883 12482.613 -37258.586
v -71200 3945.2424 -35434.5
v -71200 6783.5581 -35434.5
v -71200 9621.874 -35434.5
v -70706.781 6800.5527 -37837.406
v -70706.781 1106.927 -37837.406
v -69691.914 1106.927 -40205.438
v -68677.047 12669.413 -42573.469
v -68677.047 1106.927 -42573.469
v -70706.781 12494.179 -37837.406
v -70706.781 6800.5527 -37837.406
v -68677.047 6888.1699 -42573.469
v -68677.047 1106.927 -42573.469
v -68320.492 1106.927 -43711.305
v -68200 12808.056 -44897.594
v -68200 1106.927 -44897.594
v -68677.047 12669.413 -42573.469
v -68469.875 12699.651 -43133.594
v -68320.422 12732.97 -43711.633
v -68230.172 12769.193 -44301.648
v -68677.047 6888.1699 -42573.469
v -68200 11345.414 -44897.594
v -68200 9882.7734 -44897.594
v -68200 8420.1318 -44897.594
v -68200 6957.4912 -44897.594
v -68200 5494.8501 -44897.594
v -68200 4032.209 -44897.594
v -68200 2569.5681 -44897.594
v -68200 1106.927 -44897.594
v -68200 12133.689 -47083.031
v -68200 10295.896 -47083.031
v -68200 8458.1025 -47083.031
v -68200 6620.3086 -47083.031
v -68200 4782.5146 -47083.031
v -68200 2944.7207 -47083.031
v -68200 1106.927 -47083.031
v -68200 12133.689 -49203.078
v -68200 10295.896 -49203.078
v -68200 8458.1025 -49203.078
v -68200 6620.3086 -49203.078
v -68200 4782.5146 -49203.078
v -68200 2944.7207 -49203.078
v -68200 1106.927 -49203.078
v -68200 12133.689 -51323.258
v -68200 10295.896 -51323.258
v -68200 8458.1025 -51323.258
v -68200 6620.3086 -51323.258
v -68200 4782.5146 -51323.258
v -68200 2944.7207 -51323.258
v -68200 1106.927 -51323.258
v -68200 12133.689 -53487.805
v -68200 10295.896 -53487.805
v -68200 8458.1025 -53487.805
v -68200 6620.3086 -53487.805
v -68200 4782.5146 -53487.805
v -68200 2944.7207 -53487.805
v -68200 1106.927 -53487.805
v -68200 12133.689 -55673.863
v -68200 10295.896 -55673.863
v -68200 8458.1025 -55673.863
v -68200 6620.3086 -55673.863
v -68200 4782.5146 -55673.863
v -68200 2944.7207 -55673.863
v -68200 1106.927 -55673.863
v -68200 12133.689 -57868.301
v -68200 10295.896 -57868.301
v -68200 8458.1025 -57868.301
v -68200 6620.3086 -57868.301
v -68200 4782.5146 -57868.301
v -68200 2944.7207 -57868.301
v -68200 13965.243 -56090.773
v -68200 13732.456 -57409.613
v -68200 12913.804 -58469.492
v -68200 12244.496 -58948.297
v -68200 11518.325 -59362.961
v -68200 10744.874 -59704.047
v -68200 9935.7002 -59964.133
v -68200 9103.7881 -60138.277
v -68200 8262.8613 -60224.355
v -68200 7426.6387 -60223.102
v -68200 6608.1152 -60137.977
v -68200 5802.3979 -59970.508
v -68200 5005.2876 -59717.754
v -68200 4230.2163 -59380.363
v -68200 3490.48 -58961.801
v -68200 2798.5056 -58468.266
v -68200 2165.1663 -57908.398
v -68200 1599.2184 -57292.793
v -68200 1106.927 -56633.34
v -68200 12808.056 -44897.594
v -68200 12908.585 -46300.699
v -68200 13021.748 -47703.016
v -68200 13147.533 -49104.371
v -68200 13285.929 -50504.594
v -68200 13436.918 -51903.516
v -68200 13600.482 -53300.965
v -68200 13776.599 -54696.773
v -68200 2569.5681 -44897.594
v -68200 4032.209 -44897.594
v -68200 5494.8501 -44897.594
v -68200 6957.4912 -44897.594
v -68200 8420.1318 -44897.594
v -68200 9882.7734 -44897.594
v -68200 11345.414 -44897.594
vt 0.35595176 0.098894306
vt 0.29662645 0.098894306
vt 0.23730116 0.098894306
vt 0.17797586 0.098894306
vt 0.11865058 0.098894306
vt 0.059325278 0.098894306
vt 0.35595176 0.20226194
vt 0.29662645 0.20226194
vt 0.23730116 0.20226194
vt 0.17797586 0.20226194
vt 0.11865058 0.20226194
vt 0.059325278 0.20226194
vt 0 0.20226194
vt 0.35595176 0.3088406
vt 0.29662645 0.3088406
vt 0.23730116 0.3088406
vt 0.17797586 0.3088406
vt 0.11865058 0.3088406
vt 0.059325278 0.3088406
vt 0 0.3088406
vt 0.35595176 0.42763129
vt 0.29662645 0.42763129
vt 0.23730116 0.42763129
vt 0.17797586 0.42763129
vt 0.11865058 0.42763129
vt 0.059325278 0.42763129
vt 0 0.42763129
vt 0.35595176 0.55753601
vt 0.29662645 0.55753601
vt 0.23730116 0.55753601
vt 0.17797586 0.55753601
vt 0.11865058 0.55753601
vt 0.059325278 0.55753601
vt 0 0.55753601
vt 0.29662645 0.70232207
vt 0.23730116 0.70232207
vt 0.17797586 0.70232207
vt 0.11865058 0.70232207
vt 0.059325278 0.70232207
vt 0 0.70232207
vt 0 0.86638266
vt 0.41507557 0.10477962
vt 0.40368858 0.17659979
vt 0.3938072 0.25191689
vt 0.38543755 0.33122724
vt 0.37858447 0.41517103
vt 0.37325138 0.50459749
vt 0.36944041 0.60067332
vt 0.36715218 0.70507622
vt 0.36638606 0.82037312
vt 0.36649135 0.86638266
vt 0 0.090663128
vt 0.034160722 0.057935346
vt 0.076942794 0.031350292
vt 0.12584186 0.012513824
vt 0.17758226 0.0021275955
vt 0.23099864 0
vt 0.28499907 0.0064170924
vt 0.33608735 0.021329697
vt 0.38113436 0.043725129
vt 0.40756103 0.070664808
vt 0.27486852 0.86638266
vt 0.18324567 0.86638266
vt 0.091622844 0.86638266
vt 0.35595176 0.70232207
vt 0.41654041 0.1025728
vt 0.41654041 0.1425093
vt 0.7854262 0.18244579
vt 0.41654041 0.18244579
vt 0.78432512 0.1025728
vt 0.78449351 0.12259363
vt 0.78473771 0.1425112
vt 0.78505158 0.16242778
vt 0.50848657 0.1025728
vt 0.60043275 0.1025728
vt 0.69237894 0.1025728
vt 0.60098332 0.18244579
vt 0.41654041 0.58318514
vt 0.49926758 0.58318514
vt 0.58199477 0.20862265
vt 0.58199477 0.58318514
vt 0.41654041 0.21429932
vt 0.41654041 0.39874223
vt 0.58199477 0.39590389
vt 0.41654041 0
vt 0.41654041 0.038627103
vt 0.79559416 0.077254206
vt 0.41654041 0.077254206
vt 0.79110289 0
vt 0.79208243 0.019371202
vt 0.79316175 0.038637962
vt 0.79433525 0.057899226
vt 0.60382164 0
vt 0.74821246 0.077254206
vt 0.7008307 0.077254206
vt 0.653449 0.077254206
vt 0.6060673 0.077254206
vt 0.55868554 0.077254206
vt 0.51130384 0.077254206
vt 0.46392211 0.077254206
vt 0.58345962 0.20862265
vt 0.93941134 0.32113343
vt 0.88008606 0.32113343
vt 0.82076073 0.32113343
vt 0.76143545 0.32113343
vt 0.70211017 0.32113343
vt 0.64278489 0.32113343
vt 0.58345962 0.32113343
vt 0.93941134 0.40500429
vt 0.88008606 0.40500429
vt 0.82076073 0.40500429
vt 0.76143545 0.40500429
vt 0.70211017 0.40500429
vt 0.64278489 0.40500429
vt 0.58345962 0.40500429
vt 0.93941134 0.47593391
vt 0.88008606 0.47593391
vt 0.82076073 0.47593391
vt 0.76143545 0.47593391
vt 0.70211017 0.47593391
vt 0.64278489 0.47593391
vt 0.58345962 0.47593391
vt 0.93941134 0.53976971
vt 0.88008606 0.53976971
vt 0.82076073 0.53976971
vt 0.76143545 0.53976971
vt 0.70211017 0.53976971
vt 0.64278489 0.53976971
vt 0.58345962 0.53976971
vt 0.93941134 0.59799308
vt 0.88008606 0.59799308
vt 0.82076073 0.59799308
vt 0.76143545 0.59799308
vt 0.70211017 0.59799308
vt 0.64278489 0.59799308
vt 0.58345962 0.59799308
vt 0.93941134 0.65167129
vt 0.88008606 0.65167129
vt 0.82076073 0.65167129
vt 0.76143545 0.65167129
vt 0.70211017 0.65167129
vt 0.64278489 0.65167129
vt 0.99853516 0.60852236
vt 0.99102062 0.64079088
vt 0.96459395 0.66568542
vt 0.94298822 0.67665625
vt 0.9195469 0.68602717
vt 0.89457935 0.69364816
vt 0.86845869 0.69940794
vt 0.84160393 0.70324028
vt 0.81445825 0.70512748
vt 0.78746438 0.7051
vt 0.76104188 0.70323366
vt 0.73503274 0.6995486
vt 0.70930147 0.69395274
vt 0.68428159 0.68641782
vt 0.66040236 0.67696321
vt 0.63806492 0.6656571
vt 0.61762029 0.65261459
vt 0.59935111 0.63799262
vt 0.58345962 0.6219821
vt 0.96118033 0.20862265
vt 0.9644255 0.28508672
vt 0.96807849 0.34744638
vt 0.97213894 0.40143722
vt 0.97660643 0.44971487
vt 0.98148048 0.49376774
vt 0.98676044 0.53452939
vt 0.99244559 0.57263088
vt 0.63067466 0.20862265
vt 0.67788976 0.20862265
vt 0.72510487 0.20862265
vt 0.77231997 0.20862265
vt 0.81953508 0.20862265
vt 0.86675012 0.20862265
vt 0.91396523 0.20862265
vn -1 8.6736174e-15 -6.4064483e-14
vn -1 8.6736174e-15 -6.3282103e-14
vn -1 8.6736174e-15 -6.3141583e-14
vn -1 8.6736174e-15 -6.3917309e-14
vn -1 8.6736174e-15 -6.3833758e-14
vn -1 8.6736174e-15 -6.4559164e-14
vn -1 8.6042284e-15 -6.6960218e-14
vn -1 8.6042284e-15 -6.7095607e-14
vn -1 8.6042284e-15 -6.7586656e-14
vn -1 8.6042284e-15 -6.7273437e-14
vn -1 8.6042284e-15 -6.7629096e-14
vn -1 8.6042284e-15 -6.7259288e-14
vn -1 8.6042284e-15 -6.7273437e-14
vn -1 8.6597396e-15 -7.1862316e-14
vn -1 8.6597396e-15 -7.2212866e-14
vn -1 8.6597396e-15 -7.2433582e-14
vn -1 8.6597396e-15 -7.1702193e-14
vn -1 8.6597396e-15 -7.2037591e-14
vn -1 8.6597396e-15 -7.1351643e-14
vn -1 8.6597396e-15 -7.1862316e-14
vn -1 8.5487173e-15 -7.7830368e-14
vn -1 8.5487173e-15 -7.764007e-14
vn -1 8.5487173e-15 -7.7846814e-14
vn -1 8.5487173e-15 -7.7607178e-14
vn -1 8.5487173e-15 -7.8401248e-14
vn -1 8.5487173e-15 -7.7259488e-14
vn -1 8.5487173e-15 -7.764007e-14
vn -1 8.6597396e-15 -8.6088363e-14
vn -1 8.6597396e-15 -8.5248479e-14
vn -1 8.6597396e-15 -8.6088363e-14
vn -1 8.6597396e-15 -8.5704711e-14
vn -1 8.6597396e-15 -8.5668418e-14
vn -1 8.6597396e-15 -8.5704711e-14
vn -1 8.6597396e-15 -8.5668418e-14
vn -1 8.8817842e-15 -9.6353203e-14
vn -1 8.8817842e-15 -9.6353203e-14
vn -1 8.8817842e-15 -9.6312186e-14
vn -1 8.8817842e-15 -9.587856e-14
vn -1 8.8817842e-15 -9.734352e-14
vn -1 8.8817842e-15 -9.6827853e-14
vn -1 8.437695e-15 -1.1248129e-13
vn -1 8.5764729e-15 -6.3303759e-14
vn -1 8.6874952e-15 -6.5837066e-14
vn -1 8.437695e-15 -6.9320417e-14
vn -1 8.5487173e-15 -7.3140719e-14
vn -1 8.437695e-15 -7.7309293e-14
vn -1 8.437695e-15 -8.2204385e-14
vn -1 8.6597396e-15 -8.8714653e-14
vn -1 8.437695e-15 -9.7544206e-14
vn -1 8.8817842e-15 -1.0780294e-13
vn -1 8.437695e-15 -1.1303812e-13
vn -1 8.5348395e-15 -6.3528833e-14
vn -1 8.7707619e-15 -6.2387371e-14
vn -1 8.8123953e-15 -6.137924e-14
vn -1 8.5487173e-15 -6.0772635e-14
vn -1 8.305856e-15 -5.9356044e-14
vn -1 8.2989171e-15 -5.9782413e-14
vn -1 8.4238172e-15 -6.0392866e-14
vn -1 8.6736174e-15 -6.0716345e-14
vn -1 8.5070839e-15 -6.2040156e-14
vn -1 8.9095398e-15 -6.2822882e-14
vn -1 8.437695e-15 -1.1252941e-13
vn -1 8.437695e-15 -1.1248129e-13
vn -1 8.437695e-15 -1.1248129e-13
vn -1 8.8817842e-15 -9.7302496e-14
vn -1 8.437695e-15 -1.5202666e-14
vn -0.97957772 8.7704908e-15 -0.20106587
vn -0.91914505 7.930401e-15 -0.39391929
vn -0.91914505 7.930401e-15 -0.39391929
vn -1 8.437695e-15 -9.6134504e-15
vn -0.99488062 8.6036508e-15 -0.10105696
vn -0.97957575 8.660601e-15 -0.20107535
vn -0.9542436 8.281137e-15 -0.29903033
vn -1 8.437695e-15 -8.4956075e-15
vn -1 8.437695e-15 -2.3251136e-14
vn -1 8.437695e-15 -2.4145411e-14
vn -0.91914505 7.930401e-15 -0.39391929
vn -0.91914505 7.930401e-15 -0.39391929
vn -0.91914505 8.0980475e-15 -0.39391929
vn -0.91914505 8.3385828e-15 -0.39391929
vn -0.91914505 8.3385828e-15 -0.39391929
vn -0.91914505 7.930401e-15 -0.39391929
vn -0.91914505 7.930401e-15 -0.39391929
vn -0.91914505 8.3385828e-15 -0.39391929
vn -0.91914505 8.3385828e-15 -0.39391929
vn -0.97957772 8.7057199e-15 -0.20106587
vn -1 8.8817842e-15 -2.4821103e-30
vn -1 8.8817842e-15 -1.2072706e-14
vn -0.91914505 8.3385828e-15 -0.39391929
vn -0.95425856 8.3404243e-15 -0.29898268
vn -0.97958922 8.5846315e-15 -0.20100994
vn -0.99488562 8.7272388e-15 -0.10100777
vn -0.91914505 8.3385828e-15 -0.39391929
vn -1 8.8817842e-15 -3.5770976e-15
vn -1 8.8817842e-15 -3.5770976e-15
vn -1 8.8817842e-15 -3.8006665e-15
vn -1 8.8817842e-15 -4.2478037e-15
vn -1 8.8817842e-15 -4.4713722e-15
vn -1 8.8817842e-15 -4.4713722e-15
vn -1 8.8817842e-15 -4.9185094e-15
vn -1 8.8817842e-15 -2.0466833e-13
vn -1 8.5348395e-15 -1.4504026e-13
vn -1 8.5348395e-15 -1.4341229e-13
vn -1 8.5348395e-15 -1.432303e-13
vn -1 8.5348395e-15 -1.4393276e-13
vn -1 8.5348395e-15 -1.4369209e-13
vn -1 8.5348395e-15 -1.4420279e-13
vn -1 8.5348395e-15 -1.4369209e-13
vn -1 8.7707619e-15 -1.1819181e-13
vn -1 8.7707619e-15 -1.1740239e-13
vn -1 8.7707619e-15 -1.1681834e-13
vn -1 8.7707619e-15 -1.1841323e-13
vn -1 8.7707619e-15 -1.1683439e-13
vn -1 8.7707619e-15 -1.1801852e-13
vn -1 8.7707619e-15 -1.172291e-13
vn -1 8.9928065e-15 -1.0172835e-13
vn -1 8.9928065e-15 -1.0242741e-13
vn -1 8.9928065e-15 -1.0242741e-13
vn -1 8.9928065e-15 -1.0207092e-13
vn -1 8.9928065e-15 -1.0276998e-13
vn -1 8.9928065e-15 -1.0276998e-13
vn -1 8.9928065e-15 -1.0139971e-13
vn -1 8.6597396e-15 -9.154337e-14
vn -1 8.6597396e-15 -9.0943488e-14
vn -1 8.6597396e-15 -9.0637323e-14
vn -1 8.6597396e-15 -9.1237205e-14
vn -1 8.6597396e-15 -9.1237205e-14
vn -1 8.6597396e-15 -9.1849536e-14
vn -1 8.6597396e-15 -9.1237205e-14
vn -1 8.6597396e-15 -8.2885447e-14
vn -1 8.6597396e-15 -8.3466362e-14
vn -1 8.6597396e-15 -8.3153211e-14
vn -1 8.6597396e-15 -8.3734133e-14
vn -1 8.6597396e-15 -8.2594982e-14
vn -1 8.6597396e-15 -8.375682e-14
vn -1 8.6597396e-15 -8.3175905e-14
vn -1 8.437695e-15 -7.7179474e-14
vn -1 8.437695e-15 -7.6394715e-14
vn -1 8.437695e-15 -7.6931876e-14
vn -1 8.437695e-15 -7.6394715e-14
vn -1 8.437695e-15 -7.7448058e-14
vn -1 8.437695e-15 -7.6931876e-14
vn -1 8.6597396e-15 -8.1867788e-14
vn -1 8.437695e-15 -7.7054987e-14
vn -1 8.437695e-15 -7.5437906e-14
vn -1 8.437695e-15 -7.4305782e-14
vn -1 8.6597396e-15 -7.3393657e-14
vn -1 8.437695e-15 -7.3120099e-14
vn -1 8.8817842e-15 -7.2566227e-14
vn -1 8.437695e-15 -7.2202322e-14
vn -1 8.437695e-15 -7.1544299e-14
vn -1 8.437695e-15 -7.2027047e-14
vn -1 8.8817842e-15 -7.17216e-14
vn -1 8.437695e-15 -7.2572468e-14
vn -1 8.8817842e-15 -7.3090602e-14
vn -1 8.437695e-15 -7.4359667e-14
vn -1 8.6597396e-15 -7.4813887e-14
vn -1 8.437695e-15 -7.5957388e-14
vn -1 8.6597396e-15 -7.6293735e-14
vn -1 8.6597396e-15 -7.7868355e-14
vn -1 8.6597396e-15 -8.0254332e-14
vn -1 8.8817842e-15 -2.0466833e-13
vn -1 8.8054564e-15 -1.5838288e-13
vn -1 8.7152507e-15 -1.3413619e-13
vn -1 8.4932061e-15 -1.197406e-13
vn -1 8.6597396e-15 -1.0805355e-13
vn -1 8.437695e-15 -9.8126443e-14
vn -1 8.6597396e-15 -9.2670338e-14
vn -1 8.8817842e-15 -8.6807379e-14
vn -1 8.8817842e-15 -2.0193942e-13
vn -1 8.8817842e-15 -2.0193942e-13
vn -1 8.8817842e-15 -2.0330387e-13
vn -1 8.8817842e-15 -2.0466833e-13
vn -1 8.8817842e-15 -2.0466833e-13
vn -1 8.8817842e-15 -2.0603278e-13
vn -1 8.8817842e-15 -2.032484e-13
f 8/8/8 2/2/2 1/1/1 7/7/7
f 9/9/9 3/3/3 2/2/2 8/8/8
f 10/10/10 4/4/4 3/3/3 9/9/9
f 11/11/11 5/5/5 4/4/4 10/10/10
f 12/12/12 6/6/6 5/5/5 11/11/11
f 15/15/15 8/8/8 7/7/7 14/14/14
f 16/16/16 9/9/9 8/8/8 15/15/15
f 17/17/17 10/10/10 9/9/9 16/16/16
f 18/18/18 11/11/11 10/10/10 17/17/17
f 19/19/19 12/12/12 11/11/11 18/18/18
f 20/20/20 13/13/13 12/12/12 19/19/19
f 22/22/22 15/15/15 14/14/14 21/21/21
f 23/23/23 16/16/16 15/15/15 22/22/22
f 24/24/24 17/17/17 16/16/16 23/23/23
f 25/25/25 18/18/18 17/17/17 24/24/24
f 26/26/26 19/19/19 18/18/18 25/25/25
f 27/27/27 20/20/20 19/19/19 26/26/26
f 29/29/29 22/22/22 21/21/21 28/28/28
f 30/30/30 23/23/23 22/22/22 29/29/29
f 31/31/31 24/24/24 23/23/23 30/30/30
f 32/32/32 25/25/25 24/24/24 31/31/31
f 33/33/33 26/26/26 25/25/25 32/32/32
f 34/34/34 27/27/27 26/26/26 33/33/33
f 36/36/36 30/30/30 29/29/29 35/35/35
f 37/37/37 31/31/31 30/30/30 36/36/36
f 38/38/38 32/32/32 31/31/31 37/37/37
f 39/39/39 33/33/33 32/32/32 38/38/38
f 40/40/40 34/34/34 33/33/33 39/39/39
f 1/1/1 60/60/60 61/61/61
f 59/59/59 2/2/2 58/58/58
f 60/60/60 1/1/1 59/59/59
f 1/1/1 2/2/2 59/59/59
f 1/1/1 61/61/61 42/42/42
f 7/7/7 43/43/43 44/44/44
f 1/1/1 43/43/43 7/7/7
f 58/58/58 2/2/2 3/3/3
f 43/43/43 1/1/1 42/42/42
f 57/57/57 58/58/58 3/3/3
f 56/56/56 4/4/4 55/55/55
f 53/53/53 54/54/54 6/6/6
f 54/54/54 55/55/55 5/5/5
f 4/4/4 56/56/56 57/57/57
f 5/5/5 6/6/6 54/54/54
f 53/53/53 6/6/6 52/52/52
f 13/13/13 52/52/52 6/6/6 12/12/12
f 4/4/4 5/5/5 55/55/55
f 4/4/4 57/57/57 3/3/3
f 44/44/44 14/14/14 7/7/7
f 14/14/14 45/45/45 46/46/46
f 14/14/14 46/46/46 21/21/21
f 47/47/47 21/21/21 46/46/46
f 28/28/28 21/21/21 47/47/47
f 44/44/44 45/45/45 14/14/14
f 65/65/65 48/48/48 49/49/49
f 48/48/48 65/65/65 28/28/28
f 50/50/50 65/65/65 49/49/49
f 50/50/50 35/35/35 65/65/65
f 65/65/65 35/35/35 29/29/29 28/28/28
f 62/62/62 50/50/50 51/51/51
f 47/47/47 48/48/48 28/28/28
f 63/63/63 37/37/37 36/36/36
f 38/38/38 37/37/37 63/63/63 64/64/64
f 36/36/36 35/35/35 62/62/62
f 38/38/38 64/64/64 39/39/39
f 40/40/40 39/39/39 41/41/41
f 64/64/64 41/41/41 39/39/39
f 62/62/62 63/63/63 36/36/36
f 62/62/62 35/35/35 50/50/50
f 76/76/76 70/70/70 71/71/71
f 75/75/75 76/76/76 71/71/71
f 75/75/75 67/67/67 74/74/74
f 74/74/74 67/67/67 66/66/66
f 71/71/71 67/67/67 75/75/75
f 77/77/77 73/73/73 68/68/68
f 67/67/67 72/72/72 73/73/73
f 69/69/69 67/67/67 77/77/77
f 73/73/73 77/77/77 67/67/67
f 71/71/71 72/72/72 67/67/67
f 79/79/79 83/83/83 82/82/82
f 79/79/79 78/78/78 83/83/83
f 79/79/79 80/80/80 84/84/84
f 84/84/84 81/81/81 79/79/79
f 82/82/82 80/80/80 79/79/79
f 86/86/86 90/90/90 91/91/91
f 98/98/98 86/86/86 92/92/92
f 86/86/86 91/91/91 92/92/92
f 93/93/93 89/89/89 90/90/90
f 93/93/93 86/86/86 85/85/85
f 93/93/93 90/90/90 86/86/86
f 94/94/94 92/92/92 87/87/87
f 92/92/92 94/94/94 95/95/95
f 92/92/92 96/96/96 97/97/97
f 92/92/92 95/95/95 96/96/96
f 86/86/86 98/98/98 99/99/99
f 86/86/86 100/100/100 88/88/88
f 86/86/86 99/99/99 100/100/100
f 92/92/92 97/97/97 98/98/98
f 110/110/110 103/103/103 102/102/102 109/109/109
f 111/111/111 104/104/104 103/103/103 110/110/110
f 112/112/112 105/105/105 104/104/104 111/111/111
f 113/113/113 106/106/106 105/105/105 112/112/112
f 114/114/114 107/107/107 106/106/106 113/113/113
f 115/115/115 108/108/108 107/107/107 114/114/114
f 117/117/117 110/110/110 109/109/109 116/116/116
f 118/118/118 111/111/111 110/110/110 117/117/117
f 119/119/119 112/112/112 111/111/111 118/118/118
f 120/120/120 113/113/113 112/112/112 119/119/119
f 121/121/121 114/114/114 113/113/113 120/120/120
f 122/122/122 115/115/115 114/114/114 121/121/121
f 124/124/124 117/117/117 116/116/116 123/123/123
f 125/125/125 118/118/118 117/117/117 124/124/124
f 126/126/126 119/119/119 118/118/118 125/125/125
f 127/127/127 120/120/120 119/119/119 126/126/126
f 128/128/128 121/121/121 120/120/120 127/127/127
f 129/129/129 122/122/122 121/121/121 128/128/128
f 131/131/131 124/124/124 123/123/123 130/130/130
f 132/132/132 125/125/125 124/124/124 131/131/131
f 133/133/133 126/126/126 125/125/125 132/132/132
f 134/134/134 127/127/127 126/126/126 133/133/133
f 135/135/135 128/128/128 127/127/127 134/134/134
f 136/136/136 129/129/129 128/128/128 135/135/135
f 138/138/138 131/131/131 130/130/130 137/137/137
f 139/139/139 132/132/132 131/131/131 138/138/138
f 140/140/140 133/133/133 132/132/132 139/139/139
f 141/141/141 134/134/134 133/133/133 140/140/140
f 142/142/142 135/135/135 134/134/134 141/141/141
f 109/109/109 164/164/164 165/165/165
f 102/102/102 163/163/163 164/164/164
f 176/176/176 162/162/162 163/163/163
f 109/109/109 102/102/102 164/164/164
f 102/102/102 176/176/176 163/163/163
f 109/109/109 165/165/165 166/166/166
f 123/123/123 168/168/168 169/169/169
f 123/123/123 167/167/167 168/168/168
f 109/109/109 166/166/166 116/116/116
f 116/116/116 166/166/166 167/167/167
f 123/123/123 116/116/116 167/167/167
f 123/123/123 169/169/169 130/130/130
f 130/130/130 169/169/169 143/143/143
f 103/103/103 175/175/175 176/176/176
f 174/174/174 175/175/175 103/103/103 104/104/104
f 172/172/172 173/173/173 105/105/105 106/106/106
f 107/107/107 170/170/170 171/171/171
f 171/171/171 172/172/172 106/106/106
f 173/173/173 174/174/174 104/104/104 105/105/105
f 107/107/107 108/108/108 101/101/101 170/170/170
f 107/107/107 171/171/171 106/106/106
f 103/103/103 176/176/176 102/102/102
f 137/137/137 130/130/130 144/144/144
f 145/145/145 137/137/137 144/144/144
f 137/137/137 147/147/147 138/138/138
f 138/138/138 150/150/150 139/139/139
f 145/145/145 146/146/146 137/137/137
f 138/138/138 147/147/147 148/148/148
f 138/138/138 148/148/148 149/149/149
f 150/150/150 151/151/151 139/139/139
f 152/152/152 139/139/139 151/151/151
f 138/138/138 149/149/149 150/150/150
f 147/147/147 137/137/137 146/146/146
f 140/140/140 139/139/139 152/152/152
f 154/154/154 141/141/141 140/140/140
f 160/160/160 161/161/161 136/136/136
f 142/142/142 159/159/159 135/135/135
f 135/135/135 160/160/160 136/136/136
f 159/159/159 160/160/160 135/135/135
f 142/142/142 141/141/141 157/157/157
f 155/155/155 141/141/141 154/154/154
f 141/141/141 155/155/155 156/156/156
f 158/158/158 159/159/159 142/142/142
f 157/157/157 158/158/158 142/142/142
f 141/141/141 156/156/156 157/157/157
f 153/153/153 154/154/154 140/140/140
f 153/153/153 140/140/140 152/152/152
f 143/143/143 144/144/144 130/130/130
o object_2
v 71200 12133.69 -56316.434
v 71200 10295.896 -56316.434
v 71200 8458.1025 -56316.434
v 71200 6620.3086 -56316.434
v 71200 4782.5146 -56316.434
v 71200 2944.7207 -56316.434
v 71200 12133.69 -52465.871
v 71200 10295.896 -52465.871
v 71200 8458.1025 -52465.871
v 71200 6620.3086 -52465.871
v 71200 4782.5146 -52465.871
v 71200 2944.7207 -52465.871
v 71200 1106.927 -52465.871
v 71200 12133.69 -48746.266
v 71200 10295.896 -48746.266
v 71200 8458.1025 -48746.266
v 71200 6620.3086 -48746.266
v 71200 4782.5146 -48746.266
v 71200 2944.7207 -48746.266
v 71200 1106.927 -48746.266
v 71200 12133.69 -44900.266
v 71200 10295.896 -44900.266
v 71200 8458.1025 -44900.266
v 71200 6620.3086 -44900.266
v 71200 4782.5146 -44900.266
v 71200 2944.7207 -44900.266
v 71200 1106.927 -44900.266
v 71200 12133.69 -41056.215
v 71200 10295.896 -41056.215
v 71200 8458.1025 -41056.215
v 71200 6620.3086 -41056.215
v 71200 4782.5146 -41056.215
v 71200 2944.7207 -41056.215
v 71200 1106.927 -41056.215
v 71200 10295.896 -37217.184
v 71200 8458.1025 -37217.184
v 71200 6620.3086 -37217.184
v 71200 4782.5146 -37217.184
v 71200 2944.7207 -37217.184
v 71200 1106.927 -37217.184
v 71200 1106.927 -33434.5
v 71200 13965.243 -56090.773
v 71200 13612.494 -53399.484
v 71200 13306.386 -50701.254
v 71200 13047.108 -47997.301
v 71200 12834.812 -45288.844
v 71200 12669.604 -42577.105
v 71200 12551.545 -39863.316
v 71200 12480.66 -37148.703
v 71200 12456.927 -34434.5
v 71200 12460.189 -33434.5
v 71200 1106.927 -56633.34
v 71200 2165.1663 -57908.398
v 71200 3490.48 -58961.801
v 71200 5005.2876 -59717.754
v 71200 6608.1152 -60137.977
v 71200 8262.8613 -60224.355
v 71200 9935.7002 -59964.133
v 71200 11518.325 -59362.961
v 71200 12913.804 -58469.492
v 71200 13732.456 -57409.613
v 71200 9621.874 -33434.5
v 71200 6783.5581 -33434.5
v 71200 3945.2424 -33434.5
v 71200 12133.69 -37217.184
v 71200 1106.927 -33434.5
v 71075.422 1106.927 -32207.998
v 70706.781 12494.179 -31031.592
v 70706.781 1106.927 -31031.592
v 71200 12460.189 -33434.5
v 71168.773 12465.387 -32818.051
v 71075.414 12472.924 -32207.939
v 70920.883 12482.613 -31610.414
v 71200 3945.2424 -33434.5
v 71200 6783.5581 -33434.5
v 71200 9621.874 -33434.5
v 70706.781 6800.5527 -31031.592
v 70706.781 1106.927 -31031.592
v 69691.914 1106.927 -28663.562
v 68677.047 12669.413 -26295.531
v 68677.047 1106.927 -26295.531
v 70706.781 12494.179 -31031.592
v 70706.781 6800.5527 -31031.592
v 68677.047 6888.1699 -26295.531
v 68677.047 1106.927 -26295.531
v 68320.492 1106.927 -25157.695
v 68200 12808.056 -23971.408
v 68200 1106.927 -23971.408
v 68677.047 12669.413 -26295.531
v 68469.875 12699.651 -25735.406
v 68320.422 12732.97 -25157.367
v 68230.172 12769.193 -24567.354
v 68677.047 6888.1699 -26295.531
v 68200 11345.414 -23971.408
v 68200 9882.7734 -23971.408
v 68200 8420.1318 -23971.408
v 68200 6957.4912 -23971.408
v 68200 5494.8501 -23971.408
v 68200 4032.209 -23971.408
v 68200 2569.5681 -23971.408
v 68200 1106.927 -23971.408
v 68200 12133.689 -21785.967
v 68200 10295.896 -21785.967
v 68200 8458.1025 -21785.967
v 68200 6620.3086 -21785.967
v 68200 4782.5146 -21785.967
v 68200 2944.7207 -21785.967
v 68200 1106.927 -21785.967
v 68200 12133.689 -19665.924
v 68200 10295.896 -19665.924
v 68200 8458.1025 -19665.924
v 68200 6620.3086 -19665.924
v 68200 4782.5146 -19665.924
v 68200 2944.7207 -19665.924
v 68200 1106.927 -19665.924
v 68200 12133.689 -17545.742
v 68200 10295.896 -17545.742
v 68200 8458.1025 -17545.742
v 68200 6620.3086 -17545.742
v 68200 4782.5146 -17545.742
v 68200 2944.7207 -17545.742
v 68200 1106.927 -17545.742
v 68200 12133.689 -15381.195
v 68200 10295.896 -15381.195
v 68200 8458.1025 -15381.195
v 68200 6620.3086 -15381.195
v 68200 4782.5146 -15381.195
v 68200 2944.7207 -15381.195
v 68200 1106.927 -15381.195
v 68200 12133.689 -13195.135
v 68200 10295.896 -13195.135
v 68200 8458.1025 -13195.135
v 68200 6620.3086 -13195.135
v 68200 4782.5146 -13195.135
v 68200 2944.7207 -13195.135
v 68200 1106.927 -13195.135
v 68200 12133.689 -11000.697
v 68200 10295.896 -11000.697
v 68200 8458.1025 -11000.697
v 68200 6620.3086 -11000.697
v 68200 4782.5146 -11000.697
v 68200 2944.7207 -11000.697
v 68200 13965.243 -12778.227
v 68200 13732.456 -11459.386
v 68200 12913.804 -10399.508
v 68200 12244.496 -9920.7031
v 68200 11518.325 -9506.0391
v 68200 10744.874 -9164.9521
v 68200 9935.7002 -8904.8691
v 68200 9103.7881 -8730.7217
v 68200 8262.8613 -8644.6445
v 68200 7426.6387 -8645.8994
v 68200 6608.1152 -8731.0244
v 68200 5802.3979 -8898.4941
v 68200 5005.2876 -9151.248
v 68200 4230.2163 -9488.6377
v 68200 3490.48 -9907.2012
v 68200 2798.5056 -10400.735
v 68200 2165.1663 -10960.601
v 68200 1599.2184 -11576.208
v 68200 1106.927 -12235.66
v 68200 12808.056 -23971.408
v 68200 12908.585 -22568.301
v 68200 13021.748 -21165.982
v 68200 13147.533 -19764.627
v 68200 13285.929 -18364.404
v 68200 13436.918 -16965.482
v 68200 13600.482 -15568.033
v 68200 13776.599 -14172.226
v 68200 2569.5681 -23971.408
v 68200 4032.209 -23971.408
v 68200 5494.8501 -23971.408
v 68200 6957.4912 -23971.408
v 68200 8420.1318 -23971.408
v 68200 9882.7734 -23971.408
v 68200 11345.414 -23971.408
vt 0.35595176 0.098894306
vt 0.29662645 0.098894306
vt 0.23730116 0.098894306
vt 0.17797586 0.098894306
vt 0.11865058 0.098894306
vt 0.059325278 0.098894306
vt 0.35595176 0.20226194
vt 0.29662645 0.20226194
vt 0.23730116 0.20226194
vt 0.17797586 0.20226194
vt 0.11865058 0.20226194
vt 0.059325278 0.20226194
vt 0 0.20226194
vt 0.35595176 0.3088406
vt 0.29662645 0.3088406
vt 0.23730116 0.3088406
vt 0.17797586 0.3088406
vt 0.11865058 0.3088406
vt 0.059325278 0.3088406
vt 0 0.3088406
vt 0.35595176 0.42763129
vt 0.29662645 0.42763129
vt 0.23730116 0.42763129
vt 0.17797586 0.42763129
vt 0.11865058 0.42763129
vt 0.059325278 0.42763129
vt 0 0.42763129
vt 0.35595176 0.55753601
vt 0.29662645 0.55753601
vt 0.23730116 0.55753601
vt 0.17797586 0.55753601
vt 0.11865058 0.55753601
vt 0.059325278 0.55753601
vt 0 0.55753601
vt 0.29662645 0.70232207
vt 0.23730116 0.70232207
vt 0.17797586 0.70232207
vt 0.11865058 0.70232207
vt 0.059325278 0.70232207
vt 0 0.70232207
vt 0 0.86638266
vt 0.41507557 0.10477962
vt 0.40368858 0.17659979
vt 0.3938072 0.25191689
vt 0.38543755 0.33122724
vt 0.37858447 0.41517103
vt 0.37325138 0.50459749
vt 0.36944041 0.60067332
vt 0.36715218 0.70507622
vt 0.36638606 0.82037312
vt 0.36649135 0.86638266
vt 0 0.090663128
vt 0.034160722 0.057935346
vt 0.076942794 0.031350292
vt 0.12584186 0.012513824
vt 0.17758226 0.0021275955
vt 0.23099864 0
vt 0.28499907 0.0064170924
vt 0.33608735 0.021329697
vt 0.38113436 0.043725129
vt 0.40756103 0.070664808
vt 0.27486852 0.86638266
vt 0.18324567 0.86638266
vt 0.091622844 0.86638266
vt 0.35595176 0.70232207
vt 0.41654041 0.1025728
vt 0.41654041 0.1425093
vt 0.7854262 0.18244579
vt 0.41654041 0.18244579
vt 0.78432512 0.1025728
vt 0.78449351 0.12259363
vt 0.78473771 0.1425112
vt 0.78505158 0.16242778
vt 0.50848657 0.1025728
vt 0.60043275 0.1025728
vt 0.69237894 0.1025728
vt 0.60098332 0.18244579
vt 0.41654041 0.58318514
vt 0.49926758 0.58318514
vt 0.58199477 0.20862265
vt 0.58199477 0.58318514
vt 0.41654041 0.21429932
vt 0.41654041 0.39874223
vt 0.58199477 0.39590389
vt 0.41654041 0
vt 0.41654041 0.038627103
vt 0.79559416 0.077254206
vt 0.41654041 0.077254206
vt 0.79110289 0
vt 0.79208243 0.019371202
vt 0.79316175 0.038637962
vt 0.79433525 0.057899226
vt 0.60382164 0
vt 0.74821246 0.077254206
vt 0.7008307 0.077254206
vt 0.653449 0.077254206
vt 0.6060673 0.077254206
vt 0.55868554 0.077254206
vt 0.51130384 0.077254206
vt 0.46392211 0.077254206
vt 0.58345962 0.20862265
vt 0.93941134 0.32113343
vt 0.88008606 0.32113343
vt 0.82076073 0.32113343
vt 0.76143545 0.32113343
vt 0.70211017 0.32113343
vt 0.64278489 0.32113343
vt 0.58345962 0.32113343
vt 0.93941134 0.40500429
vt 0.88008606 0.40500429
vt 0.82076073 0.40500429
vt 0.76143545 0.40500429
vt 0.70211017 0.40500429
vt 0.64278489 0.40500429
vt 0.58345962 0.40500429
vt 0.93941134 0.47593391
vt 0.88008606 0.47593391
vt 0.82076073 0.47593391
vt 0.76143545 0.47593391
vt 0.70211017 0.47593391
vt 0.64278489 0.47593391
vt 0.58345962 0.47593391
vt 0.93941134 0.53976971
vt 0.88008606 0.53976971
vt 0.82076073 0.53976971
vt 0.76143545 0.53976971
vt 0.70211017 0.53976971
vt 0.64278489 0.53976971
vt 0.58345962 0.53976971
vt 0.93941134 0.59799308
vt 0.88008606 0.59799308
vt 0.82076073 0.59799308
vt 0.76143545 0.59799308
vt 0.70211017 0.59799308
vt 0.64278489 0.59799308
vt 0.58345962 0.59799308
vt 0.93941134 0.65167129
vt 0.88008606 0.65167129
vt 0.82076073 0.65167129
vt 0.76143545 0.65167129
vt 0.70211017 0.65167129
vt 0.64278489 0.65167129
vt 0.99853516 0.60852236
vt 0.99102062 0.64079088
vt 0.96459395 0.66568542
vt 0.94298822 0.67665625
vt 0.9195469 0.68602717
vt 0.89457935 0.69364816
vt 0.86845869 0.69940794
vt 0.84160393 0.70324028
vt 0.81445825 0.70512748
vt 0.78746438 0.7051
vt 0.76104188 0.70323366
vt 0.73503274 0.6995486
vt 0.70930147 0.69395274
vt 0.68428159 0.68641782
vt 0.66040236 0.67696321
vt 0.63806492 0.6656571
vt 0.61762029 0.65261459
vt 0.59935111 0.63799262
vt 0.58345962 0.6219821
vt 0.96118033 0.20862265
vt 0.9644255 0.28508672
vt 0.96807849 0.34744638
vt 0.97213894 0.40143722
vt 0.97660643 0.44971487
vt 0.98148048 0.49376774
vt 0.98676044 0.53452939
vt 0.99244559 0.57263088
vt 0.63067466 0.20862265
vt 0.67788976 0.20862265
vt 0.72510487 0.20862265
vt 0.77231997 0.20862265
vt 0.81953508 0.20862265
vt 0.86675012 0.20862265
vt 0.91396523 0.20862265
vn 1 8.6736174e-15 6.3526123e-14
vn 1 8.6736174e-15 6.3589738e-14
vn 1 8.6736174e-15 6.3603033e-14
vn 1 8.6736174e-15 6.3763495e-14
vn 1 8.6736174e-15 6.3295398e-14
vn 1 8.6736174e-15 6.3328635e-14
vn 1 8.5487173e-15 6.7696791e-14
vn 1 8.5487173e-15 6.7586656e-14
vn 1 8.5487173e-15 6.7422976e-14
vn 1 8.5487173e-15 6.6946076e-14
vn 1 8.5487173e-15 6.7792777e-14
vn 1 8.5487173e-15 6.7095607e-14
vn 1 8.5487173e-15 6.7109756e-14
vn 1 8.6597396e-15 7.2037591e-14
vn 1 8.6597396e-15 7.2212866e-14
vn 1 8.6597396e-15 7.2608857e-14
vn 1 8.6597396e-15 7.1702193e-14
vn 1 8.6597396e-15 7.2037591e-14
vn 1 8.6597396e-15 7.1702193e-14
vn 1 8.6597396e-15 7.2212866e-14
vn 1 8.5487173e-15 7.8020659e-14
vn 1 8.5487173e-15 7.7449779e-14
vn 1 8.5487173e-15 7.7466225e-14
vn 1 8.5487173e-15 7.7226589e-14
vn 1 8.5487173e-15 7.8020659e-14
vn 1 8.5487173e-15 7.7259488e-14
vn 1 8.5487173e-15 7.8020659e-14
vn 1 8.6597396e-15 8.5668418e-14
vn 1 8.6597396e-15 8.6088363e-14
vn 1 8.6597396e-15 8.6088363e-14
vn 1 8.6597396e-15 8.6124657e-14
vn 1 8.6597396e-15 8.5668418e-14
vn 1 8.6597396e-15 8.5704711e-14
vn 1 8.6597396e-15 8.5248479e-14
vn 1 8.8817842e-15 9.587856e-14
vn 1 8.8817842e-15 9.6827853e-14
vn 1 8.8817842e-15 9.5362893e-14
vn 1 8.8817842e-15 9.7302496e-14
vn 1 8.8817842e-15 9.6394226e-14
vn 1 8.8817842e-15 9.6827853e-14
vn 1 8.8817842e-15 1.1248129e-13
vn 1 8.5764729e-15 6.3766795e-14
vn 1 8.6597396e-15 6.6078741e-14
vn 1 8.6597396e-15 6.9221382e-14
vn 1 8.5487173e-15 7.2947419e-14
vn 1 8.6597396e-15 7.712069e-14
vn 1 8.6597396e-15 8.1985491e-14
vn 1 8.437695e-15 8.8516007e-14
vn 1 8.437695e-15 9.7544206e-14
vn 1 8.437695e-15 1.0780294e-13
vn 1 8.8817842e-15 1.1359496e-13
vn 1 8.5487173e-15 6.3069592e-14
vn 1 8.3266727e-15 6.1636236e-14
vn 1 8.8054564e-15 6.0359764e-14
vn 1 8.9928065e-15 6.0113657e-14
vn 1 8.7499452e-15 6.0120447e-14
vn 1 8.7464758e-15 6.0436844e-14
vn 1 8.4168783e-15 6.0513586e-14
vn 1 8.5625951e-15 6.0532396e-14
vn 1 8.5070839e-15 6.1965644e-14
vn 1 8.4793284e-15 6.2007406e-14
vn 1 8.8817842e-15 1.1248129e-13
vn 1 8.8817842e-15 1.1248129e-13
vn 1 8.8817842e-15 1.1248129e-13
vn 1 8.8817842e-15 9.6353203e-14
vn 1 8.437695e-15 5.5892155e-15
vn 0.97957772 8.3422598e-15 0.20106587
vn 0.91914505 8.0178682e-15 0.39391929
vn 0.91914505 8.0178682e-15 0.39391929
vn 1 8.8817842e-15 1.0731293e-14
vn 0.99488062 8.3810344e-15 0.10105696
vn 0.97957575 8.5620013e-15 0.20107535
vn 0.9542436 8.1010697e-15 0.29903033
vn 1 8.8817842e-15 1.3190548e-14
vn 1 8.8817842e-15 2.0568313e-14
vn 1 8.8817842e-15 1.4084823e-14
vn 0.91914505 8.0178682e-15 0.39391929
vn 0.91914505 8.0178682e-15 0.39391929
vn 0.91914505 8.0980475e-15 0.39391929
vn 0.91914505 7.930401e-15 0.39391929
vn 0.91914505 7.930401e-15 0.39391929
vn 0.91914505 8.0178682e-15 0.39391929
vn 0.91914505 8.0178682e-15 0.39391929
vn 0.91914505 7.930401e-15 0.39391929
vn 0.91914505 7.930401e-15 0.39391929
vn 0.97957772 8.8268736e-15 0.20106587
vn 1 8.437695e-15 -4.2478037e-15
vn 1 8.437695e-15 1.117843e-15
vn 0.91914505 7.930401e-15 0.39391929
vn 0.95425856 8.3696935e-15 0.29898268
vn 0.97958922 8.8043874e-15 0.20100994
vn 0.99488562 8.7385399e-15 0.10100777
vn 0.91914505 7.930401e-15 0.39391929
vn 1 8.437695e-15 -4.471372e-16
vn 1 8.437695e-15 -1.4755529e-14
vn 1 8.437695e-15 -1.453196e-14
vn 1 8.437695e-15 2.235686e-16
vn 1 8.437695e-15 -1.3861254e-14
vn 1 8.437695e-15 -6.4834896e-15
vn 1 8.437695e-15 -6.2599212e-15
vn 1 8.437695e-15 2.0466833e-13
vn 1 8.6458618e-15 1.4371655e-13
vn 1 8.6458618e-15 1.4317161e-13
vn 1 8.6458618e-15 1.4371166e-13
vn 1 8.6458618e-15 1.4393276e-13
vn 1 8.6458618e-15 1.4321075e-13
vn 1 8.6458618e-15 1.4348077e-13
vn 1 8.6458618e-15 1.4321075e-13
vn 1 8.4932061e-15 1.1681032e-13
vn 1 8.4932061e-15 1.1720503e-13
vn 1 8.4932061e-15 1.1681834e-13
vn 1 8.4932061e-15 1.1683439e-13
vn 1 8.4932061e-15 1.1762381e-13
vn 1 8.4932061e-15 1.1801852e-13
vn 1 8.4932061e-15 1.1762381e-13
vn 1 8.437695e-15 1.0138578e-13
vn 1 8.437695e-15 1.0242741e-13
vn 1 8.437695e-15 1.0242741e-13
vn 1 8.437695e-15 1.0207092e-13
vn 1 8.437695e-15 1.0208484e-13
vn 1 8.437695e-15 1.0276998e-13
vn 1 8.437695e-15 1.0208484e-13
vn 1 8.5487173e-15 9.1237205e-14
vn 1 8.5487173e-15 9.1249653e-14
vn 1 8.5487173e-15 9.0943488e-14
vn 1 8.5487173e-15 9.1237205e-14
vn 1 8.5487173e-15 9.0624875e-14
vn 1 8.5487173e-15 9.1849536e-14
vn 1 8.5487173e-15 9.1237205e-14
vn 1 8.437695e-15 8.3443669e-14
vn 1 8.437695e-15 8.3187248e-14
vn 1 8.437695e-15 8.2594982e-14
vn 1 8.437695e-15 8.3734133e-14
vn 1 8.437695e-15 8.3153211e-14
vn 1 8.437695e-15 8.375682e-14
vn 1 8.437695e-15 8.2617676e-14
vn 1 8.437695e-15 7.7179474e-14
vn 1 8.437695e-15 7.6394715e-14
vn 1 8.437695e-15 7.6931876e-14
vn 1 8.437695e-15 7.6910897e-14
vn 1 8.437695e-15 7.6931876e-14
vn 1 8.437695e-15 7.6931876e-14
vn 1 8.6597396e-15 8.2142511e-14
vn 1 8.6597396e-15 7.8648846e-14
vn 1 8.437695e-15 7.5184792e-14
vn 1 8.6597396e-15 7.4804481e-14
vn 1 8.437695e-15 7.3886094e-14
vn 1 8.437695e-15 7.1618065e-14
vn 1 8.8817842e-15 7.2082456e-14
vn 1 8.8817842e-15 7.1720977e-14
vn 1 8.437695e-15 7.1544299e-14
vn 1 8.437695e-15 7.1527352e-14
vn 1 8.437695e-15 7.1240248e-14
vn 1 8.8817842e-15 7.2088785e-14
vn 1 8.437695e-15 7.3577869e-14
vn 1 8.437695e-15 7.2823095e-14
vn 1 8.437695e-15 7.4274869e-14
vn 1 8.437695e-15 7.5957388e-14
vn 1 8.6597396e-15 7.6830184e-14
vn 1 8.437695e-15 7.8394634e-14
vn 1 8.6597396e-15 8.0254332e-14
vn 1 8.437695e-15 2.0330387e-13
vn 1 8.368306e-15 1.5864862e-13
vn 1 8.4932061e-15 1.3413619e-13
vn 1 8.4932061e-15 1.1853116e-13
vn 1 8.6597396e-15 1.0823363e-13
vn 1 8.7707619e-15 9.9466137e-14
vn 1 8.5487173e-15 9.1731202e-14
vn 1 8.437695e-15 8.6795581e-14
vn 1 8.437695e-15 2.0466833e-13
vn 1 8.437695e-15 2.0193942e-13
vn 1 8.437695e-15 2.0330387e-13
vn 1 8.437695e-15 2.0461286e-13
vn 1 8.437695e-15 2.0335933e-13
vn 1 8.437695e-15 2.0330387e-13
vn 1 8.437695e-15 2.0051949e-13
f 184/184/184 178/178/178 177/177/177 183/183/183
f 185/185/185 179/179/179 178/178/178 184/184/184
f 186/186/186 180/180/180 179/179/179 185/185/185
f 187/187/187 181/181/181 180/180/180 186/186/186
f 188/188/188 182/182/182 181/181/181 187/187/187
f 191/191/191 184/184/184 183/183/183 190/190/190
f 192/192/192 185/185/185 184/184/184 191/191/191
f 193/193/193 186/186/186 185/185/185 192/192/192
f 194/194/194 187/187/187 186/186/186 193/193/193
f 195/195/195 188/188/188 187/187/187 194/194/194
f 196/196/196 189/189/189 188/188/188 195/195/195
f 198/198/198 191/191/191 190/190/190 197/197/197
f 199/199/199 192/192/192 191/191/191 198/198/198
f 200/200/200 193/193/193 192/192/192 199/199/199
f 201/201/201 194/194/194 193/193/193 200/200/200
f 202/202/202 195/195/195 194/194/194 201/201/201
f 203/203/203 196/196/196 195/195/195 202/202/202
f 205/205/205 198/198/198 197/197/197 204/204/204
f 206/206/206 199/199/199 198/198/198 205/205/205
f 207/207/207 200/200/200 199/199/199 206/206/206
f 208/208/208 201/201/201 200/200/200 207/207/207
f 209/209/209 202/202/202 201/201/201 208/208/208
f 210/210/210 203/203/203 202/202/202 209/209/209
f 212/212/212 206/206/206 205/205/205 211/211/211
f 213/213/213 207/207/207 206/206/206 212/212/212
f 214/214/214 208/208/208 207/207/207 213/213/213
f 215/215/215 209/209/209 208/208/208 214/214/214
f 216/216/216 210/210/210 209/209/209 215/215/215
f 177/177/177 236/236/236 237/237/237
f 235/235/235 178/178/178 234/234/234
f 236/236/236 177/177/177 235/235/235
f 177/177/177 178/178/178 235/235/235
f 177/177/177 237/237/237 218/218/218
f 183/183/183 219/219/219 220/220/220
f 177/177/177 219/219/219 183/183/183
f 234/234/234 178/178/178 179/179/179
f 219/219/219 177/177/177 218/218/218
f 233/233/233 234/234/234 179/179/179
f 232/232/232 180/180/180 231/231/231
f 229/229/229 230/230/230 182/182/182
f 230/230/230 231/231/231 181/181/181
f 180/180/180 232/232/232 233/233/233
f 181/181/181 182/182/182 230/230/230
f 229/229/229 182/182/182 228/228/228
f 189/189/189 228/228/228 182/182/182 188/188/188
f 180/180/180 181/181/181 231/231/231
f 180/180/180 233/233/233 179/179/179
f 220/220/220 190/190/190 183/183/183
f 190/190/190 221/221/221 222/222/222
f 190/190/190 222/222/222 197/197/197
f 223/223/223 197/197/197 222/222/222
f 204/204/204 197/197/197 223/223/223
f 220/220/220 221/221/221 190/190/190
f 241/241/241 224/224/224 225/225/225
f 224/224/224 241/241/241 204/204/204
f 226/226/226 241/241/241 225/225/225
f 226/226/226 211/211/211 241/241/241
f 241/241/241 211/211/211 205/205/205 204/204/204
f 238/238/238 226/226/226 227/227/227
f 223/223/223 224/224/224 204/204/204
f 239/239/239 213/213/213 212/212/212
f 214/214/214 213/213/213 239/239/239 240/240/240
f 212/212/212 211/211/211 238/238/238
f 214/214/214 240/240/240 215/215/215
f 216/216/216 215/215/215 217/217/217
f 240/240/240 217/217/217 215/215/215
f 238/238/238 239/239/239 212/212/212
f 238/238/238 211/211/211 226/226/226
f 252/252/252 246/246/246 247/247/247
f 251/251/251 252/252/252 247/247/247
f 251/251/251 243/243/243 250/250/250
f 250/250/250 243/243/243 242/242/242
f 247/247/247 243/243/243 251/251/251
f 253/253/253 249/249/249 244/244/244
f 243/243/243 248/248/248 249/249/249
f 245/245/245 243/243/243 253/253/253
f 249/249/249 253/253/253 243/243/243
f 247/247/247 248/248/248 243/243/243
f 255/255/255 259/259/259 258/258/258
f 255/255/255 254/254/254 259/259/259
f 255/255/255 256/256/256 260/260/260
f 260/260/260 257/257/257 255/255/255
f 258/258/258 256/256/256 255/255/255
f 262/262/262 266/266/266 267/267/267
f 274/274/274 262/262/262 268/268/268
f 262/262/262 267/267/267 268/268/268
f 269/269/269 265/265/265 266/266/266
f 269/269/269 262/262/262 261/261/261
f 269/269/269 266/266/266 262/262/262
f 270/270/270 268/268/268 263/263/263
f 268/268/268 270/270/270 271/271/271
f 268/268/268 272/272/272 273/273/273
f 268/268/268 271/271/271 272/272/272
f 262/262/262 274/274/274 275/275/275
f 262/262/262 276/276/276 264/264/264
f 262/262/262 275/275/275 276/276/276
f 268/268/268 273/273/273 274/274/274
f 286/286/286 279/279/279 278/278/278 285/285/285
f 287/287/287 280/280/280 279/279/279 286/286/286
f 288/288/288 281/281/281 280/280/280 287/287/287
f 289/289/289 282/282/282 281/281/281 288/288/288
f 290/290/290 283/283/283 282/282/282 289/289/289
f 291/291/291 284/284/284 283/283/283 290/290/290
f 293/293/293 286/286/286 285/285/285 292/292/292
f 294/294/294 287/287/287 286/286/286 293/293/293
f 295/295/295 288/288/288 287/287/287 294/294/294
f 296/296/296 289/289/289 288/288/288 295/295/295
f 297/297/297 290/290/290 289/289/289 296/296/296
f 298/298/298 291/291/291 290/290/290 297/297/297
f 300/300/300 293/293/293 292/292/292 299/299/299
f 301/301/301 294/294/294 293/293/293 300/300/300
f 302/302/302 295/295/295 294/294/294 301/301/301
f 303/303/303 296/296/296 295/295/295 302/302/302
f 304/304/304 297/297/297 296/296/296 303/303/303
f 305/305/305 298/298/298 297/297/297 304/304/304
f 307/307/307 300/300/300 299/299/299 306/306/306
f 308/308/308 301/301/301 300/300/300 307/307/307
f 309/309/309 302/302/302 301/301/301 308/308/308
f 310/310/310 303/303/303 302/302/302 309/309/309
f 311/311/311 304/304/304 303/303/303 310/310/310
f 312/312/312 305/305/305 304/304/304 311/311/311
f 314/314/314 307/307/307 306/306/306 313/313/313
f 315/315/315 308/308/308 307/307/307 314/314/314
f 316/316/316 309/309/309 308/308/308 315/315/315
f 317/317/317 310/310/310 309/309/309 316/316/316
f 318/318/318 311/311/311 310/310/310 317/317/317
f 285/285/285 340/340/340 341/341/341
f 278/278/278 339/339/339 340/340/340
f 352/352/352 338/338/338 339/339/339
f 285/285/285 278/278/278 340/340/340
f 278/278/278 352/352/352 339/339/339
f 285/285/285 341/341/341 342/342/342
f 299/299/299 344/344/344 345/345/345
f 299/299/299 343/343/343 344/344/344
f 285/285/285 342/342/342 292/292/292
f 292/292/292 342/342/342 343/343/343
f 299/299/299 292/292/292 343/343/343
f 299/299/299 345/345/345 306/306/306
f 306/306/306 345/345/345 319/319/319
f 279/279/279 351/351/351 352/352/352
f 350/350/350 351/351/351 279/279/279 280/280/280
f 348/348/348 349/349/349 281/281/281 282/282/282
f 283/283/283 346/346/346 347/347/347
f 347/347/347 348/348/348 282/282/282
f 349/349/349 350/350/350 280/280/280 281/281/281
f 283/283/283 284/284/284 277/277/277 346/346/346
f 283/283/283 347/347/347 282/282/282
f 279/279/279 352/352/352 278/278/278
f 313/313/313 306/306/306 320/320/320
f 321/321/321 313/313/313 320/320/320
f 313/313/313 323/323/323 314/314/314
f 314/314/314 326/326/326 315/315/315
f 321/321/321 322/322/322 313/313/313
f 314/314/314 323/323/323 324/324/324
f 314/314/314 324/324/324 325/325/325
f 326/326/326 327/327/327 315/315/315
f 328/328/328 315/315/315 327/327/327
f 314/314/314 325/325/325 326/326/326
f 323/323/323 313/313/313 322/322/322
f 316/316/316 315/315/315 328/328/328
f 330/330/330 317/317/317 316/316/316
f 336/336/336 337/337/337 312/312/312
f 318/318/318 335/335/335 311/311/311
f 311/311/311 336/336/336 312/312/312
f 335/335/335 336/336/336 311/311/311
f 318/318/318 317/317/317 333/333/333
f 331/331/331 317/317/317 330/330/330
f 317/317/317 331/331/331 332/332/332
f 334/334/334 335/335/335 318/318/318
f 333/333/333 334/334/334 318/318/318
f 317/317/317 332/332/332 333/333/333
f 329/329/329 330/330/330 316/316/316
f 329/329/329 316/316/316 328/328/328
f 319/319/319 320/320/320 306/306/306
o object_3
v -60453.5 -14804 -56633.34
v 69032.477 -14804 -56633.34
v -60453.5 1106.927 -56633.34
v 69032.477 1106.927 -56633.34
v -60453.5 1106.927 -56633.34
v 69032.477 1106.927 -56633.34
v -60453.5 2939.9355 -58578.219
v 69032.477 2939.9355 -58578.219
v -60453.5 5304.7139 -59823.332
v 69032.477 5304.7139 -59823.332
v -60453.5 7945.5127 -60234.016
v 69032.477 7945.5127 -60234.016
v -60453.5 10576.73 -59765.859
v 69032.477 10576.73 -59765.859
v -60453.5 12913.804 -58469.492
v 69032.477 12913.804 -58469.492
v -60453.5 13732.456 -57409.613
v 69032.477 13732.456 -57409.613
v -60453.5 13965.243 -56090.773
v 69032.477 13965.243 -56090.773
v -60453.5 13965.243 -56090.773
v 69032.477 13965.243 -56090.773
v -60453.5 12834.812 -45288.844
v 69032.477 12834.812 -45288.844
v -60453.5 12456.927 -34434.5
v 69032.477 12456.927 -34434.5
v -60453.5 12834.812 -23580.156
v 69032.477 12834.812 -23580.156
v -60453.5 13965.243 -12778.227
v 69032.477 13965.243 -12778.227
v -60453.5 13965.243 -12778.227
v 69032.477 13965.243 -12778.227
v -60453.5 13732.456 -11459.386
v 69032.477 13732.456 -11459.386
v -60453.5 12913.804 -10399.508
v 69032.477 12913.804 -10399.508
v -60453.5 10576.73 -9103.1396
v 69032.477 10576.73 -9103.1396
v -60453.5 7945.5127 -8634.9824
v 69032.477 7945.5127 -8634.9824
v -60453.5 5304.7139 -9045.668
v 69032.477 5304.7139 -9045.668
v -60453.5 2939.9355 -10290.779
v 69032.477 2939.9355 -10290.779
v -60453.5 1106.927 -12235.66
v 69032.477 1106.927 -12235.66
v -60453.5 1106.927 -12235.66
v 69032.477 1106.927 -12235.66
v -60453.5 -23338 -12235.66
v 69032.477 -23338 -12235.66
vt 0 0
vt 0 1
vt 0.13708642 0
vt 0.13708642 1
vt 0.13708642 0
vt 0.13708642 1
vt 0.16021772 0
vt 0.16021772 1
vt 0.18334903 0
vt 0.18334903 1
vt 0.20648034 0
vt 0.20648034 1
vt 0.22961165 0
vt 0.22961165 1
vt 0.25274295 0
vt 0.25274295 1
vt 0.26439449 0
vt 0.26439449 1
vt 0.27604601 0
vt 0.27604601 1
vt 0.27604601 0
vt 0.27604601 1
vt 0.36964107 0
vt 0.36964107 1
vt 0.46323609 0
vt 0.46323609 1
vt 0.55683112 0
vt 0.55683112 1
vt 0.65042621 0
vt 0.65042621 1
vt 0.65042621 0
vt 0.65042621 1
vt 0.66207772 0
vt 0.66207772 1
vt 0.67372924 0
vt 0.67372924 1
vt 0.69686055 0
vt 0.69686055 1
vt 0.71999186 0
vt 0.71999186 1
vt 0.74312317 0
vt 0.74312317 1
vt 0.76625448 0
vt 0.76625448 1
vt 0.7893858 0
vt 0.7893858 1
vt 0.7893858 0
vt 0.7893858 1
vt 1 0
vt 1 1
vn 0 0 -1
vn 0 0 -1
vn 0 0 -1
vn 0 0 -1
vn 0 -0.83059883 -0.55687124
vn 0 -0.83059883 -0.55687124
vn 0 -0.60504407 -0.79619199
vn 0 -0.60504407 -0.79619199
vn 0 -0.3140541 -0.94940507
vn 0 -0.3140541 -0.94940507
vn 0 0.010900625 -0.99994057
vn 0 0.010900625 -0.99994057
vn 0 0.33467644 -0.9423331
vn 0 0.33467644 -0.9423331
vn 0 0.62225723 -0.78281283
vn 0 0.62225723 -0.78281283
vn 0 0.91463304 -0.40428504
vn 0 0.91463304 -0.40428504
vn 0 0.99777108 0.066729814
vn 0 0.99777108 0.066729814
vn 0 0.99035412 0.13855955
vn 0 0.99035412 0.13855955
vn 0 0.99758339 0.069479674
vn 0 0.99758339 0.069479674
vn 0 1 -6.4608037e-05
vn 0 1 -6.4608037e-05
vn 0 0.99758339 -0.069479674
vn 0 0.99758339 -0.069479674
vn 0 0.99035412 -0.13855955
vn 0 0.99035412 -0.13855955
vn 0 0.99777108 -0.066729814
vn 0 0.99777108 -0.066729814
vn 0 0.91463304 0.40428504
vn 0 0.91463304 0.40428504
vn 0 0.62225723 0.78281283
vn 0 0.62225723 0.78281283
vn 0 0.33467644 0.9423331
vn 0 0.33467644 0.9423331
vn 0 0.010900625 0.99994057
vn 0 0.010900625 0.99994057
vn 0 -0.3140541 0.94940507
vn 0 -0.3140541 0.94940507
vn 0 -0.60504407 0.79619199
vn 0 -0.60504407 0.79619199
vn 0 -0.83059883 0.55687124
vn 0 -0.83059883 0.55687124
vn 0 0 1
vn 0 0 1
vn 0 0 1
vn 0 0 1
f 353/353/353 355/355/355 356/356/356 354/354/354
f 357/357/357 359/359/359 360/360/360 358/358/358
f 359/359/359 361/361/361 362/362/362 360/360/360
f 361/361/361 363/363/363 364/364/364 362/362/362
f 363/363/363 365/365/365 366/366/366 364/364/364
f 365/365/365 367/367/367 368/368/368 366/366/366
f 367/367/367 369/369/369 370/370/370 368/368/368
f 369/369/369 371/371/371 372/372/372 370/370/370
f 373/373/373 375/375/375 376/376/376 374/374/374
f 375/375/375 377/377/377 378/378/378 376/376/376
f 377/377/377 379/379/379 380/380/380 378/378/378
f 379/379/379 381/381/381 382/382/382 380/380/380
f 383/383/383 385/385/385 386/386/386 384/384/384
f 385/385/385 387/387/387 388/388/388 386/386/386
f 387/387/387 389/389/389 390/390/390 388/388/388
f 389/389/389 391/391/391 392/392/392 390/390/390
f 391/391/391 393/393/393 394/394/394 392/392/392
f 393/393/393 395/395/395 396/396/396 394/394/394
f 395/395/395 397/397/397 398/398/398 396/396/396
f 399/399/399 401/401/401 402/402/402 400/400/400
