# Rhino

o object_1
v -10450 6116.3252 -8311.9248
v -10450 -353 -57479.691
v -10450 1106.927 -57479.691
v -10450 2065.1384 -58501.156
v -10450 3241.0254 -59395.688
v -10450 4608.2065 -60099.402
v -10450 6116.3252 -60557.074
v -10450 4608.2065 -8769.5967
v -10450 3241.0254 -9473.3115
v -10450 2065.1384 -10367.845
v -10450 1106.927 -11389.307
v -10450 -353 -11389.307
vt 0 0
vt 1 0.94109726
vt 0.77433085 0.94109726
vt 0.62621474 0.9606486
vt 0.44445127 0.97777045
vt 0.2331184 0.99123991
vt 0 1
vt 0.2331184 0.008760076
vt 0.44445127 0.02222956
vt 0.62621474 0.039351404
vt 0.77433085 0.058902726
vt 1 0.058902726
vn 1 -1.110223e-16 0
vn 1 0 0
vn 1 0 0
vn 1 0 0
vn 1 0 0
vn 1 0 0
vn 1 0 0
vn 1 -1.110223e-16 0
vn 1 -1.110223e-16 0
vn 1 0 0
vn 1 1.110223e-16 0
vn 1 1.110223e-16 0
f 8/8/8 6/6/6 1/1/1
f 9/9/9 5/5/5 8/8/8
f 7/7/7 1/1/1 6/6/6
f 5/5/5 6/6/6 8/8/8
f 5/5/5 9/9/9 4/4/4
f 12/12/12 2/2/2 3/3/3 11/11/11
f 4/4/4 10/10/10 11/11/11
f 11/11/11 3/3/3 4/4/4
f 9/9/9 10/10/10 4/4/4
o object_2
v -10750 5816.3252 -8379.3223
v -10750 5816.3252 -60489.68
v -10750 -53 -11389.307
v -10750 1106.927 -11389.307
v -10750 2013.6178 -10414.898
v -10750 3118.1873 -9552.5801
v -10750 4399.4326 -8857.6797
v -10750 4399.4321 -60011.32
v -10750 3118.187 -59316.418
v -10750 2013.6177 -58454.102
v -10750 1106.927 -57479.691
v -10750 -53 -57479.691
vt 1 0
vt 1 1
vt 0 0.057761744
vt 0.19762526 0.057761744
vt 0.35210484 0.039062809
vt 0.5402984 0.022514872
vt 0.75859362 0.009179702
vt 0.75859356 0.99082029
vt 0.5402984 0.97748512
vt 0.35210481 0.9609372
vt 0.19762526 0.94223827
vt 0 0.94223827
vn -1 0 0
vn -1 -2.220446e-16 0
vn -1 -1.110223e-16 0
vn -1 0 0
vn -1 -1.110223e-16 0
vn -1 1.110223e-16 0
vn -1 -1.110223e-16 0
vn -1 0 0
vn -1 -2.220446e-16 0
vn -1 0 0
vn -1 0 0
vn -1 0 0
f 22/22/22 16/16/16 17/17/17
f 24/24/24 15/15/15 16/16/16 23/23/23
f 16/16/16 22/22/22 23/23/23
f 22/22/22 17/17/17 21/21/21
f 19/19/19 20/20/20 18/18/18
f 13/13/13 14/14/14 19/19/19
f 21/21/21 18/18/18 20/20/20
f 14/14/14 20/20/20 19/19/19
f 17/17/17 18/18/18 21/21/21
o object_3
v -10750 5816.3252 -8379.3223
v -10750 5816.3252 -60489.68
v -16250 5816.3252 -60489.68
v -16250 5816.3252 -8379.3223
vt 0 0
vt 0 1
vt 1 1
vt 1 0
vn 1.110223e-16 -1 0
vn -1.110223e-16 -1 0
vn -1.110223e-16 -1 0
vn 1.110223e-16 -1 0
f 26/26/26 25/25/25 28/28/28 27/27/27
o object_4
v -16250 5816.3252 -8379.3223
v -16250 1106.927 -11389.307
v -16250 -53 -11389.307
v -16250 -53 -57479.691
v -16250 1106.927 -57479.691
v -16250 2013.6179 -58454.102
v -16250 3118.1873 -59316.418
v -16250 4399.4326 -60011.32
v -16250 5816.3252 -60489.68
v -16250 4399.4326 -8857.6797
v -16250 3118.1875 -9552.5801
v -16250 2013.618 -10414.898
vt 0 0
vt 0.80237472 0.057761744
vt 1 0.057761744
vt 1 0.94223827
vt 0.80237472 0.94223827
vt 0.64789516 0.9609372
vt 0.45970157 0.97748512
vt 0.24140638 0.99082029
vt 0 1
vt 0.24140634 0.009179703
vt 0.45970151 0.022514872
vt 0.6478951 0.039062809
vn 1 0 0
vn 1 -2.220446e-16 0
vn 1 -2.220446e-16 0
vn 1 0 0
vn 1 0 0
vn 1 0 0
vn 1 0 0
vn 1 0 0
vn 1 0 0
vn 1 1.110223e-16 0
vn 1 -1.110223e-16 0
vn 1 -1.110223e-16 0
f 38/38/38 37/37/37 29/29/29
f 39/39/39 36/36/36 38/38/38
f 37/37/37 38/38/38 36/36/36
f 35/35/35 36/36/36 39/39/39
f 35/35/35 39/39/39 40/40/40
f 31/31/31 32/32/32 33/33/33 30/30/30
f 34/34/34 40/40/40 30/30/30
f 30/30/30 33/33/33 34/34/34
f 35/35/35 40/40/40 34/34/34
o object_5
v -16550 1106.927 -57479.691
v -10450 1106.927 -57479.691
v -16550 1558.109 -58002.262
v -16550 2065.1382 -58501.156
v -16550 2626.9487 -58968.352
v -16550 3241.0249 -59395.688
v -10450 6116.3252 -60557.074
v -10450 5348.6514 -60361.797
v -10450 4608.2065 -60099.402
v -10450 3903.3118 -59775.188
v -10450 3241.0254 -59395.688
v -10450 2626.949 -58968.352
v -10450 2065.1384 -58501.156
v -10450 1558.1093 -58002.262
v -10750 1106.927 -57479.691
v -10750 1534.9749 -57977.441
v -10750 2013.6177 -58454.102
v -10750 2542.0251 -58902.773
v -10750 3118.187 -59316.418
v -10750 3738.8364 -59688.117
v -10750 4399.4321 -60011.32
v -10750 5094.2129 -60280.152
v -10750 5816.3252 -60489.68
v -13500 5816.3252 -60489.68
v -16250 5816.3252 -60489.68
v -16250 5094.2134 -60280.152
v -16250 4399.4326 -60011.32
v -16250 3738.8367 -59688.117
v -16250 3118.1873 -59316.418
v -16250 2542.0254 -58902.773
v -16250 2013.6179 -58454.102
v -16250 1534.975 -57977.441
v -16250 1106.927 -57479.691
v -16550 3903.3115 -59775.188
v -16550 4608.2061 -60099.402
v -16550 5348.6509 -60361.797
v -16550 6116.3252 -60557.074
v -13500 6116.3252 -60557.074
vt 0 0
vt 0 1
vt 0.125 0
vt 0.25 0
vt 0.375 0
vt 0.5 0
vt 1 1
vt 0.875 1
vt 0.75000006 1
vt 0.62500006 1
vt 0.50000006 1
vt 0.37500006 1
vt 0.25000006 1
vt 0.12500003 1
vt 0 0.95081967
vt 0.11894792 0.95081967
vt 0.23789583 0.95081967
vt 0.35684377 0.95081967
vt 0.47579169 0.95081967
vt 0.59473968 0.95081967
vt 0.7136876 0.95081967
vt 0.83263558 0.95081967
vt 0.9515835 0.95081967
vt 0.9515835 0.5
vt 0.9515835 0.049180329
vt 0.83263558 0.049180329
vt 0.71368766 0.049180329
vt 0.59473974 0.049180329
vt 0.47579175 0.049180329
vt 0.35684383 0.049180329
vt 0.23789588 0.049180329
vt 0.11894794 0.049180329
vt 0 0.049180329
vt 0.625 0
vt 0.75 0
vt 0.875 0
vt 1 0
vt 1 0.5
vn 0 -0.78245747 -0.62270397
vn 0 -0.78245747 -0.62270397
vn 0 -0.73015666 -0.68327981
vn 0 -0.67138201 -0.74111146
vn 0 -0.60625714 -0.79526865
vn 0 -0.53507364 -0.84480542
vn 0 -0.20176992 -0.97943294
vn 0 -0.2907584 -0.95679653
vn 0 -0.37659049 -0.92637986
vn 0 -0.4583016 -0.88879675
vn 0 -0.53507364 -0.84480542
vn 0 -0.60625714 -0.79526871
vn 0 -0.67138201 -0.74111146
vn 0 -0.7301566 -0.68327981
vn 0 -0.78245747 -0.62270397
vn 0 -0.73283833 -0.68040282
vn 0 -0.67735428 -0.73565698
vn 0 -0.61610144 -0.7876668
vn 0 -0.54931301 -0.83561665
vn 0 -0.47736755 -0.87870371
vn 0 -0.4007915 -0.91616929
vn 0 -0.32025278 -0.94733214
vn 0 -0.23654582 -0.97162032
vn 0 -0.23654582 -0.97162032
vn 0 -0.23654582 -0.97162032
vn 0 -0.32025275 -0.94733214
vn 0 -0.40079147 -0.91616929
vn 0 -0.47736752 -0.87870371
vn 0 -0.54931295 -0.83561671
vn 0 -0.61610144 -0.7876668
vn 0 -0.67735422 -0.73565704
vn 0 -0.73283833 -0.68040282
vn 0 -0.78245747 -0.62270397
vn 0 -0.45830163 -0.88879669
vn 0 -0.37659052 -0.9263798
vn 0 -0.2907584 -0.95679653
vn 0 -0.20176992 -0.97943294
vn 0 -0.20176992 -0.97943294
f 41/41/41 43/43/43 72/72/72 73/73/73
f 71/71/71 72/72/72 43/43/43 44/44/44
f 44/44/44 45/45/45 70/70/70 71/71/71
f 45/45/45 46/46/46 69/69/69 70/70/70
f 54/54/54 42/42/42 56/56/56
f 55/55/55 56/56/56 42/42/42
f 57/57/57 54/54/54 56/56/56
f 54/54/54 57/57/57 53/53/53
f 68/68/68 69/69/69 46/46/46 74/74/74
f 59/59/59 52/52/52 58/58/58
f 52/52/52 53/53/53 57/57/57 58/58/58
f 52/52/52 59/59/59 51/51/51
f 74/74/74 75/75/75 67/67/67 68/68/68
f 76/76/76 77/77/77 65/65/65 66/66/66
f 64/64/64 65/65/65 77/77/77 78/78/78
f 75/75/75 76/76/76 66/66/66 67/67/67
f 60/60/60 61/61/61 49/49/49 50/50/50
f 60/60/60 50/50/50 51/51/51
f 59/59/59 60/60/60 51/51/51
f 78/78/78 47/47/47 63/63/63 64/64/64
f 63/63/63 48/48/48 62/62/62
f 47/47/47 48/48/48 63/63/63
f 49/49/49 62/62/62 48/48/48
f 49/49/49 61/61/61 62/62/62
o object_6
v -16550 6116.3252 -8311.9248
v -10450 6116.3252 -8311.9248
v -16550 5348.6509 -8507.2021
v -16550 4608.2061 -8769.5967
v -16550 3903.3115 -9093.8135
v -16550 3241.0249 -9473.3115
v -16550 2626.9487 -9900.6484
v -16550 2065.1382 -10367.845
v -16550 1558.109 -10866.739
v -16550 1106.927 -11389.307
v -10450 1106.927 -11389.307
v -16250 1106.927 -11389.307
v -16250 1534.9751 -10891.559
v -16250 2013.618 -10414.898
v -16250 2542.0256 -9966.2275
v -16250 3118.1875 -9552.5801
v -16250 3738.8369 -9180.8818
v -16250 4399.4326 -8857.6797
v -16250 5094.2134 -8588.8477
v -16250 5816.3252 -8379.3223
v -13500 5816.3252 -8379.3223
v -10750 5816.3252 -8379.3223
v -10750 5094.2134 -8588.8477
v -10750 4399.4326 -8857.6797
v -10750 3738.8367 -9180.8828
v -10750 3118.1873 -9552.5801
v -10750 2542.0251 -9966.2275
v -10750 2013.6178 -10414.898
v -10750 1534.975 -10891.559
v -10750 1106.927 -11389.307
v -10450 1558.1093 -10866.739
v -10450 2065.1384 -10367.845
v -10450 2626.949 -9900.6484
v -10450 3241.0254 -9473.3115
v -10450 3903.3118 -9093.8135
v -10450 4608.2065 -8769.5967
v -10450 5348.6514 -8507.2021
v -13500 6116.3252 -8311.9248
vt 0 0
vt 0 1
vt 0.125 0
vt 0.25 0
vt 0.375 0
vt 0.5 0
vt 0.625 0
vt 0.75 0
vt 0.875 0
vt 1 0
vt 1 1
vt 1 0.049180329
vt 0.88105202 0.049180329
vt 0.76210409 0.049180329
vt 0.64315611 0.049180329
vt 0.52420819 0.049180329
vt 0.40526024 0.049180329
vt 0.28631231 0.049180329
vt 0.16736439 0.049180329
vt 0.048416469 0.049180329
vt 0.048416469 0.5
vt 0.048416469 0.95081967
vt 0.1673644 0.95081967
vt 0.28631234 0.95081967
vt 0.40526029 0.95081967
vt 0.52420825 0.95081967
vt 0.64315617 0.95081967
vt 0.76210409 0.95081967
vt 0.88105208 0.95081967
vt 1 0.95081967
vt 0.875 1
vt 0.74999994 1
vt 0.62499994 1
vt 0.49999994 1
vt 0.37499994 1
vt 0.24999996 1
vt 0.12499997 1
vt 0 0.5
vn 0 -0.20176992 0.97943294
vn 0 -0.20176992 0.97943294
vn 0 -0.2907584 0.95679653
vn 0 -0.37659052 0.9263798
vn 0 -0.45830163 0.88879669
vn 0 -0.53507364 0.84480542
vn 0 -0.60625714 0.79526865
vn 0 -0.67138201 0.74111146
vn 0 -0.73015666 0.68327981
vn 0 -0.78245747 0.62270397
vn 0 -0.78245747 0.62270397
vn 0 -0.78245747 0.62270397
vn 0 -0.73283833 0.68040282
vn 0 -0.67735422 0.73565704
vn 0 -0.61610138 0.78766686
vn 0 -0.54931295 0.83561671
vn 0 -0.47736746 0.87870377
vn 0 -0.40079144 0.91616935
vn 0 -0.32025275 0.94733214
vn 0 -0.23654582 0.97162032
vn 0 -0.23654582 0.97162032
vn 0 -0.23654582 0.97162032
vn 0 -0.32025275 0.94733214
vn 0 -0.40079147 0.91616929
vn 0 -0.47736752 0.87870371
vn 0 -0.54931295 0.83561671
vn 0 -0.61610144 0.7876668
vn 0 -0.67735422 0.73565704
vn 0 -0.73283833 0.68040282
vn 0 -0.78245747 0.62270397
vn 0 -0.7301566 0.68327981
vn 0 -0.67138201 0.74111146
vn 0 -0.60625714 0.79526871
vn 0 -0.53507364 0.84480542
vn 0 -0.4583016 0.88879675
vn 0 -0.37659049 0.92637986
vn 0 -0.2907584 0.95679653
vn 0 -0.20176992 0.97943294
f 79/79/79 81/81/81 97/97/97 98/98/98
f 98/98/98 99/99/99 116/116/116 79/79/79
f 82/82/82 83/83/83 95/95/95 96/96/96
f 96/96/96 97/97/97 81/81/81 82/82/82
f 83/83/83 84/84/84 94/94/94 95/95/95
f 80/80/80 116/116/116 99/99/99 100/100/100
f 115/115/115 80/80/80 100/100/100 101/101/101
f 114/114/114 115/115/115 101/101/101 102/102/102
f 113/113/113 114/114/114 102/102/102 103/103/103
f 112/112/112 113/113/113 103/103/103 104/104/104
f 84/84/84 85/85/85 93/93/93 94/94/94
f 85/85/85 86/86/86 92/92/92 93/93/93
f 86/86/86 87/87/87 91/91/91 92/92/92
f 87/87/87 88/88/88 90/90/90 91/91/91
f 104/104/104 105/105/105 111/111/111 112/112/112
f 110/110/110 111/111/111 105/105/105 106/106/106
f 109/109/109 110/110/110 106/106/106 107/107/107
f 89/89/89 109/109/109 107/107/107 108/108/108
o object_7
v 1450 6116.3252 -8311.9248
v 1450 1106.927 -57479.691
v 1450 -353 -57479.691
v 1450 -353 -11389.307
v 1450 1106.927 -11389.307
v 1450 2065.1384 -10367.845
v 1450 3241.0254 -9473.3115
v 1450 4608.2065 -8769.5967
v 1450 6116.3252 -60557.074
v 1450 4608.2061 -60099.402
v 1450 3241.0249 -59395.688
v 1450 2065.1382 -58501.156
vt 1 0
vt 0.22566913 0.94109726
vt 0 0.94109726
vt 0 0.058902726
vt 0.22566913 0.058902726
vt 0.37378526 0.039351404
vt 0.55554873 0.02222956
vt 0.76688159 0.008760076
vt 1 1
vt 0.76688159 0.99123991
vt 0.55554867 0.97777045
vt 0.37378523 0.9606486
vn -1 -1.3877788e-17 0
vn -1 0 0
vn -1 0 0
vn -1 1.3877788e-17 0
vn -1 0 0
vn -1 0 0
vn -1 -1.3877788e-17 0
vn -1 0 0
vn -1 -2.7755576e-17 0
vn -1 -2.7755576e-17 0
vn -1 0 0
vn -1 0 0
f 128/128/128 121/121/121 122/122/122
f 119/119/119 120/120/120 121/121/121 118/118/118
f 121/121/121 128/128/128 118/118/118
f 128/128/128 122/122/122 127/127/127
f 124/124/124 126/126/126 123/123/123
f 117/117/117 125/125/125 124/124/124
f 127/127/127 123/123/123 126/126/126
f 125/125/125 126/126/126 124/124/124
f 122/122/122 123/123/123 127/127/127
o object_8
v 7550 6116.3252 -8311.9248
v 7550 6116.3252 -60557.074
v 7550 -353 -57479.691
v 7550 1106.927 -57479.691
v 7550 2065.1384 -58501.156
v 7550 3241.0254 -59395.688
v 7550 4608.2065 -60099.402
v 7550 4608.2061 -8769.5967
v 7550 3241.0249 -9473.3115
v 7550 2065.1382 -10367.845
v 7550 1106.927 -11389.307
v 7550 -353 -11389.307
vt 0 0
vt 0 1
vt 1 0.94109726
vt 0.77433085 0.94109726
vt 0.62621474 0.9606486
vt 0.44445127 0.97777045
vt 0.23311839 0.99123991
vt 0.23311844 0.0087600779
vt 0.44445133 0.022229563
vt 0.6262148 0.039351404
vt 0.77433085 0.058902726
vt 1 0.058902726
vn 1 0 0
vn 1 -1.110223e-16 0
vn 1 -1.110223e-16 0
vn 1 -1.110223e-16 0
vn 1 0 0
vn 1 0 0
vn 1 1.110223e-16 0
vn 1 5.5511151e-17 0
vn 1 5.5511151e-17 0
vn 1 -1.110223e-16 0
vn 1 0 0
vn 1 5.5511151e-17 0
f 136/136/136 135/135/135 129/129/129
f 137/137/137 134/134/134 136/136/136
f 130/130/130 129/129/129 135/135/135
f 134/134/134 135/135/135 136/136/136
f 134/134/134 137/137/137 133/133/133
f 140/140/140 131/131/131 132/132/132 139/139/139
f 132/132/132 138/138/138 139/139/139
f 138/138/138 132/132/132 133/133/133
f 137/137/137 138/138/138 133/133/133
o object_9
v 7250 5816.3252 -8379.3223
v 7250 5816.3252 -60489.68
v 7250 -53 -11389.307
v 7250 1106.927 -11389.307
v 7250 2013.618 -10414.898
v 7250 3118.1875 -9552.5801
v 7250 4399.4326 -8857.6797
v 7250 4399.4321 -60011.32
v 7250 3118.187 -59316.418
v 7250 2013.6177 -58454.102
v 7250 1106.927 -57479.691
v 7250 -53 -57479.691
vt 1 0
vt 1 1
vt 0 0.057761744
vt 0.19762526 0.057761744
vt 0.35210487 0.039062805
vt 0.54029852 0.02251487
vt 0.75859368 0.009179703
vt 0.75859356 0.99082029
vt 0.5402984 0.97748512
vt 0.35210481 0.9609372
vt 0.19762526 0.94223827
vt 0 0.94223827
vn -1 5.5511151e-17 0
vn -1 -1.110223e-16 0
vn -1 -5.5511151e-17 0
vn -1 0 0
vn -1 0 0
vn -1 5.5511151e-17 0
vn -1 -5.5511151e-17 0
vn -1 -1.110223e-16 0
vn -1 -1.110223e-16 0
vn -1 -1.110223e-16 0
vn -1 -1.110223e-16 0
vn -1 -1.110223e-16 0
f 150/150/150 144/144/144 145/145/145
f 152/152/152 143/143/143 144/144/144 151/151/151
f 144/144/144 150/150/150 151/151/151
f 150/150/150 145/145/145 149/149/149
f 147/147/147 148/148/148 146/146/146
f 141/141/141 142/142/142 147/147/147
f 149/149/149 146/146/146 148/148/148
f 142/142/142 148/148/148 147/147/147
f 145/145/145 146/146/146 149/149/149
o object_10
v 7250 5816.3252 -8379.3223
v 1750 5816.3252 -8379.3223
v 1750 5816.3252 -60489.68
v 7250 5816.3252 -60489.68
vt 0 0
vt 1 0
vt 1 1
vt 0 1
vn -5.5511151e-17 -1 0
vn -5.5511151e-17 -1 0
vn -1.110223e-16 -1 0
vn 0 -1 0
f 156/156/156 153/153/153 154/154/154 155/155/155
o object_11
v 1750 5816.3252 -8379.3223
v 1750 1106.927 -11389.307
v 1750 -53 -11389.307
v 1750 -53 -57479.691
v 1750 1106.927 -57479.691
v 1750 2013.6179 -58454.102
v 1750 3118.1873 -59316.418
v 1750 4399.4326 -60011.32
v 1750 5816.3252 -60489.68
v 1750 4399.4326 -8857.6797
v 1750 3118.1873 -9552.5801
v 1750 2013.6178 -10414.898
vt 0 0
vt 0.80237472 0.057761744
vt 1 0.057761744
vt 1 0.94223827
vt 0.80237472 0.94223827
vt 0.64789516 0.9609372
vt 0.45970157 0.97748512
vt 0.24140638 0.99082029
vt 0 1
vt 0.24140638 0.0091797048
vt 0.45970157 0.022514874
vt 0.64789516 0.039062809
vn 1 1.3877788e-17 0
vn 1 -1.3877788e-17 0
vn 1 0 0
vn 1 -2.7755576e-17 0
vn 1 -2.7755576e-17 0
vn 1 -2.7755576e-17 0
vn 1 -2.7755576e-17 0
vn 1 0 0
vn 1 0 0
vn 1 0 0
vn 1 -2.7755576e-17 0
vn 1 -1.3877788e-17 0
f 166/166/166 165/165/165 157/157/157
f 167/167/167 164/164/164 166/166/166
f 165/165/165 166/166/166 164/164/164
f 163/163/163 164/164/164 167/167/167
f 163/163/163 167/167/167 168/168/168
f 159/159/159 160/160/160 161/161/161 158/158/158
f 161/161/161 168/168/168 158/158/158
f 168/168/168 161/161/161 162/162/162
f 163/163/163 168/168/168 162/162/162
o object_12
v 1450 1106.927 -57479.691
v 7550 1106.927 -57479.691
v 1450 1558.109 -58002.262
v 1450 2065.1382 -58501.156
v 1450 2626.9487 -58968.352
v 1450 3241.0249 -59395.688
v 1450 3903.3115 -59775.188
v 1450 4608.2061 -60099.402
v 1450 5348.6509 -60361.797
v 1450 6116.3252 -60557.074
v 7550 6116.3252 -60557.074
v 7550 5348.6514 -60361.797
v 7550 4608.2065 -60099.402
v 7550 3903.3118 -59775.188
v 7550 3241.0254 -59395.688
v 7550 2626.949 -58968.352
v 7550 2065.1384 -58501.156
v 7550 1558.1093 -58002.262
v 7250 1106.927 -57479.691
v 7250 1534.9749 -57977.441
v 7250 2013.6177 -58454.102
v 7250 2542.0251 -58902.773
v 7250 3118.187 -59316.418
v 7250 3738.8364 -59688.117
v 7250 4399.4321 -60011.32
v 7250 5094.2129 -60280.152
v 7250 5816.3252 -60489.68
v 4500 5816.3252 -60489.68
v 1750 5816.3252 -60489.68
v 1750 5094.2134 -60280.152
v 1750 4399.4326 -60011.32
v 1750 3738.8367 -59688.117
v 1750 3118.1873 -59316.418
v 1750 2542.0254 -58902.773
v 1750 2013.6179 -58454.102
v 1750 1534.975 -57977.441
v 1750 1106.927 -57479.691
v 4500 6116.3252 -60557.074
vt 0 0
vt 0 1
vt 0.125 0
vt 0.25 0
vt 0.375 0
vt 0.5 0
vt 0.625 0
vt 0.75 0
vt 0.875 0
vt 1 0
vt 1 1
vt 0.875 1
vt 0.75000006 1
vt 0.62500006 1
vt 0.50000006 1
vt 0.37500006 1
vt 0.25000006 1
vt 0.12500003 1
vt 0 0.95081967
vt 0.11894792 0.95081967
vt 0.23789583 0.95081967
vt 0.35684377 0.95081967
vt 0.47579169 0.95081967
vt 0.59473968 0.95081967
vt 0.7136876 0.95081967
vt 0.83263558 0.95081967
vt 0.9515835 0.95081967
vt 0.9515835 0.5
vt 0.9515835 0.049180329
vt 0.83263558 0.049180329
vt 0.71368766 0.049180329
vt 0.59473974 0.049180329
vt 0.47579175 0.049180329
vt 0.35684383 0.049180329
vt 0.23789588 0.049180329
vt 0.11894794 0.049180329
vt 0 0.049180329
vt 1 0.5
vn 0 -0.78245747 -0.62270397
vn 0 -0.78245747 -0.62270397
vn 0 -0.73015666 -0.68327981
vn 0 -0.67138201 -0.74111146
vn 0 -0.60625714 -0.79526865
vn 0 -0.53507364 -0.84480542
vn 0 -0.45830163 -0.88879669
vn 0 -0.37659052 -0.9263798
vn 0 -0.2907584 -0.95679653
vn 0 -0.20176992 -0.97943294
vn 0 -0.20176992 -0.97943294
vn 0 -0.2907584 -0.95679653
vn 0 -0.37659049 -0.92637986
vn 0 -0.4583016 -0.88879675
vn 0 -0.53507364 -0.84480542
vn 0 -0.60625714 -0.79526871
vn 0 -0.67138201 -0.74111146
vn 0 -0.7301566 -0.68327981
vn 0 -0.78245747 -0.62270397
vn 0 -0.73283833 -0.68040282
vn 0 -0.67735428 -0.73565698
vn 0 -0.61610144 -0.7876668
vn 0 -0.54931301 -0.83561665
vn 0 -0.47736755 -0.87870371
vn 0 -0.4007915 -0.91616929
vn 0 -0.32025278 -0.94733214
vn 0 -0.23654582 -0.97162032
vn 0 -0.23654582 -0.97162032
vn 0 -0.23654582 -0.97162032
vn 0 -0.32025275 -0.94733214
vn 0 -0.40079147 -0.91616929
vn 0 -0.47736752 -0.87870371
vn 0 -0.54931295 -0.83561671
vn 0 -0.61610144 -0.7876668
vn 0 -0.67735422 -0.73565704
vn 0 -0.73283833 -0.68040282
vn 0 -0.78245747 -0.62270397
vn 0 -0.20176992 -0.97943294
f 169/169/169 171/171/171 204/204/204 205/205/205
f 203/203/203 204/204/204 171/171/171 172/172/172
f 172/172/172 173/173/173 202/202/202 203/203/203
f 173/173/173 174/174/174 201/201/201 202/202/202
f 187/187/187 188/188/188 186/186/186 170/170/170
f 188/188/188 189/189/189 185/185/185 186/186/186
f 184/184/184 185/185/185 189/189/189 190/190/190
f 190/190/190 191/191/191 183/183/183 184/184/184
f 200/200/200 201/201/201 174/174/174 175/175/175
f 175/175/175 176/176/176 199/199/199 200/200/200
f 177/177/177 178/178/178 197/197/197 198/198/198
f 196/196/196 197/197/197 178/178/178 206/206/206
f 176/176/176 177/177/177 198/198/198 199/199/199
f 192/192/192 193/193/193 181/181/181 182/182/182
f 182/182/182 183/183/183 191/191/191 192/192/192
f 193/193/193 194/194/194 180/180/180 181/181/181
f 179/179/179 180/180/180 194/194/194 195/195/195
f 206/206/206 179/179/179 195/195/195 196/196/196
o object_13
v 1450 6116.3252 -8311.9248
v 7550 6116.3252 -8311.9248
v 7550 5348.6509 -8507.2021
v 7550 4608.2061 -8769.5967
v 7550 3903.3115 -9093.8135
v 7550 3241.0249 -9473.3115
v 7550 2626.9487 -9900.6484
v 7550 2065.1382 -10367.845
v 7550 1558.109 -10866.739
v 1450 1106.927 -11389.307
v 7550 1106.927 -11389.307
v 1450 5348.6514 -8507.2021
v 1450 4608.2065 -8769.5967
v 1450 3903.3118 -9093.8135
v 1450 3241.0254 -9473.3115
v 1450 2626.949 -9900.6484
v 1450 2065.1384 -10367.845
v 1450 1558.1093 -10866.739
v 1750 1106.927 -11389.307
v 1750 1534.975 -10891.559
v 1750 2013.6178 -10414.898
v 1750 2542.0251 -9966.2275
v 1750 3118.1873 -9552.5801
v 1750 3738.8367 -9180.8828
v 1750 4399.4326 -8857.6797
v 1750 5094.2134 -8588.8477
v 1750 5816.3252 -8379.3223
v 4500 5816.3252 -8379.3223
v 7250 5816.3252 -8379.3223
v 7250 5094.2134 -8588.8477
v 7250 4399.4326 -8857.6797
v 7250 3738.8369 -9180.8818
v 7250 3118.1875 -9552.5801
v 7250 2542.0256 -9966.2275
v 7250 2013.618 -10414.898
v 7250 1534.9751 -10891.559
v 7250 1106.927 -11389.307
v 4500 6116.3252 -8311.9248
vt 0 0
vt 0 1
vt 0.125 1
vt 0.25 1
vt 0.375 1
vt 0.5 1
vt 0.625 1
vt 0.75 1
vt 0.875 1
vt 1 0
vt 1 1
vt 0.12499997 0
vt 0.24999996 0
vt 0.37499994 0
vt 0.49999994 0
vt 0.62499994 0
vt 0.74999994 0
vt 0.875 0
vt 1 0.049180329
vt 0.88105208 0.049180329
vt 0.76210409 0.049180329
vt 0.64315617 0.049180329
vt 0.52420825 0.049180329
vt 0.40526029 0.049180329
vt 0.28631234 0.049180329
vt 0.1673644 0.049180329
vt 0.048416469 0.049180329
vt 0.048416469 0.5
vt 0.048416469 0.95081967
vt 0.16736439 0.95081967
vt 0.28631231 0.95081967
vt 0.40526024 0.95081967
vt 0.52420819 0.95081967
vt 0.64315611 0.95081967
vt 0.76210409 0.95081967
vt 0.88105202 0.95081967
vt 1 0.95081967
vt 0 0.5
vn 0 -0.20176992 0.97943294
vn 0 -0.20176992 0.97943294
vn 0 -0.2907584 0.95679653
vn 0 -0.37659052 0.9263798
vn 0 -0.45830163 0.88879669
vn 0 -0.53507364 0.84480542
vn 0 -0.60625714 0.79526865
vn 0 -0.67138201 0.74111146
vn 0 -0.73015666 0.68327981
vn 0 -0.78245747 0.62270397
vn 0 -0.78245747 0.62270397
vn 0 -0.2907584 0.95679653
vn 0 -0.37659049 0.92637986
vn 0 -0.4583016 0.88879675
vn 0 -0.53507364 0.84480542
vn 0 -0.60625714 0.79526871
vn 0 -0.67138201 0.74111146
vn 0 -0.7301566 0.68327981
vn 0 -0.78245747 0.62270397
vn 0 -0.73283833 0.68040282
vn 0 -0.67735422 0.73565704
vn 0 -0.61610144 0.7876668
vn 0 -0.54931295 0.83561671
vn 0 -0.47736752 0.87870371
vn 0 -0.40079147 0.91616929
vn 0 -0.32025275 0.94733214
vn 0 -0.23654582 0.97162032
vn 0 -0.23654582 0.97162032
vn 0 -0.23654582 0.97162032
vn 0 -0.32025275 0.94733214
vn 0 -0.40079144 0.91616935
vn 0 -0.47736746 0.87870377
vn 0 -0.54931295 0.83561671
vn 0 -0.61610138 0.78766686
vn 0 -0.67735422 0.73565704
vn 0 -0.73283833 0.68040282
vn 0 -0.78245747 0.62270397
vn 0 -0.20176992 0.97943294
f 207/207/207 218/218/218 232/232/232 233/233/233
f 235/235/235 236/236/236 209/209/209 208/208/208
f 218/218/218 219/219/219 231/231/231 232/232/232
f 244/244/244 207/207/207 233/233/233 234/234/234
f 219/219/219 220/220/220 230/230/230 231/231/231
f 220/220/220 221/221/221 229/229/229 230/230/230
f 237/237/237 238/238/238 211/211/211 210/210/210
f 236/236/236 237/237/237 210/210/210 209/209/209
f 234/234/234 235/235/235 208/208/208 244/244/244
f 212/212/212 211/211/211 238/238/238 239/239/239
f 222/222/222 223/223/223 227/227/227 228/228/228
f 239/239/239 240/240/240 213/213/213 212/212/212
f 228/228/228 229/229/229 221/221/221 222/222/222
f 224/224/224 216/216/216 225/225/225 226/226/226
f 226/226/226 227/227/227 223/223/223 224/224/224
f 240/240/240 241/241/241 214/214/214 213/213/213
f 241/241/241 242/242/242 215/215/215 214/214/214
f 217/217/217 215/215/215 242/242/242 243/243/243
o object_14
v -16550 6116.3252 -8311.9248
v -16550 1106.927 -57479.691
v -16550 -353 -57479.691
v -16550 -353 -11389.307
v -16550 1106.927 -11389.307
v -16550 2065.1382 -10367.845
v -16550 3241.0249 -9473.3115
v -16550 4608.2061 -8769.5967
v -16550 6116.3252 -60557.074
v -16550 4608.2061 -60099.402
v -16550 3241.0249 -59395.688
v -16550 2065.1382 -58501.156
vt 1 0
vt 0.22566913 0.94109726
vt 0 0.94109726
vt 0 0.058902726
vt 0.22566913 0.058902726
vt 0.37378523 0.039351404
vt 0.55554867 0.022229563
vt 0.76688159 0.0087600779
vt 1 1
vt 0.76688159 0.99123991
vt 0.55554867 0.97777045
vt 0.37378523 0.9606486
vn -1 -2.220446e-16 0
vn -1 -2.220446e-16 0
vn -1 -2.220446e-16 0
vn -1 1.110223e-16 0
vn -1 0 0
vn -1 0 0
vn -1 1.110223e-16 0
vn -1 -1.110223e-16 0
vn -1 0 0
vn -1 0 0
vn -1 -2.220446e-16 0
vn -1 -2.220446e-16 0
f 256/256/256 249/249/249 250/250/250
f 247/247/247 248/248/248 249/249/249 246/246/246
f 249/249/249 256/256/256 246/246/246
f 256/256/256 250/250/250 251/251/251
f 252/252/252 255/255/255 251/251/251
f 245/245/245 254/254/254 252/252/252
f 255/255/255 252/252/252 254/254/254
f 253/253/253 254/254/254 245/245/245
f 256/256/256 251/251/251 255/255/255
