# Rhino

o object_1
v -239.11386 -174.77203 0
v -239.11386 -180.27203 0
v -224.11386 -174.77203 0
v -224.11386 -180.27203 0
vt 0 0
vt 0 1
vt 1 0
vt 1 1
vn 0 0 -1
vn 0 0 -1
vn 0 0 -1
vn 0 0 -1
f 4/4/4 2/2/2 1/1/1 3/3/3
o object_2
v -239.11386 -167.09711 0
v -239.11386 -172.59711 0
v -224.11386 -167.09711 0
v -224.11386 -172.59711 0
vt 0 0
vt 0 1
vt 1 0
vt 1 1
vn 0 0 -1
vn 0 0 -1
vn 0 0 -1
vn 0 0 -1
f 8/8/8 6/6/6 5/5/5 7/7/7
o object_3
v -239.11386 -155.21069 0
v -239.11386 -160.71069 0
v -224.11386 -155.21069 0
v -224.11386 -160.71069 0
vt 0 0
vt 0 1
vt 1 0
vt 1 1
vn 0 0 -1
vn 0 0 -1
vn 0 0 -1
vn 0 0 -1
f 12/12/12 10/10/10 9/9/9 11/11/11
o object_4
v -239.11386 -147.53577 0
v -239.11386 -153.03577 0
v -224.11386 -147.53577 0
v -224.11386 -153.03577 0
vt 0 0
vt 0 1
vt 1 0
vt 1 1
vn 0 0 -1
vn 0 0 -1
vn 0 0 -1
vn 0 0 -1
f 16/16/16 14/14/14 13/13/13 15/15/15
o object_5
v -239.11386 -135.64935 0
v -239.11386 -141.14935 0
v -224.11386 -135.64935 0
v -224.11386 -141.14935 0
vt 0 0
vt 0 1
vt 1 0
vt 1 1
vn 0 0 -1
vn 0 0 -1
vn 0 0 -1
vn 0 0 -1
f 20/20/20 18/18/18 17/17/17 19/19/19
o object_6
v -239.11386 -127.97442 0
v -239.11386 -133.47441 0
v -224.11386 -127.97442 0
v -224.11386 -133.47441 0
vt 0 0
vt 0 1
vt 1 0
vt 1 1
vn 0 0 -1
vn 0 0 -1
vn 0 0 -1
vn 0 0 -1
f 24/24/24 22/22/22 21/21/21 23/23/23
o object_7
v -239.11386 -116.088 0
v -239.11386 -121.588 0
v -224.11386 -116.088 0
v -224.11386 -121.588 0
vt 0 0
vt 0 1
vt 1 0
vt 1 1
vn 0 0 -1
vn 0 0 -1
vn 0 0 -1
vn 0 0 -1
f 28/28/28 26/26/26 25/25/25 27/27/27
o object_8
v -239.11386 -108.41307 0
v -239.11386 -113.91307 0
v -224.11386 -108.41307 0
v -224.11386 -113.91307 0
vt 0 0
vt 0 1
vt 1 0
vt 1 1
vn 0 0 -1
vn 0 0 -1
vn 0 0 -1
vn 0 0 -1
f 32/32/32 30/30/30 29/29/29 31/31/31
o object_9
v -239.11386 -96.526649 0
v -239.11386 -102.02665 0
v -224.11386 -96.526649 0
v -224.11386 -102.02665 0
vt 0 0
vt 0 1
vt 1 0
vt 1 1
vn 0 0 -1
vn 0 0 -1
vn 0 0 -1
vn 0 0 -1
f 36/36/36 34/34/34 33/33/33 35/35/35
o object_10
v -239.11386 -88.851723 0
v -239.11386 -94.351723 0
v -224.11386 -88.851723 0
v -224.11386 -94.351723 0
vt 0 0
vt 0 1
vt 1 0
vt 1 1
vn 0 0 -1
vn 0 0 -1
vn 0 0 -1
vn 0 0 -1
f 40/40/40 38/38/38 37/37/37 39/39/39
o object_11
v -239.11386 -76.965309 0
v -239.11386 -82.465309 0
v -224.11386 -76.965309 0
v -224.11386 -82.465309 0
vt 0 0
vt 0 1
vt 1 0
vt 1 1
vn 0 0 -1
vn 0 0 -1
vn 0 0 -1
vn 0 0 -1
f 44/44/44 42/42/42 41/41/41 43/43/43
o object_12
v -220.44412 -76.965309 0
v -220.44412 -82.465309 0
v -205.44412 -76.965309 0
v -205.44412 -82.465309 0
vt 0 0
vt 0 1
vt 1 0
vt 1 1
vn 0 0 -1
vn 0 0 -1
vn 0 0 -1
vn 0 0 -1
f 48/48/48 46/46/46 45/45/45 47/47/47
o object_13
v -220.44412 -88.851723 0
v -220.44412 -94.351723 0
v -205.44412 -88.851723 0
v -205.44412 -94.351723 0
vt 0 0
vt 0 1
vt 1 0
vt 1 1
vn 0 0 -1
vn 0 0 -1
vn 0 0 -1
vn 0 0 -1
f 52/52/52 50/50/50 49/49/49 51/51/51
o object_14
v -220.44412 -96.526649 0
v -220.44412 -102.02665 0
v -205.44412 -96.526649 0
v -205.44412 -102.02665 0
vt 0 0
vt 0 1
vt 1 0
vt 1 1
vn 0 0 -1
vn 0 0 -1
vn 0 0 -1
vn 0 0 -1
f 56/56/56 54/54/54 53/53/53 55/55/55
o object_15
v -220.44412 -108.41307 0
v -220.44412 -113.91307 0
v -205.44412 -108.41307 0
v -205.44412 -113.91307 0
vt 0 0
vt 0 1
vt 1 0
vt 1 1
vn 0 0 -1
vn 0 0 -1
vn 0 0 -1
vn 0 0 -1
f 60/60/60 58/58/58 57/57/57 59/59/59
o object_16
v -220.44412 -116.088 0
v -220.44412 -121.588 0
v -205.44412 -116.088 0
v -205.44412 -121.588 0
vt 0 0
vt 0 1
vt 1 0
vt 1 1
vn 0 0 -1
vn 0 0 -1
vn 0 0 -1
vn 0 0 -1
f 64/64/64 62/62/62 61/61/61 63/63/63
o object_17
v -220.44412 -127.97442 0
v -220.44412 -133.47441 0
v -205.44412 -127.97442 0
v -205.44412 -133.47441 0
vt 0 0
vt 0 1
vt 1 0
vt 1 1
vn 0 0 -1
vn 0 0 -1
vn 0 0 -1
vn 0 0 -1
f 68/68/68 66/66/66 65/65/65 67/67/67
o object_18
v -220.44412 -135.64935 0
v -220.44412 -141.14935 0
v -205.44412 -135.64935 0
v -205.44412 -141.14935 0
vt 0 0
vt 0 1
vt 1 0
vt 1 1
vn 0 0 -1
vn 0 0 -1
vn 0 0 -1
vn 0 0 -1
f 72/72/72 70/70/70 69/69/69 71/71/71
o object_19
v -220.44412 -147.53577 0
v -220.44412 -153.03577 0
v -205.44412 -147.53577 0
v -205.44412 -153.03577 0
vt 0 0
vt 0 1
vt 1 0
vt 1 1
vn 0 0 -1
vn 0 0 -1
vn 0 0 -1
vn 0 0 -1
f 76/76/76 74/74/74 73/73/73 75/75/75
o object_20
v -220.44412 -155.21069 0
v -220.44412 -160.71069 0
v -205.44412 -155.21069 0
v -205.44412 -160.71069 0
vt 0 0
vt 0 1
vt 1 0
vt 1 1
vn 0 0 -1
vn 0 0 -1
vn 0 0 -1
vn 0 0 -1
f 80/80/80 78/78/78 77/77/77 79/79/79
o object_21
v -220.44412 -167.09711 0
v -220.44412 -172.59711 0
v -205.44412 -167.09711 0
v -205.44412 -172.59711 0
vt 0 0
vt 0 1
vt 1 0
vt 1 1
vn 0 0 -1
vn 0 0 -1
vn 0 0 -1
vn 0 0 -1
f 84/84/84 82/82/82 81/81/81 83/83/83
o object_22
v -220.44412 -174.77203 0
v -220.44412 -180.27203 0
v -205.44412 -174.77203 0
v -205.44412 -180.27203 0
vt 0 0
vt 0 1
vt 1 0
vt 1 1
vn 0 0 -1
vn 0 0 -1
vn 0 0 -1
vn 0 0 -1
f 88/88/88 86/86/86 85/85/85 87/87/87
o object_23
v -220.44412 -186.65846 0
v -220.44412 -192.15846 0
v -205.44412 -186.65846 0
v -205.44412 -192.15846 0
vt 0 0
vt 0 1
vt 1 0
vt 1 1
vn 0 0 -1
vn 0 0 -1
vn 0 0 -1
vn 0 0 -1
f 92/92/92 90/90/90 89/89/89 91/91/91
o object_24
v -201.77437 -76.965309 0
v -201.77437 -82.465309 0
v -186.77437 -76.965309 0
v -186.77437 -82.465309 0
vt 0 0
vt 0 1
vt 1 0
vt 1 1
vn 0 0 -1
vn 0 0 -1
vn 0 0 -1
vn 0 0 -1
f 96/96/96 94/94/94 93/93/93 95/95/95
o object_25
v -201.77437 -88.851723 0
v -201.77437 -94.351723 0
v -186.77437 -88.851723 0
v -186.77437 -94.351723 0
vt 0 0
vt 0 1
vt 1 0
vt 1 1
vn 0 0 -1
vn 0 0 -1
vn 0 0 -1
vn 0 0 -1
f 100/100/100 98/98/98 97/97/97 99/99/99
o object_26
v -201.77437 -96.526649 0
v -201.77437 -102.02665 0
v -186.77437 -96.526649 0
v -186.77437 -102.02665 0
vt 0 0
vt 0 1
vt 1 0
vt 1 1
vn 0 0 -1
vn 0 0 -1
vn 0 0 -1
vn 0 0 -1
f 104/104/104 102/102/102 101/101/101 103/103/103
o object_27
v -201.77437 -108.41307 0
v -201.77437 -113.91307 0
v -186.77437 -108.41307 0
v -186.77437 -113.91307 0
vt 0 0
vt 0 1
vt 1 0
vt 1 1
vn 0 0 -1
vn 0 0 -1
vn 0 0 -1
vn 0 0 -1
f 108/108/108 106/106/106 105/105/105 107/107/107
o object_28
v -201.77437 -116.088 0
v -201.77437 -121.588 0
v -186.77437 -116.088 0
v -186.77437 -121.588 0
vt 0 0
vt 0 1
vt 1 0
vt 1 1
vn 0 0 -1
vn 0 0 -1
vn 0 0 -1
vn 0 0 -1
f 112/112/112 110/110/110 109/109/109 111/111/111
o object_29
v -201.77437 -127.97442 0
v -201.77437 -133.47441 0
v -186.77437 -127.97442 0
v -186.77437 -133.47441 0
vt 0 0
vt 0 1
vt 1 0
vt 1 1
vn 0 0 -1
vn 0 0 -1
vn 0 0 -1
vn 0 0 -1
f 116/116/116 114/114/114 113/113/113 115/115/115
o object_30
v -201.77437 -135.64935 0
v -201.77437 -141.14935 0
v -186.77437 -135.64935 0
v -186.77437 -141.14935 0
vt 0 0
vt 0 1
vt 1 0
vt 1 1
vn 0 0 -1
vn 0 0 -1
vn 0 0 -1
vn 0 0 -1
f 120/120/120 118/118/118 117/117/117 119/119/119
o object_31
v -201.77437 -147.53577 0
v -201.77437 -153.03577 0
v -186.77437 -147.53577 0
v -186.77437 -153.03577 0
vt 0 0
vt 0 1
vt 1 0
vt 1 1
vn 0 0 -1
vn 0 0 -1
vn 0 0 -1
vn 0 0 -1
f 124/124/124 122/122/122 121/121/121 123/123/123
o object_32
v -201.77437 -155.21069 0
v -201.77437 -160.71069 0
v -186.77437 -155.21069 0
v -186.77437 -160.71069 0
vt 0 0
vt 0 1
vt 1 0
vt 1 1
vn 0 0 -1
vn 0 0 -1
vn 0 0 -1
vn 0 0 -1
f 128/128/128 126/126/126 125/125/125 127/127/127
o object_33
v -201.77437 -167.09711 0
v -201.77437 -172.59711 0
v -186.77437 -167.09711 0
v -186.77437 -172.59711 0
vt 0 0
vt 0 1
vt 1 0
vt 1 1
vn 0 0 -1
vn 0 0 -1
vn 0 0 -1
vn 0 0 -1
f 132/132/132 130/130/130 129/129/129 131/131/131
o object_34
v -201.77437 -174.77203 0
v -201.77437 -180.27203 0
v -186.77437 -174.77203 0
v -186.77437 -180.27203 0
vt 0 0
vt 0 1
vt 1 0
vt 1 1
vn 0 0 -1
vn 0 0 -1
vn 0 0 -1
vn 0 0 -1
f 136/136/136 134/134/134 133/133/133 135/135/135
o object_35
v -201.77437 -186.65846 0
v -201.77437 -192.15846 0
v -186.77437 -186.65846 0
v -186.77437 -192.15846 0
vt 0 0
vt 0 1
vt 1 0
vt 1 1
vn 0 0 -1
vn 0 0 -1
vn 0 0 -1
vn 0 0 -1
f 140/140/140 138/138/138 137/137/137 139/139/139
o object_36
v -183.10463 -76.965309 0
v -183.10463 -82.465309 0
v -168.10463 -76.965309 0
v -168.10463 -82.465309 0
vt 0 0
vt 0 1
vt 1 0
vt 1 1
vn 0 0 -1
vn 0 0 -1
vn 0 0 -1
vn 0 0 -1
f 144/144/144 142/142/142 141/141/141 143/143/143
o object_37
v -183.10463 -88.851723 0
v -183.10463 -94.351723 0
v -168.10463 -88.851723 0
v -168.10463 -94.351723 0
vt 0 0
vt 0 1
vt 1 0
vt 1 1
vn 0 0 -1
vn 0 0 -1
vn 0 0 -1
vn 0 0 -1
f 148/148/148 146/146/146 145/145/145 147/147/147
o object_38
v -183.10463 -96.526649 0
v -183.10463 -102.02665 0
v -168.10463 -96.526649 0
v -168.10463 -102.02665 0
vt 0 0
vt 0 1
vt 1 0
vt 1 1
vn 0 0 -1
vn 0 0 -1
vn 0 0 -1
vn 0 0 -1
f 152/152/152 150/150/150 149/149/149 151/151/151
o object_39
v -183.10463 -108.41307 0
v -183.10463 -113.91307 0
v -168.10463 -108.41307 0
v -168.10463 -113.91307 0
vt 0 0
vt 0 1
vt 1 0
vt 1 1
vn 0 0 -1
vn 0 0 -1
vn 0 0 -1
vn 0 0 -1
f 156/156/156 154/154/154 153/153/153 155/155/155
o object_40
v -183.10463 -116.088 0
v -183.10463 -121.588 0
v -168.10463 -116.088 0
v -168.10463 -121.588 0
vt 0 0
vt 0 1
vt 1 0
vt 1 1
vn 0 0 -1
vn 0 0 -1
vn 0 0 -1
vn 0 0 -1
f 160/160/160 158/158/158 157/157/157 159/159/159
o object_41
v -183.10463 -127.97442 0
v -183.10463 -133.47441 0
v -168.10463 -127.97442 0
v -168.10463 -133.47441 0
vt 0 0
vt 0 1
vt 1 0
vt 1 1
vn 0 0 -1
vn 0 0 -1
vn 0 0 -1
vn 0 0 -1
f 164/164/164 162/162/162 161/161/161 163/163/163
o object_42
v -183.10463 -135.64935 0
v -183.10463 -141.14935 0
v -168.10463 -135.64935 0
v -168.10463 -141.14935 0
vt 0 0
vt 0 1
vt 1 0
vt 1 1
vn 0 0 -1
vn 0 0 -1
vn 0 0 -1
vn 0 0 -1
f 168/168/168 166/166/166 165/165/165 167/167/167
o object_43
v -183.10463 -147.53577 0
v -183.10463 -153.03577 0
v -168.10463 -147.53577 0
v -168.10463 -153.03577 0
vt 0 0
vt 0 1
vt 1 0
vt 1 1
vn 0 0 -1
vn 0 0 -1
vn 0 0 -1
vn 0 0 -1
f 172/172/172 170/170/170 169/169/169 171/171/171
o object_44
v -183.10463 -155.21069 0
v -183.10463 -160.71069 0
v -168.10463 -155.21069 0
v -168.10463 -160.71069 0
vt 0 0
vt 0 1
vt 1 0
vt 1 1
vn 0 0 -1
vn 0 0 -1
vn 0 0 -1
vn 0 0 -1
f 176/176/176 174/174/174 173/173/173 175/175/175
o object_45
v -183.10463 -167.09711 0
v -183.10463 -172.59711 0
v -168.10463 -167.09711 0
v -168.10463 -172.59711 0
vt 0 0
vt 0 1
vt 1 0
vt 1 1
vn 0 0 -1
vn 0 0 -1
vn 0 0 -1
vn 0 0 -1
f 180/180/180 178/178/178 177/177/177 179/179/179
o object_46
v -183.10463 -174.77203 0
v -183.10463 -180.27203 0
v -168.10463 -174.77203 0
v -168.10463 -180.27203 0
vt 0 0
vt 0 1
vt 1 0
vt 1 1
vn 0 0 -1
vn 0 0 -1
vn 0 0 -1
vn 0 0 -1
f 184/184/184 182/182/182 181/181/181 183/183/183
o object_47
v -183.10463 -186.65846 0
v -183.10463 -192.15846 0
v -168.10463 -186.65846 0
v -168.10463 -192.15846 0
vt 0 0
vt 0 1
vt 1 0
vt 1 1
vn 0 0 -1
vn 0 0 -1
vn 0 0 -1
vn 0 0 -1
f 188/188/188 186/186/186 185/185/185 187/187/187
o object_48
v -164.43489 -76.965309 0
v -164.43489 -82.465309 0
v -149.43489 -76.965309 0
v -149.43489 -82.465309 0
vt 0 0
vt 0 1
vt 1 0
vt 1 1
vn 0 0 -1
vn 0 0 -1
vn 0 0 -1
vn 0 0 -1
f 192/192/192 190/190/190 189/189/189 191/191/191
o object_49
v -164.43489 -88.851723 0
v -164.43489 -94.351723 0
v -149.43489 -88.851723 0
v -149.43489 -94.351723 0
vt 0 0
vt 0 1
vt 1 0
vt 1 1
vn 0 0 -1
vn 0 0 -1
vn 0 0 -1
vn 0 0 -1
f 196/196/196 194/194/194 193/193/193 195/195/195
o object_50
v -164.43489 -96.526649 0
v -164.43489 -102.02665 0
v -149.43489 -96.526649 0
v -149.43489 -102.02665 0
vt 0 0
vt 0 1
vt 1 0
vt 1 1
vn 0 0 -1
vn 0 0 -1
vn 0 0 -1
vn 0 0 -1
f 200/200/200 198/198/198 197/197/197 199/199/199
o object_51
v -164.43489 -108.41307 0
v -164.43489 -113.91307 0
v -149.43489 -108.41307 0
v -149.43489 -113.91307 0
vt 0 0
vt 0 1
vt 1 0
vt 1 1
vn 0 0 -1
vn 0 0 -1
vn 0 0 -1
vn 0 0 -1
f 204/204/204 202/202/202 201/201/201 203/203/203
o object_52
v -164.43489 -116.088 0
v -164.43489 -121.588 0
v -149.43489 -116.088 0
v -149.43489 -121.588 0
vt 0 0
vt 0 1
vt 1 0
vt 1 1
vn 0 0 -1
vn 0 0 -1
vn 0 0 -1
vn 0 0 -1
f 208/208/208 206/206/206 205/205/205 207/207/207
o object_53
v -164.43489 -127.97442 0
v -164.43489 -133.47441 0
v -149.43489 -127.97442 0
v -149.43489 -133.47441 0
vt 0 0
vt 0 1
vt 1 0
vt 1 1
vn 0 0 -1
vn 0 0 -1
vn 0 0 -1
vn 0 0 -1
f 212/212/212 210/210/210 209/209/209 211/211/211
o object_54
v -164.43489 -135.64935 0
v -164.43489 -141.14935 0
v -149.43489 -135.64935 0
v -149.43489 -141.14935 0
vt 0 0
vt 0 1
vt 1 0
vt 1 1
vn 0 0 -1
vn 0 0 -1
vn 0 0 -1
vn 0 0 -1
f 216/216/216 214/214/214 213/213/213 215/215/215
o object_55
v -164.43489 -147.53577 0
v -164.43489 -153.03577 0
v -149.43489 -147.53577 0
v -149.43489 -153.03577 0
vt 0 0
vt 0 1
vt 1 0
vt 1 1
vn 0 0 -1
vn 0 0 -1
vn 0 0 -1
vn 0 0 -1
f 220/220/220 218/218/218 217/217/217 219/219/219
o object_56
v -164.43489 -155.21069 0
v -164.43489 -160.71069 0
v -149.43489 -155.21069 0
v -149.43489 -160.71069 0
vt 0 0
vt 0 1
vt 1 0
vt 1 1
vn 0 0 -1
vn 0 0 -1
vn 0 0 -1
vn 0 0 -1
f 224/224/224 222/222/222 221/221/221 223/223/223
o object_57
v -164.43489 -167.09711 0
v -164.43489 -172.59711 0
v -149.43489 -167.09711 0
v -149.43489 -172.59711 0
vt 0 0
vt 0 1
vt 1 0
vt 1 1
vn 0 0 -1
vn 0 0 -1
vn 0 0 -1
vn 0 0 -1
f 228/228/228 226/226/226 225/225/225 227/227/227
o object_58
v -164.43489 -174.77203 0
v -164.43489 -180.27203 0
v -149.43489 -174.77203 0
v -149.43489 -180.27203 0
vt 0 0
vt 0 1
vt 1 0
vt 1 1
vn 0 0 -1
vn 0 0 -1
vn 0 0 -1
vn 0 0 -1
f 232/232/232 230/230/230 229/229/229 231/231/231
o object_59
v -164.43489 -186.65846 0
v -164.43489 -192.15846 0
v -149.43489 -186.65846 0
v -149.43489 -192.15846 0
vt 0 0
vt 0 1
vt 1 0
vt 1 1
vn 0 0 -1
vn 0 0 -1
vn 0 0 -1
vn 0 0 -1
f 236/236/236 234/234/234 233/233/233 235/235/235
o object_60
v -145.76514 -76.965309 0
v -145.76514 -82.465309 0
v -130.76514 -76.965309 0
v -130.76514 -82.465309 0
vt 0 0
vt 0 1
vt 1 0
vt 1 1
vn 0 0 -1
vn 0 0 -1
vn 0 0 -1
vn 0 0 -1
f 240/240/240 238/238/238 237/237/237 239/239/239
o object_61
v -145.76514 -88.851723 0
v -145.76514 -94.351723 0
v -130.76514 -88.851723 0
v -130.76514 -94.351723 0
vt 0 0
vt 0 1
vt 1 0
vt 1 1
vn 0 0 -1
vn 0 0 -1
vn 0 0 -1
vn 0 0 -1
f 244/244/244 242/242/242 241/241/241 243/243/243
o object_62
v -145.76514 -96.526649 0
v -145.76514 -102.02665 0
v -130.76514 -96.526649 0
v -130.76514 -102.02665 0
vt 0 0
vt 0 1
vt 1 0
vt 1 1
vn 0 0 -1
vn 0 0 -1
vn 0 0 -1
vn 0 0 -1
f 248/248/248 246/246/246 245/245/245 247/247/247
o object_63
v -145.76514 -108.41307 0
v -145.76514 -113.91307 0
v -130.76514 -108.41307 0
v -130.76514 -113.91307 0
vt 0 0
vt 0 1
vt 1 0
vt 1 1
vn 0 0 -1
vn 0 0 -1
vn 0 0 -1
vn 0 0 -1
f 252/252/252 250/250/250 249/249/249 251/251/251
o object_64
v -145.76514 -116.088 0
v -145.76514 -121.588 0
v -130.76514 -116.088 0
v -130.76514 -121.588 0
vt 0 0
vt 0 1
vt 1 0
vt 1 1
vn 0 0 -1
vn 0 0 -1
vn 0 0 -1
vn 0 0 -1
f 256/256/256 254/254/254 253/253/253 255/255/255
o object_65
v -145.76514 -127.97442 0
v -145.76514 -133.47441 0
v -130.76514 -127.97442 0
v -130.76514 -133.47441 0
vt 0 0
vt 0 1
vt 1 0
vt 1 1
vn 0 0 -1
vn 0 0 -1
vn 0 0 -1
vn 0 0 -1
f 260/260/260 258/258/258 257/257/257 259/259/259
o object_66
v -145.76514 -135.64935 0
v -145.76514 -141.14935 0
v -130.76514 -135.64935 0
v -130.76514 -141.14935 0
vt 0 0
vt 0 1
vt 1 0
vt 1 1
vn 0 0 -1
vn 0 0 -1
vn 0 0 -1
vn 0 0 -1
f 264/264/264 262/262/262 261/261/261 263/263/263
o object_67
v -145.76514 -147.53577 0
v -145.76514 -153.03577 0
v -130.76514 -147.53577 0
v -130.76514 -153.03577 0
vt 0 0
vt 0 1
vt 1 0
vt 1 1
vn 0 0 -1
vn 0 0 -1
vn 0 0 -1
vn 0 0 -1
f 268/268/268 266/266/266 265/265/265 267/267/267
o object_68
v -145.76514 -155.21069 0
v -145.76514 -160.71069 0
v -130.76514 -155.21069 0
v -130.76514 -160.71069 0
vt 0 0
vt 0 1
vt 1 0
vt 1 1
vn 0 0 -1
vn 0 0 -1
vn 0 0 -1
vn 0 0 -1
f 272/272/272 270/270/270 269/269/269 271/271/271
o object_69
v -145.76514 -167.09711 0
v -145.76514 -172.59711 0
v -130.76514 -167.09711 0
v -130.76514 -172.59711 0
vt 0 0
vt 0 1
vt 1 0
vt 1 1
vn 0 0 -1
vn 0 0 -1
vn 0 0 -1
vn 0 0 -1
f 276/276/276 274/274/274 273/273/273 275/275/275
o object_70
v -145.76514 -174.77203 0
v -145.76514 -180.27203 0
v -130.76514 -174.77203 0
v -130.76514 -180.27203 0
vt 0 0
vt 0 1
vt 1 0
vt 1 1
vn 0 0 -1
vn 0 0 -1
vn 0 0 -1
vn 0 0 -1
f 280/280/280 278/278/278 277/277/277 279/279/279
o object_71
v -145.76514 -186.65846 0
v -145.76514 -192.15846 0
v -130.76514 -186.65846 0
v -130.76514 -192.15846 0
vt 0 0
vt 0 1
vt 1 0
vt 1 1
vn 0 0 -1
vn 0 0 -1
vn 0 0 -1
vn 0 0 -1
f 284/284/284 282/282/282 281/281/281 283/283/283
o object_72
v -127.0954 -76.965309 0
v -127.0954 -82.465309 0
v -112.0954 -76.965309 0
v -112.0954 -82.465309 0
vt 0 0
vt 0 1
vt 1 0
vt 1 1
vn 0 0 -1
vn 0 0 -1
vn 0 0 -1
vn 0 0 -1
f 288/288/288 286/286/286 285/285/285 287/287/287
o object_73
v -127.0954 -88.851723 0
v -127.0954 -94.351723 0
v -112.0954 -88.851723 0
v -112.0954 -94.351723 0
vt 0 0
vt 0 1
vt 1 0
vt 1 1
vn 0 0 -1
vn 0 0 -1
vn 0 0 -1
vn 0 0 -1
f 292/292/292 290/290/290 289/289/289 291/291/291
o object_74
v -127.0954 -96.526649 0
v -127.0954 -102.02665 0
v -112.0954 -96.526649 0
v -112.0954 -102.02665 0
vt 0 0
vt 0 1
vt 1 0
vt 1 1
vn 0 0 -1
vn 0 0 -1
vn 0 0 -1
vn 0 0 -1
f 296/296/296 294/294/294 293/293/293 295/295/295
o object_75
v -127.0954 -108.41307 0
v -127.0954 -113.91307 0
v -112.0954 -108.41307 0
v -112.0954 -113.91307 0
vt 0 0
vt 0 1
vt 1 0
vt 1 1
vn 0 0 -1
vn 0 0 -1
vn 0 0 -1
vn 0 0 -1
f 300/300/300 298/298/298 297/297/297 299/299/299
o object_76
v -127.0954 -116.088 0
v -127.0954 -121.588 0
v -112.0954 -116.088 0
v -112.0954 -121.588 0
vt 0 0
vt 0 1
vt 1 0
vt 1 1
vn 0 0 -1
vn 0 0 -1
vn 0 0 -1
vn 0 0 -1
f 304/304/304 302/302/302 301/301/301 303/303/303
o object_77
v -127.0954 -127.97442 0
v -127.0954 -133.47441 0
v -112.0954 -127.97442 0
v -112.0954 -133.47441 0
vt 0 0
vt 0 1
vt 1 0
vt 1 1
vn 0 0 -1
vn 0 0 -1
vn 0 0 -1
vn 0 0 -1
f 308/308/308 306/306/306 305/305/305 307/307/307
o object_78
v -127.0954 -135.64935 0
v -127.0954 -141.14935 0
v -112.0954 -135.64935 0
v -112.0954 -141.14935 0
vt 0 0
vt 0 1
vt 1 0
vt 1 1
vn 0 0 -1
vn 0 0 -1
vn 0 0 -1
vn 0 0 -1
f 312/312/312 310/310/310 309/309/309 311/311/311
o object_79
v -127.0954 -147.53577 0
v -127.0954 -153.03577 0
v -112.0954 -147.53577 0
v -112.0954 -153.03577 0
vt 0 0
vt 0 1
vt 1 0
vt 1 1
vn 0 0 -1
vn 0 0 -1
vn 0 0 -1
vn 0 0 -1
f 316/316/316 314/314/314 313/313/313 315/315/315
o object_80
v -127.0954 -155.21069 0
v -127.0954 -160.71069 0
v -112.0954 -155.21069 0
v -112.0954 -160.71069 0
vt 0 0
vt 0 1
vt 1 0
vt 1 1
vn 0 0 -1
vn 0 0 -1
vn 0 0 -1
vn 0 0 -1
f 320/320/320 318/318/318 317/317/317 319/319/319
o object_81
v -127.0954 -167.09711 0
v -127.0954 -172.59711 0
v -112.0954 -167.09711 0
v -112.0954 -172.59711 0
vt 0 0
vt 0 1
vt 1 0
vt 1 1
vn 0 0 -1
vn 0 0 -1
vn 0 0 -1
vn 0 0 -1
f 324/324/324 322/322/322 321/321/321 323/323/323
o object_82
v -127.0954 -174.77203 0
v -127.0954 -180.27203 0
v -112.0954 -174.77203 0
v -112.0954 -180.27203 0
vt 0 0
vt 0 1
vt 1 0
vt 1 1
vn 0 0 -1
vn 0 0 -1
vn 0 0 -1
vn 0 0 -1
f 328/328/328 326/326/326 325/325/325 327/327/327
o object_83
v -127.0954 -186.65846 0
v -127.0954 -192.15846 0
v -112.0954 -186.65846 0
v -112.0954 -192.15846 0
vt 0 0
vt 0 1
vt 1 0
vt 1 1
vn 0 0 -1
vn 0 0 -1
vn 0 0 -1
vn 0 0 -1
f 332/332/332 330/330/330 329/329/329 331/331/331
o object_84
v -108.42565 -76.965309 0
v -108.42565 -82.465309 0
v -93.425652 -76.965309 0
v -93.425652 -82.465309 0
vt 0 0
vt 0 1
vt 1 0
vt 1 1
vn 0 0 -1
vn 0 0 -1
vn 0 0 -1
vn 0 0 -1
f 336/336/336 334/334/334 333/333/333 335/335/335
o object_85
v -108.42565 -88.851723 0
v -108.42565 -94.351723 0
v -93.425652 -88.851723 0
v -93.425652 -94.351723 0
vt 0 0
vt 0 1
vt 1 0
vt 1 1
vn 0 0 -1
vn 0 0 -1
vn 0 0 -1
vn 0 0 -1
f 340/340/340 338/338/338 337/337/337 339/339/339
o object_86
v -108.42565 -96.526649 0
v -108.42565 -102.02665 0
v -93.425652 -96.526649 0
v -93.425652 -102.02665 0
vt 0 0
vt 0 1
vt 1 0
vt 1 1
vn 0 0 -1
vn 0 0 -1
vn 0 0 -1
vn 0 0 -1
f 344/344/344 342/342/342 341/341/341 343/343/343
o object_87
v -108.42565 -108.41307 0
v -108.42565 -113.91307 0
v -93.425652 -108.41307 0
v -93.425652 -113.91307 0
vt 0 0
vt 0 1
vt 1 0
vt 1 1
vn 0 0 -1
vn 0 0 -1
vn 0 0 -1
vn 0 0 -1
f 348/348/348 346/346/346 345/345/345 347/347/347
o object_88
v -108.42565 -116.088 0
v -108.42565 -121.588 0
v -93.425652 -116.088 0
v -93.425652 -121.588 0
vt 0 0
vt 0 1
vt 1 0
vt 1 1
vn 0 0 -1
vn 0 0 -1
vn 0 0 -1
vn 0 0 -1
f 352/352/352 350/350/350 349/349/349 351/351/351
o object_89
v -108.42565 -127.97442 0
v -108.42565 -133.47441 0
v -93.425652 -127.97442 0
v -93.425652 -133.47441 0
vt 0 0
vt 0 1
vt 1 0
vt 1 1
vn 0 0 -1
vn 0 0 -1
vn 0 0 -1
vn 0 0 -1
f 356/356/356 354/354/354 353/353/353 355/355/355
o object_90
v -108.42565 -135.64935 0
v -108.42565 -141.14935 0
v -93.425652 -135.64935 0
v -93.425652 -141.14935 0
vt 0 0
vt 0 1
vt 1 0
vt 1 1
vn 0 0 -1
vn 0 0 -1
vn 0 0 -1
vn 0 0 -1
f 360/360/360 358/358/358 357/357/357 359/359/359
o object_91
v -108.42565 -147.53577 0
v -108.42565 -153.03577 0
v -93.425652 -147.53577 0
v -93.425652 -153.03577 0
vt 0 0
vt 0 1
vt 1 0
vt 1 1
vn 0 0 -1
vn 0 0 -1
vn 0 0 -1
vn 0 0 -1
f 364/364/364 362/362/362 361/361/361 363/363/363
o object_92
v -108.42565 -155.21069 0
v -108.42565 -160.71069 0
v -93.425652 -155.21069 0
v -93.425652 -160.71069 0
vt 0 0
vt 0 1
vt 1 0
vt 1 1
vn 0 0 -1
vn 0 0 -1
vn 0 0 -1
vn 0 0 -1
f 368/368/368 366/366/366 365/365/365 367/367/367
o object_93
v -108.42565 -167.09711 0
v -108.42565 -172.59711 0
v -93.425652 -167.09711 0
v -93.425652 -172.59711 0
vt 0 0
vt 0 1
vt 1 0
vt 1 1
vn 0 0 -1
vn 0 0 -1
vn 0 0 -1
vn 0 0 -1
f 372/372/372 370/370/370 369/369/369 371/371/371
o object_94
v -108.42565 -174.77203 0
v -108.42565 -180.27203 0
v -93.425652 -174.77203 0
v -93.425652 -180.27203 0
vt 0 0
vt 0 1
vt 1 0
vt 1 1
vn 0 0 -1
vn 0 0 -1
vn 0 0 -1
vn 0 0 -1
f 376/376/376 374/374/374 373/373/373 375/375/375
o object_95
v -108.42565 -186.65846 0
v -108.42565 -192.15846 0
v -93.425652 -186.65846 0
v -93.425652 -192.15846 0
vt 0 0
vt 0 1
vt 1 0
vt 1 1
vn 0 0 -1
vn 0 0 -1
vn 0 0 -1
vn 0 0 -1
f 380/380/380 378/378/378 377/377/377 379/379/379
o object_96
v -89.755905 -88.851723 0
v -89.755905 -94.351723 0
v -74.755905 -88.851723 0
v -74.755905 -94.351723 0
vt 0 0
vt 0 1
vt 1 0
vt 1 1
vn 0 0 -1
vn 0 0 -1
vn 0 0 -1
vn 0 0 -1
f 384/384/384 382/382/382 381/381/381 383/383/383
o object_97
v -89.755905 -96.526649 0
v -89.755905 -102.02665 0
v -74.755905 -96.526649 0
v -74.755905 -102.02665 0
vt 0 0
vt 0 1
vt 1 0
vt 1 1
vn 0 0 -1
vn 0 0 -1
vn 0 0 -1
vn 0 0 -1
f 388/388/388 386/386/386 385/385/385 387/387/387
o object_98
v -89.755905 -108.41307 0
v -89.755905 -113.91307 0
v -74.755905 -108.41307 0
v -74.755905 -113.91307 0
vt 0 0
vt 0 1
vt 1 0
vt 1 1
vn 0 0 -1
vn 0 0 -1
vn 0 0 -1
vn 0 0 -1
f 392/392/392 390/390/390 389/389/389 391/391/391
o object_99
v -89.755905 -116.088 0
v -89.755905 -121.588 0
v -74.755905 -116.088 0
v -74.755905 -121.588 0
vt 0 0
vt 0 1
vt 1 0
vt 1 1
vn 0 0 -1
vn 0 0 -1
vn 0 0 -1
vn 0 0 -1
f 396/396/396 394/394/394 393/393/393 395/395/395
o object_100
v -89.755905 -127.97442 0
v -89.755905 -133.47441 0
v -74.755905 -127.97442 0
v -74.755905 -133.47441 0
vt 0 0
vt 0 1
vt 1 0
vt 1 1
vn 0 0 -1
vn 0 0 -1
vn 0 0 -1
vn 0 0 -1
f 400/400/400 398/398/398 397/397/397 399/399/399
o object_101
v -89.755905 -135.64935 0
v -89.755905 -141.14935 0
v -74.755905 -135.64935 0
v -74.755905 -141.14935 0
vt 0 0
vt 0 1
vt 1 0
vt 1 1
vn 0 0 -1
vn 0 0 -1
vn 0 0 -1
vn 0 0 -1
f 404/404/404 402/402/402 401/401/401 403/403/403
o object_102
v -89.755905 -147.53577 0
v -89.755905 -153.03577 0
v -74.755905 -147.53577 0
v -74.755905 -153.03577 0
vt 0 0
vt 0 1
vt 1 0
vt 1 1
vn 0 0 -1
vn 0 0 -1
vn 0 0 -1
vn 0 0 -1
f 408/408/408 406/406/406 405/405/405 407/407/407
o object_103
v -89.755905 -155.21069 0
v -89.755905 -160.71069 0
v -74.755905 -155.21069 0
v -74.755905 -160.71069 0
vt 0 0
vt 0 1
vt 1 0
vt 1 1
vn 0 0 -1
vn 0 0 -1
vn 0 0 -1
vn 0 0 -1
f 412/412/412 410/410/410 409/409/409 411/411/411
o object_104
v -89.755905 -167.09711 0
v -89.755905 -172.59711 0
v -74.755905 -167.09711 0
v -74.755905 -172.59711 0
vt 0 0
vt 0 1
vt 1 0
vt 1 1
vn 0 0 -1
vn 0 0 -1
vn 0 0 -1
vn 0 0 -1
f 416/416/416 414/414/414 413/413/413 415/415/415
o object_105
v -89.755905 -174.77203 0
v -89.755905 -180.27203 0
v -74.755905 -174.77203 0
v -74.755905 -180.27203 0
vt 0 0
vt 0 1
vt 1 0
vt 1 1
vn 0 0 -1
vn 0 0 -1
vn 0 0 -1
vn 0 0 -1
f 420/420/420 418/418/418 417/417/417 419/419/419
o object_106
v -89.755905 -186.65846 0
v -89.755905 -192.15846 0
v -74.755905 -186.65846 0
v -74.755905 -192.15846 0
vt 0 0
vt 0 1
vt 1 0
vt 1 1
vn 0 0 -1
vn 0 0 -1
vn 0 0 -1
vn 0 0 -1
f 424/424/424 422/422/422 421/421/421 423/423/423
o object_107
v -71.086159 -127.97442 0
v -71.086159 -133.47441 0
v -56.086163 -127.97442 0
v -56.086163 -133.47441 0
vt 0 0
vt 0 1
vt 1 0
vt 1 1
vn 0 0 -1
vn 0 0 -1
vn 0 0 -1
vn 0 0 -1
f 428/428/428 426/426/426 425/425/425 427/427/427
o object_108
v -71.086159 -135.64935 0
v -71.086159 -141.14935 0
v -56.086163 -135.64935 0
v -56.086163 -141.14935 0
vt 0 0
vt 0 1
vt 1 0
vt 1 1
vn 0 0 -1
vn 0 0 -1
vn 0 0 -1
vn 0 0 -1
f 432/432/432 430/430/430 429/429/429 431/431/431
o object_109
v -71.086159 -147.53577 0
v -71.086159 -153.03577 0
v -56.086163 -147.53577 0
v -56.086163 -153.03577 0
vt 0 0
vt 0 1
vt 1 0
vt 1 1
vn 0 0 -1
vn 0 0 -1
vn 0 0 -1
vn 0 0 -1
f 436/436/436 434/434/434 433/433/433 435/435/435
o object_110
v -71.086159 -155.21069 0
v -71.086159 -160.71069 0
v -56.086163 -155.21069 0
v -56.086163 -160.71069 0
vt 0 0
vt 0 1
vt 1 0
vt 1 1
vn 0 0 -1
vn 0 0 -1
vn 0 0 -1
vn 0 0 -1
f 440/440/440 438/438/438 437/437/437 439/439/439
o object_111
v -71.086159 -167.09711 0
v -71.086159 -172.59711 0
v -56.086163 -167.09711 0
v -56.086163 -172.59711 0
vt 0 0
vt 0 1
vt 1 0
vt 1 1
vn 0 0 -1
vn 0 0 -1
vn 0 0 -1
vn 0 0 -1
f 444/444/444 442/442/442 441/441/441 443/443/443
o object_112
v -71.086159 -174.77203 0
v -71.086159 -180.27203 0
v -56.086163 -174.77203 0
v -56.086163 -180.27203 0
vt 0 0
vt 0 1
vt 1 0
vt 1 1
vn 0 0 -1
vn 0 0 -1
vn 0 0 -1
vn 0 0 -1
f 448/448/448 446/446/446 445/445/445 447/447/447
o object_113
v -71.086159 -186.65846 0
v -71.086159 -192.15846 0
v -56.086163 -186.65846 0
v -56.086163 -192.15846 0
vt 0 0
vt 0 1
vt 1 0
vt 1 1
vn 0 0 -1
vn 0 0 -1
vn 0 0 -1
vn 0 0 -1
f 452/452/452 450/450/450 449/449/449 451/451/451
o object_114
v -52.416416 -147.53577 0
v -52.416416 -153.03577 0
v -37.416416 -147.53577 0
v -37.416416 -153.03577 0
vt 0 0
vt 0 1
vt 1 0
vt 1 1
vn 0 0 -1
vn 0 0 -1
vn 0 0 -1
vn 0 0 -1
f 456/456/456 454/454/454 453/453/453 455/455/455
o object_115
v -52.416416 -155.21069 0
v -52.416416 -160.71069 0
v -37.416416 -155.21069 0
v -37.416416 -160.71069 0
vt 0 0
vt 0 1
vt 1 0
vt 1 1
vn 0 0 -1
vn 0 0 -1
vn 0 0 -1
vn 0 0 -1
f 460/460/460 458/458/458 457/457/457 459/459/459
o object_116
v -52.416416 -167.09711 0
v -52.416416 -172.59711 0
v -37.416416 -167.09711 0
v -37.416416 -172.59711 0
vt 0 0
vt 0 1
vt 1 0
vt 1 1
vn 0 0 -1
vn 0 0 -1
vn 0 0 -1
vn 0 0 -1
f 464/464/464 462/462/462 461/461/461 463/463/463
o object_117
v -52.416416 -174.77203 0
v -52.416416 -180.27203 0
v -37.416416 -174.77203 0
v -37.416416 -180.27203 0
vt 0 0
vt 0 1
vt 1 0
vt 1 1
vn 0 0 -1
vn 0 0 -1
vn 0 0 -1
vn 0 0 -1
f 468/468/468 466/466/466 465/465/465 467/467/467
o object_118
v -52.416416 -186.65846 0
v -52.416416 -192.15846 0
v -37.416416 -186.65846 0
v -37.416416 -192.15846 0
vt 0 0
vt 0 1
vt 1 0
vt 1 1
vn 0 0 -1
vn 0 0 -1
vn 0 0 -1
vn 0 0 -1
f 472/472/472 470/470/470 469/469/469 471/471/471
o object_119
v -257.7836 -76.965309 0
v -257.7836 -82.465309 0
v -242.78362 -76.965309 0
v -242.78362 -82.465309 0
vt 0 0
vt 0 1
vt 1 0
vt 1 1
vn 0 0 -1
vn 0 0 -1
vn 0 0 -1
vn 0 0 -1
f 476/476/476 474/474/474 473/473/473 475/475/475
o object_120
v -257.7836 -88.851723 0
v -257.7836 -94.351723 0
v -242.78362 -88.851723 0
v -242.78362 -94.351723 0
vt 0 0
vt 0 1
vt 1 0
vt 1 1
vn 0 0 -1
vn 0 0 -1
vn 0 0 -1
vn 0 0 -1
f 480/480/480 478/478/478 477/477/477 479/479/479
o object_121
v -257.7836 -96.526649 0
v -257.7836 -102.02665 0
v -242.78362 -96.526649 0
v -242.78362 -102.02665 0
vt 0 0
vt 0 1
vt 1 0
vt 1 1
vn 0 0 -1
vn 0 0 -1
vn 0 0 -1
vn 0 0 -1
f 484/484/484 482/482/482 481/481/481 483/483/483
o object_122
v -257.7836 -108.41307 0
v -257.7836 -113.91307 0
v -242.78362 -108.41307 0
v -242.78362 -113.91307 0
vt 0 0
vt 0 1
vt 1 0
vt 1 1
vn 0 0 -1
vn 0 0 -1
vn 0 0 -1
vn 0 0 -1
f 488/488/488 486/486/486 485/485/485 487/487/487
o object_123
v -257.7836 -116.088 0
v -257.7836 -121.588 0
v -242.78362 -116.088 0
v -242.78362 -121.588 0
vt 0 0
vt 0 1
vt 1 0
vt 1 1
vn 0 0 -1
vn 0 0 -1
vn 0 0 -1
vn 0 0 -1
f 492/492/492 490/490/490 489/489/489 491/491/491
o object_124
v -257.7836 -127.97442 0
v -257.7836 -133.47441 0
v -242.78362 -127.97442 0
v -242.78362 -133.47441 0
vt 0 0
vt 0 1
vt 1 0
vt 1 1
vn 0 0 -1
vn 0 0 -1
vn 0 0 -1
vn 0 0 -1
f 496/496/496 494/494/494 493/493/493 495/495/495
o object_125
v -257.7836 -135.64935 0
v -257.7836 -141.14935 0
v -242.78362 -135.64935 0
v -242.78362 -141.14935 0
vt 0 0
vt 0 1
vt 1 0
vt 1 1
vn 0 0 -1
vn 0 0 -1
vn 0 0 -1
vn 0 0 -1
f 500/500/500 498/498/498 497/497/497 499/499/499
o object_126
v -257.7836 -147.53577 0
v -257.7836 -153.03577 0
v -242.78362 -147.53577 0
v -242.78362 -153.03577 0
vt 0 0
vt 0 1
vt 1 0
vt 1 1
vn 0 0 -1
vn 0 0 -1
vn 0 0 -1
vn 0 0 -1
f 504/504/504 502/502/502 501/501/501 503/503/503
o object_127
v -257.7836 -155.21069 0
v -257.7836 -160.71069 0
v -242.78362 -155.21069 0
v -242.78362 -160.71069 0
vt 0 0
vt 0 1
vt 1 0
vt 1 1
vn 0 0 -1
vn 0 0 -1
vn 0 0 -1
vn 0 0 -1
f 508/508/508 506/506/506 505/505/505 507/507/507
o object_128
v -257.7836 -167.09711 0
v -257.7836 -172.59711 0
v -242.78362 -167.09711 0
v -242.78362 -172.59711 0
vt 0 0
vt 0 1
vt 1 0
vt 1 1
vn 0 0 -1
vn 0 0 -1
vn 0 0 -1
vn 0 0 -1
f 512/512/512 510/510/510 509/509/509 511/511/511
o object_129
v -33.74667 -186.65846 0
v -33.74667 -192.15846 0
v -18.746672 -186.65846 0
v -18.746672 -192.15846 0
vt 0 0
vt 0 1
vt 1 0
vt 1 1
vn 0 0 -1
vn 0 0 -1
vn 0 0 -1
vn 0 0 -1
f 516/516/516 514/514/514 513/513/513 515/515/515
o object_130
v -276.45334 -135.64935 0
v -276.45334 -141.14935 0
v -261.45334 -135.64935 0
v -261.45334 -141.14935 0
vt 0 0
vt 0 1
vt 1 0
vt 1 1
vn 0 0 -1
vn 0 0 -1
vn 0 0 -1
vn 0 0 -1
f 520/520/520 518/518/518 517/517/517 519/519/519
o object_131
v -276.45334 -127.97442 0
v -276.45334 -133.47441 0
v -261.45334 -127.97442 0
v -261.45334 -133.47441 0
vt 0 0
vt 0 1
vt 1 0
vt 1 1
vn 0 0 -1
vn 0 0 -1
vn 0 0 -1
vn 0 0 -1
f 524/524/524 522/522/522 521/521/521 523/523/523
o object_132
v -276.45334 -116.088 0
v -276.45334 -121.588 0
v -261.45334 -116.088 0
v -261.45334 -121.588 0
vt 0 0
vt 0 1
vt 1 0
vt 1 1
vn 0 0 -1
vn 0 0 -1
vn 0 0 -1
vn 0 0 -1
f 528/528/528 526/526/526 525/525/525 527/527/527
o object_133
v -276.45334 -108.41307 0
v -276.45334 -113.91307 0
v -261.45334 -108.41307 0
v -261.45334 -113.91307 0
vt 0 0
vt 0 1
vt 1 0
vt 1 1
vn 0 0 -1
vn 0 0 -1
vn 0 0 -1
vn 0 0 -1
f 532/532/532 530/530/530 529/529/529 531/531/531
o object_134
v -276.45334 -96.526649 0
v -276.45334 -102.02665 0
v -261.45334 -96.526649 0
v -261.45334 -102.02665 0
vt 0 0
vt 0 1
vt 1 0
vt 1 1
vn 0 0 -1
vn 0 0 -1
vn 0 0 -1
vn 0 0 -1
f 536/536/536 534/534/534 533/533/533 535/535/535
o object_135
v -276.45334 -88.851723 0
v -276.45334 -94.351723 0
v -261.45334 -88.851723 0
v -261.45334 -94.351723 0
vt 0 0
vt 0 1
vt 1 0
vt 1 1
vn 0 0 -1
vn 0 0 -1
vn 0 0 -1
vn 0 0 -1
f 540/540/540 538/538/538 537/537/537 539/539/539
o object_136
v -276.45334 -76.965309 0
v -276.45334 -82.465309 0
v -261.45334 -76.965309 0
v -261.45334 -82.465309 0
vt 0 0
vt 0 1
vt 1 0
vt 1 1
vn 0 0 -1
vn 0 0 -1
vn 0 0 -1
vn 0 0 -1
f 544/544/544 542/542/542 541/541/541 543/543/543
o object_137
v -295.12311 -76.965309 0
v -295.12311 -82.465309 0
v -280.12311 -76.965309 0
v -280.12311 -82.465309 0
vt 0 0
vt 0 1
vt 1 0
vt 1 1
vn 0 0 -1
vn 0 0 -1
vn 0 0 -1
vn 0 0 -1
f 548/548/548 546/546/546 545/545/545 547/547/547
o object_138
v -295.12311 -88.851723 0
v -295.12311 -94.351723 0
v -280.12311 -88.851723 0
v -280.12311 -94.351723 0
vt 0 0
vt 0 1
vt 1 0
vt 1 1
vn 0 0 -1
vn 0 0 -1
vn 0 0 -1
vn 0 0 -1
f 552/552/552 550/550/550 549/549/549 551/551/551
o object_139
v -295.12311 -96.526649 0
v -295.12311 -102.02665 0
v -280.12311 -96.526649 0
v -280.12311 -102.02665 0
vt 0 0
vt 0 1
vt 1 0
vt 1 1
vn 0 0 -1
vn 0 0 -1
vn 0 0 -1
vn 0 0 -1
f 556/556/556 554/554/554 553/553/553 555/555/555
o object_140
v -295.12311 -108.41307 0
v -295.12311 -113.91307 0
v -280.12311 -108.41307 0
v -280.12311 -113.91307 0
vt 0 0
vt 0 1
vt 1 0
vt 1 1
vn 0 0 -1
vn 0 0 -1
vn 0 0 -1
vn 0 0 -1
f 560/560/560 558/558/558 557/557/557 559/559/559
o object_141
v -318.79285 -76.965309 0
v -318.79285 -82.465309 0
v -301.29285 -76.965309 0
v -301.29285 -82.465309 0
vt 0 0
vt 0 1
vt 1 0
vt 1 1
vn 0 0 -1
vn 0 0 -1
vn 0 0 -1
vn 0 0 -1
f 564/564/564 562/562/562 561/561/561 563/563/563
o object_142
v -311.29285 -88.851723 0
v -311.29285 -94.351723 0
v -298.79285 -88.851723 0
v -298.79285 -94.351723 0
vt 0 0
vt 0 1
vt 1 0
vt 1 1
vn 0 0 -1
vn 0 0 -1
vn 0 0 -1
vn 0 0 -1
f 568/568/568 566/566/566 565/565/565 567/567/567
o object_143
v -306.29285 -96.526649 0
v -306.29285 -102.02665 0
v -298.79285 -96.526649 0
v -298.79285 -102.02665 0
vt 0 0
vt 0 1
vt 1 0
vt 1 1
vn 0 0 -1
vn 0 0 -1
vn 0 0 -1
vn 0 0 -1
f 572/572/572 570/570/570 569/569/569 571/571/571
o object_144
v -292.62311 -116.088 0
v -292.62311 -121.588 0
v -280.12311 -116.088 0
v -280.12311 -121.588 0
vt 0 0
vt 0 1
vt 1 0
vt 1 1
vn 0 0 -1
vn 0 0 -1
vn 0 0 -1
vn 0 0 -1
f 576/576/576 574/574/574 573/573/573 575/575/575
o object_145
v -285.12311 -127.97442 0
v -285.12311 -133.47441 0
v -277.62311 -127.97442 0
v -277.62311 -133.47441 0
vt 0 0
vt 0 1
vt 1 0
vt 1 1
vn 0 0 -1
vn 0 0 -1
vn 0 0 -1
vn 0 0 -1
f 580/580/580 578/578/578 577/577/577 579/579/579
o object_146
v -280.12311 -135.64935 0
v -280.12311 -141.14935 0
v -277.62311 -135.64935 0
v -277.62311 -141.14935 0
vt 0 0
vt 0 1
vt 1 0
vt 1 1
vn 0 0 -1
vn 0 0 -1
vn 0 0 -1
vn 0 0 -1
f 584/584/584 582/582/582 581/581/581 583/583/583
o object_147
v -271.45334 -147.53577 0
v -271.45334 -153.03577 0
v -261.45334 -147.53577 0
v -261.45334 -153.03577 0
vt 0 0
vt 0 1
vt 1 0
vt 1 1
vn 0 0 -1
vn 0 0 -1
vn 0 0 -1
vn 0 0 -1
f 588/588/588 586/586/586 585/585/585 587/587/587
o object_148
v -268.95334 -155.21069 0
v -268.95334 -160.71069 0
v -261.45334 -155.21069 0
v -261.45334 -160.71069 0
vt 0 0
vt 0 1
vt 1 0
vt 1 1
vn 0 0 -1
vn 0 0 -1
vn 0 0 -1
vn 0 0 -1
f 592/592/592 590/590/590 589/589/589 591/591/591
o object_149
v -252.78362 -174.77203 0
v -252.78362 -180.27203 0
v -242.78362 -174.77203 0
v -242.78362 -180.27203 0
vt 0 0
vt 0 1
vt 1 0
vt 1 1
vn 0 0 -1
vn 0 0 -1
vn 0 0 -1
vn 0 0 -1
f 596/596/596 594/594/594 593/593/593 595/595/595
o object_150
v -250.28362 -186.65846 0
v -250.28362 -192.15846 0
v -242.78362 -186.65846 0
v -242.78362 -192.15846 0
vt 0 0
vt 0 1
vt 1 0
vt 1 1
vn 0 0 -1
vn 0 0 -1
vn 0 0 -1
vn 0 0 -1
f 600/600/600 598/598/598 597/597/597 599/599/599
o object_151
v -33.74667 -174.77203 0
v -33.74667 -180.27203 0
v -23.746672 -174.77203 0
v -23.746672 -180.27203 0
vt 0 0
vt 0 1
vt 1 0
vt 1 1
vn 0 0 -1
vn 0 0 -1
vn 0 0 -1
vn 0 0 -1
f 604/604/604 602/602/602 601/601/601 603/603/603
o object_152
v -33.74667 -167.09711 0
v -33.74667 -172.59711 0
v -26.246672 -167.09711 0
v -26.246672 -172.59711 0
vt 0 0
vt 0 1
vt 1 0
vt 1 1
vn 0 0 -1
vn 0 0 -1
vn 0 0 -1
vn 0 0 -1
f 608/608/608 606/606/606 605/605/605 607/607/607
o object_153
v -71.086159 -116.088 0
v -71.086159 -121.588 0
v -61.086163 -116.088 0
v -61.086163 -121.588 0
vt 0 0
vt 0 1
vt 1 0
vt 1 1
vn 0 0 -1
vn 0 0 -1
vn 0 0 -1
vn 0 0 -1
f 612/612/612 610/610/610 609/609/609 611/611/611
o object_154
v -71.086159 -108.41307 0
v -71.086159 -113.91307 0
v -63.586163 -108.41307 0
v -63.586163 -113.91307 0
vt 0 0
vt 0 1
vt 1 0
vt 1 1
vn 0 0 -1
vn 0 0 -1
vn 0 0 -1
vn 0 0 -1
f 616/616/616 614/614/614 613/613/613 615/615/615
o object_155
v 50.896049 251.21336 0
v 56.051079 265.83102 0
v 34.39225 257.03357 0
v 39.547279 271.65121 0
vt 0 0
vt 0 1
vt 1 0
vt 1 1
vn 0 0 -1
vn 0 0 -1
vn 0 0 -1
vn 0 0 -1
f 620/620/620 618/618/618 617/617/617 619/619/619
o object_156
v 70.502602 244.29897 0
v 75.657631 258.91663 0
v 53.998802 250.11916 0
v 59.153831 264.73682 0
vt 0 0
vt 0 1
vt 1 0
vt 1 1
vn 0 0 -1
vn 0 0 -1
vn 0 0 -1
vn 0 0 -1
f 624/624/624 622/622/622 621/621/621 623/623/623
o object_157
v 90.109146 237.38455 0
v 92.686661 244.69339 0
v 95.264175 252.00221 0
v 73.605354 243.20476 0
v 76.182861 250.51358 0
v 78.760376 257.82239 0
vt 0 0
vt 0 0.5
vt 0 1
vt 1 0
vt 1 0.5
vt 1 1
vn 0 0 -1
vn 0 0 -1
vn 0 0 -1
vn 0 0 -1
vn 0 0 -1
vn 0 0 -1
f 629/629/629 626/626/626 625/625/625 628/628/628
f 630/630/630 627/627/627 626/626/626 629/629/629
o object_158
v 109.7157 230.47015 0
v 114.87073 245.0878 0
v 93.211899 236.29034 0
v 98.366928 250.908 0
vt 0 0
vt 0 1
vt 1 0
vt 1 1
vn 0 0 -1
vn 0 0 -1
vn 0 0 -1
vn 0 0 -1
f 634/634/634 632/632/632 631/631/631 633/633/633
o object_159
v 129.32225 223.55576 0
v 131.89977 230.86458 0
v 134.47728 238.1734 0
v 121.07035 226.46585 0
v 123.64787 233.77467 0
v 126.22538 241.0835 0
v 112.81845 229.37595 0
v 115.39597 236.68477 0
v 117.97348 243.99359 0
vt 0 0
vt 0 0.5
vt 0 1
vt 0.5 0
vt 0.5 0.5
vt 0.5 1
vt 1 0
vt 1 0.5
vt 1 1
vn 0 0 -1
vn 0 0 -1
vn 0 0 -1
vn 0 0 -1
vn 0 0 -1
vn 0 0 -1
vn 0 0 -1
vn 0 0 -1
vn 0 0 -1
f 639/639/639 636/636/636 635/635/635 638/638/638
f 640/640/640 637/637/637 636/636/636 639/639/639
f 642/642/642 639/639/639 638/638/638 641/641/641
f 643/643/643 640/640/640 639/639/639 642/642/642
o object_160
v 148.9288 216.64134 0
v 154.08383 231.259 0
v 132.425 222.46155 0
v 137.58003 237.07919 0
vt 0 0
vt 0 1
vt 1 0
vt 1 1
vn 0 0 -1
vn 0 0 -1
vn 0 0 -1
vn 0 0 -1
f 647/647/647 645/645/645 644/644/644 646/646/646
o object_161
v 168.53534 209.72694 0
v 173.69037 224.34459 0
v 152.03156 215.54713 0
v 157.18658 230.16478 0
vt 0 0
vt 0 1
vt 1 0
vt 1 1
vn 0 0 -1
vn 0 0 -1
vn 0 0 -1
vn 0 0 -1
f 651/651/651 649/649/649 648/648/648 650/650/650
o object_162
v 188.14189 202.81255 0
v 193.29692 217.43019 0
v 171.63809 208.63274 0
v 176.79312 223.25038 0
vt 0 0
vt 0 1
vt 1 0
vt 1 1
vn 0 0 -1
vn 0 0 -1
vn 0 0 -1
vn 0 0 -1
f 655/655/655 653/653/653 652/652/652 654/654/654
o object_163
v 207.74844 195.89813 0
v 210.32596 203.20695 0
v 212.90347 210.51578 0
v 191.24464 201.71832 0
v 193.82216 209.02716 0
v 196.39967 216.33598 0
vt 0 0
vt 0 0.5
vt 0 1
vt 1 0
vt 1 0.5
vt 1 1
vn 0 0 -1
vn 0 0 -1
vn 0 0 -1
vn 0 0 -1
vn 0 0 -1
vn 0 0 -1
f 660/660/660 657/657/657 656/656/656 659/659/659
f 661/661/661 658/658/658 657/657/657 660/660/660
o object_164
v 227.355 188.98373 0
v 229.93251 196.29256 0
v 232.51003 203.60138 0
v 210.8512 194.80392 0
v 213.42871 202.11275 0
v 216.00623 209.42157 0
vt 0 0
vt 0 0.5
vt 0 1
vt 1 0
vt 1 0.5
vt 1 1
vn 0 0 -1
vn 0 0 -1
vn 0 0 -1
vn 0 0 -1
vn 0 0 -1
vn 0 0 -1
f 666/666/666 663/663/663 662/662/662 665/665/665
f 667/667/667 664/664/664 663/663/663 666/666/666
o object_165
v 134.52399 185.13882 0
v 137.1015 192.44765 0
v 139.67902 199.75647 0
v 126.27209 188.04892 0
v 128.84961 195.35774 0
v 131.42712 202.66656 0
v 118.0202 190.95901 0
v 120.59771 198.26784 0
v 123.17522 205.57668 0
vt 0 0
vt 0 0.5
vt 0 1
vt 0.5 0
vt 0.5 0.5
vt 0.5 1
vt 1 0
vt 1 0.5
vt 1 1
vn 0 0 -1
vn 0 0 -1
vn 0 0 -1
vn 0 0 -1
vn 0 0 -1
vn 0 0 -1
vn 0 0 -1
vn 0 0 -1
vn 0 0 -1
f 672/672/672 669/669/669 668/668/668 671/671/671
f 673/673/673 670/670/670 669/669/669 672/672/672
f 675/675/675 672/672/672 671/671/671 674/674/674
f 676/676/676 673/673/673 672/672/672 675/675/675
o object_166
v 114.91744 192.05322 0
v 120.07247 206.67088 0
v 106.66554 194.96333 0
v 111.82057 209.58098 0
v 98.413643 197.87343 0
v 103.56867 212.49107 0
vt 0 0
vt 0 1
vt 0.5 0
vt 0.5 1
vt 1 0
vt 1 1
vn 0 0 -1
vn 0 0 -1
vn 0 0 -1
vn 0 0 -1
vn 0 0 -1
vn 0 0 -1
f 680/680/680 678/678/678 677/677/677 679/679/679
f 682/682/682 680/680/680 679/679/679 681/681/681
o object_167
v 75.704346 205.88203 0
v 80.859375 220.49968 0
v 59.200546 211.70222 0
v 64.355576 226.31989 0
vt 0 0
vt 0 1
vt 1 0
vt 1 1
vn 0 0 -1
vn 0 0 -1
vn 0 0 -1
vn 0 0 -1
f 686/686/686 684/684/684 683/683/683 685/685/685
o object_168
v 56.097794 212.79645 0
v 61.252823 227.41409 0
v 39.593998 218.61664 0
v 44.749027 233.23428 0
vt 0 0
vt 0 1
vt 1 0
vt 1 1
vn 0 0 -1
vn 0 0 -1
vn 0 0 -1
vn 0 0 -1
f 690/690/690 688/688/688 687/687/687 689/689/689
o object_169
v 36.491245 219.71085 0
v 41.646275 234.32849 0
v 28.239346 222.62094 0
v 33.394375 237.23859 0
v 19.987448 225.53104 0
v 25.142477 240.14868 0
vt 0 0
vt 0 1
vt 0.5 0
vt 0.5 1
vt 1 0
vt 1 1
vn 0 0 -1
vn 0 0 -1
vn 0 0 -1
vn 0 0 -1
vn 0 0 -1
vn 0 0 -1
f 694/694/694 692/692/692 691/691/691 693/693/693
f 696/696/696 694/694/694 693/693/693 695/695/695
o object_170
v 31.003633 204.15012 0
v 33.58115 211.45894 0
v 36.158661 218.76778 0
v 14.499836 209.97032 0
v 17.077351 217.27914 0
v 19.654865 224.58797 0
vt 0 0
vt 0 0.5
vt 0 1
vt 1 0
vt 1 0.5
vt 1 1
vn 0 0 -1
vn 0 0 -1
vn 0 0 -1
vn 0 0 -1
vn 0 0 -1
vn 0 0 -1
f 701/701/701 698/698/698 697/697/697 700/700/700
f 702/702/702 699/699/699 698/698/698 701/701/701
o object_171
v 50.610184 197.23572 0
v 55.765213 211.85336 0
v 34.106384 203.05591 0
v 39.261414 217.67355 0
vt 0 0
vt 0 1
vt 1 0
vt 1 1
vn 0 0 -1
vn 0 0 -1
vn 0 0 -1
vn 0 0 -1
f 706/706/706 704/704/704 703/703/703 705/705/705
o object_172
v 70.216736 190.32132 0
v 75.371765 204.93896 0
v 61.964832 193.23141 0
v 67.119865 207.84906 0
v 53.712936 196.14151 0
v 58.867962 210.75916 0
vt 0 0
vt 0 1
vt 0.5 0
vt 0.5 1
vt 1 0
vt 1 1
vn 0 0 -1
vn 0 0 -1
vn 0 0 -1
vn 0 0 -1
vn 0 0 -1
vn 0 0 -1
f 710/710/710 708/708/708 707/707/707 709/709/709
f 712/712/712 710/710/710 709/709/709 711/711/711
o object_173
v 89.82328 183.40691 0
v 92.400795 190.71573 0
v 94.97831 198.02455 0
v 81.571381 186.317 0
v 84.148895 193.62582 0
v 86.72641 200.93466 0
v 73.319481 189.2271 0
v 75.896996 196.53593 0
v 78.47451 203.84476 0
vt 0 0
vt 0 0.5
vt 0 1
vt 0.5 0
vt 0.5 0.5
vt 0.5 1
vt 1 0
vt 1 0.5
vt 1 1
vn 0 0 -1
vn 0 0 -1
vn 0 0 -1
vn 0 0 -1
vn 0 0 -1
vn 0 0 -1
vn 0 0 -1
vn 0 0 -1
vn 0 0 -1
f 717/717/717 714/714/714 713/713/713 716/716/716
f 718/718/718 715/715/715 714/714/714 717/717/717
f 720/720/720 717/717/717 716/716/716 719/719/719
f 721/721/721 718/718/718 717/717/717 720/720/720
o object_174
v 95.31089 198.96764 0
v 97.888405 206.27646 0
v 100.46592 213.58528 0
v 87.058998 201.87773 0
v 89.636505 209.18655 0
v 92.21402 216.49538 0
v 78.807098 204.78783 0
v 81.384613 212.09665 0
v 83.962128 219.40547 0
vt 0 0
vt 0 0.5
vt 0 1
vt 0.5 0
vt 0.5 0.5
vt 0.5 1
vt 1 0
vt 1 0.5
vt 1 1
vn 0 0 -1
vn 0 0 -1
vn 0 0 -1
vn 0 0 -1
vn 0 0 -1
vn 0 0 -1
vn 0 0 -1
vn 0 0 -1
vn 0 0 -1
f 726/726/726 723/723/723 722/722/722 725/725/725
f 727/727/727 724/724/724 723/723/723 726/726/726
f 729/729/729 726/726/726 725/725/725 728/728/728
f 730/730/730 727/727/727 726/726/726 729/729/729
o object_175
v -239.11386 -186.65846 0
v -239.11386 -192.15846 0
v -224.11386 -186.65846 0
v -224.11386 -192.15846 0
vt 0 0
vt 0 1
vt 1 0
vt 1 1
vn 0 0 -1
vn 0 0 -1
vn 0 0 -1
vn 0 0 -1
f 734/734/734 732/732/732 731/731/731 733/733/733
