# Rhino

o object_1
v 276.23886 142.81966 12.064651
v 276.23886 142.81966 12.173645
v -329.89969 142.81966 12.064651
v -329.89969 142.81966 12.173645
v -329.89969 142.81966 12.064651
v -329.89969 142.81966 12.173645
v -329.89969 -37.38311 12.064651
v -329.89969 -37.38311 12.173645
v -329.89969 -37.38311 12.064651
v -329.89969 -37.38311 12.173645
v 276.23886 -37.38311 12.064651
v 276.23886 -37.38311 12.173645
v 276.23886 -37.38311 12.064651
v 276.23886 -37.38311 12.173645
v 276.23886 142.81966 12.064651
v 276.23886 142.81966 12.173645
v 276.23886 142.81966 12.064651
v -329.89969 142.81966 12.064651
v -329.89969 -37.38311 12.064651
v 276.23886 -37.38311 12.064651
v 276.23886 142.81966 12.173645
v -329.89969 142.81966 12.173645
v -329.89969 -37.38311 12.173645
v 276.23886 -37.38311 12.173645
vt 0 0
vt 0 0.50015092
vt 0.1912453 0
vt 0.1912453 0.50015092
vt 0.1912453 0
vt 0.1912453 0.50015092
vt 0.34202978 0
vt 0.34202978 0.50015092
vt 0.34202978 0
vt 0.34202978 0.50015092
vt 0.84921551 0
vt 0.84921551 0.50015092
vt 0.84921551 0
vt 0.84921551 0.50015092
vt 1 0
vt 1 0.50015092
vt 0.38541695 0.5001514
vt 0 0.5001514
vt 0 1
vt 0.38541695 1
vt 1 1
vt 0.61458308 1
vt 0.61458308 0.5001514
vt 1 0.5001514
vn -4.8009781e-17 1 0
vn -4.8009781e-17 1 0
vn -4.8009781e-17 1 0
vn -4.8009781e-17 1 0
vn -1 0 0
vn -1 0 0
vn -1 0 0
vn -1 0 0
vn 0 -1 0
vn 0 -1 0
vn 0 -1 0
vn 0 -1 0
vn 1 0 0
vn 1 0 0
vn 1 0 0
vn 1 0 0
vn 0 0 -1
vn 0 0 -1
vn 0 0 -1
vn 0 0 -1
vn 0 0 1
vn 0 0 1
vn 0 0 1
vn 0 0 1
f 1/1/1 3/3/3 4/4/4 2/2/2
f 5/5/5 7/7/7 8/8/8 6/6/6
f 9/9/9 11/11/11 12/12/12 10/10/10
f 13/13/13 15/15/15 16/16/16 14/14/14
f 20/20/20 19/19/19 18/18/18
f 18/18/18 17/17/17 20/20/20
f 24/24/24 22/22/22 23/23/23
f 22/22/22 24/24/24 21/21/21
