# Rhino

o object_1
v 157 -172 0
v 157 -172 0.1
v 220.68321 -172 0
v 220.68321 -172 0.1
v 220.68321 -172 0
v 220.68321 -172 0.1
v 220.68321 -154 0
v 220.68321 -154 0.1
v 220.68321 -154 0
v 220.68321 -154 0.1
v 157 -154 0
v 157 -154 0.1
v 157 -154 0
v 157 -154 0.1
v 157 -172 0
v 157 -172 0.1
v 157 -172 0
v 220.68321 -172 0
v 220.68321 -154 0
v 157 -154 0
v 157 -172 0.1
v 220.68321 -172 0.1
v 220.68321 -154 0.1
v 157 -154 0.1
vt 0 0
vt 0 0.50138479
vt 0.38981825 0
vt 0.38981825 0.50138479
vt 0.38981825 0
vt 0.38981825 0.50138479
vt 0.5 0
vt 0.5 0.50138479
vt 0.5 0
vt 0.5 0.50138479
vt 0.88981825 0
vt 0.88981825 0.50138479
vt 0.88981825 0
vt 0.88981825 0.50138479
vt 1 0
vt 1 0.50138479
vt 0 1
vt 0.38981825 1
vt 0.38981825 0.50138527
vt 0 0.50138527
vt 0.61018175 0.50138527
vt 1 0.50138527
vt 1 1
vt 0.61018175 1
vn 0 -1 0
vn 0 -1 0
vn 0 -1 0
vn 0 -1 0
vn 1 0 0
vn 1 0 0
vn 1 0 0
vn 1 0 0
vn 0 1 0
vn 0 1 0
vn 0 1 0
vn 0 1 0
vn -1 0 0
vn -1 0 0
vn -1 0 0
vn -1 0 0
vn 0 0 -1
vn 0 0 -1
vn 0 0 -1
vn 0 0 -1
vn 0 0 1
vn 0 0 1
vn 0 0 1
vn 0 0 1
f 1/1/1 3/3/3 4/4/4 2/2/2
f 5/5/5 7/7/7 8/8/8 6/6/6
f 9/9/9 11/11/11 12/12/12 10/10/10
f 13/13/13 15/15/15 16/16/16 14/14/14
f 18/18/18 17/17/17 20/20/20
f 20/20/20 19/19/19 18/18/18
f 22/22/22 24/24/24 21/21/21
f 24/24/24 22/22/22 23/23/23
