# Rhino

o object_1
v 175.40791 -126.95507 12
v 175.40791 -126.95507 12.199875
v 202.40218 -126.95507 12
v 202.40218 -126.95507 12.199875
v 202.40218 -106.96531 12
v 202.40218 -106.96531 12.199875
v 175.40791 -106.96531 12
v 175.40791 -106.96531 12.199875
v 175.40791 -126.95507 12
v 175.40791 -106.96531 12
v 202.40218 -126.95507 12
v 202.40218 -106.96531 12
v 175.40791 -126.95507 12.199875
v 175.40791 -106.96531 12.199875
v 202.40218 -126.95507 12.199875
v 202.40218 -106.96531 12.199875
v 153.42751 -106.96531 14.99812
v 153.42751 -106.96531 15.197995
v 148.85724 -96.970428 14.99812
v 148.85724 -96.970428 15.197995
v 148.85724 -96.970428 14.99812
v 148.85724 -96.970428 15.197995
v 119.18365 -96.970428 14.99812
v 119.18365 -96.970428 15.197995
v 119.18365 -96.970428 14.99812
v 119.18365 -96.970428 15.197995
v 132.89438 -126.95507 14.99812
v 132.89438 -126.95507 15.197995
v 119.18365 -96.970428 14.99812
v 153.42751 -106.96531 14.99812
v 148.85724 -96.970428 14.99812
v 132.89438 -126.95507 14.99812
v 119.18365 -96.970428 15.197995
v 153.42751 -106.96531 15.197995
v 148.85724 -96.970428 15.197995
v 132.89438 -126.95507 15.197995
v 175.40791 -126.95507 12
v 132.89438 -126.95507 14.99812
v 153.42751 -106.96531 14.99812
v 175.40791 -126.95507 12.199875
v 132.89438 -126.95507 15.197995
v 153.42751 -106.96531 15.197995
v 132.89438 -126.95507 14.99812
v 132.89438 -126.95507 15.197995
v 175.40791 -126.95507 12
v 175.40791 -126.95507 12.199875
v 175.40791 -106.96531 12
v 175.40791 -126.95507 12
v 153.42751 -106.96531 14.99812
v 175.40791 -106.96531 12.199875
v 175.40791 -126.95507 12.199875
v 153.42751 -106.96531 15.197995
v 153.42751 -106.96531 14.99812
v 153.42751 -106.96531 15.197995
v 175.40791 -106.96531 12
v 175.40791 -106.96531 12.199875
v 202.40218 -106.96531 12
v 202.40218 -126.95507 12
v 224.38258 -106.96531 14.99812
v 202.40218 -106.96531 12.199875
v 202.40218 -126.95507 12.199875
v 224.38258 -106.96531 15.197995
v 224.38258 -106.96531 14.99812
v 224.38258 -106.96531 15.197995
v 202.40218 -106.96531 12
v 202.40218 -106.96531 12.199875
v 202.40218 -126.95507 12
v 244.91571 -126.95507 14.99812
v 224.38258 -106.96531 14.99812
v 202.40218 -126.95507 12.199875
v 244.91571 -126.95507 15.197995
v 224.38258 -106.96531 15.197995
v 244.91571 -126.95507 14.99812
v 244.91571 -126.95507 15.197995
v 202.40218 -126.95507 12
v 202.40218 -126.95507 12.199875
v 244.91571 -126.95507 14.99812
v 244.91571 -126.95507 15.197995
v 258.62643 -96.970428 14.99812
v 258.62643 -96.970428 15.197995
v 258.62643 -96.970428 14.99812
v 258.62643 -96.970428 15.197995
v 228.95285 -96.970428 14.99812
v 228.95285 -96.970428 15.197995
v 228.95285 -96.970428 14.99812
v 228.95285 -96.970428 15.197995
v 224.38258 -106.96531 14.99812
v 224.38258 -106.96531 15.197995
v 258.62643 -96.970428 14.99812
v 224.38258 -106.96531 14.99812
v 244.91571 -126.95507 14.99812
v 228.95285 -96.970428 14.99812
v 258.62643 -96.970428 15.197995
v 224.38258 -106.96531 15.197995
v 244.91571 -126.95507 15.197995
v 228.95285 -96.970428 15.197995
vt 0.0098814359 0
vt 0.0082345298 0
vt 0.0098814359 0.22242442
vt 0.0082345298 0.22242442
vt 0.0082345298 0
vt 0.0065876236 0
vt 0.0082345298 0.22242442
vt 0.0065876236 0.22242442
vt 0.96611077 0
vt 0.80140126 0
vt 0.96611077 0.22095957
vt 0.80140126 0.22095957
vt 0.79052657 0
vt 0.62581706 0
vt 0.79052657 0.22095957
vt 0.62581706 0.22095957
vt 0.0032938118 0
vt 0.0016469059 0
vt 0.0032938118 0.090555973
vt 0.0016469059 0.090555973
vt 0.011528341 0
vt 0.0098814359 0
vt 0.011528341 0.2445012
vt 0.0098814359 0.2445012
vt 0.0016469059 0.4840216
vt 0 0.4840216
vt 0.0016469059 0.75568944
vt 0 0.75568944
vt 0.4415634 0.28215873
vt 0.35969698 0
vt 0.4415634 0.037657533
vt 0.19596405 0.16918665
vt 0.95707107 0.99853516
vt 0.87471634 0.71784127
vt 0.95707107 0.75530332
vt 0.71000683 0.88614959
vt 0.62581706 0.22242442
vt 0.97552061 0.22242442
vt 0.80745709 0.38609853
vt 0.17210783 0.4840216
vt 0.17210783 0.83519
vt 0.0069688819 0.66642249
vt 0.0051313466 0.4840216
vt 0.003484441 0.4840216
vt 0.0051313466 0.83519
vt 0.003484441 0.83519
vt 0.44302824 0.27635115
vt 0.44302824 0.44106066
vt 0.62435222 0.27635115
vt 0.44302824 0
vt 0.44302824 0.16470951
vt 0.62435222 0
vt 0.0065876236 0
vt 0.0049407179 0
vt 0.0065876236 0.1827888
vt 0.0049407179 0.1827888
vt 0.013175247 0.2420108
vt 0.013175247 0.40672031
vt 0.19449921 0.2420108
vt 0.013175247 0
vt 0.013175247 0.16470951
vt 0.19449921 0
vt 0.0049407179 0
vt 0.0032938118 0
vt 0.0049407179 0.1827888
vt 0.0032938118 0.1827888
vt 0.44302824 0.55270231
vt 0.79419667 0.55270231
vt 0.62542915 0.71637642
vt 0.62581706 0.38756338
vt 0.97552061 0.38756338
vt 0.80745709 0.55123746
vt 0.0068735671 0.4840216
vt 0.0052266615 0.4840216
vt 0.0068735671 0.83519
vt 0.0052266615 0.83519
vt 0.0033891264 0.4840216
vt 0.0017422205 0.4840216
vt 0.0033891264 0.75568944
vt 0.0017422205 0.75568944
vt 0.013175247 0
vt 0.011528341 0
vt 0.013175247 0.2445012
vt 0.011528341 0.2445012
vt 0.0016469059 0
vt 0 0
vt 0.0016469059 0.090555973
vt 0 0.090555973
vt 0.69009244 0.71784127
vt 0.60773772 0.99853516
vt 0.44302824 0.83022684
vt 0.69009244 0.9610731
vt 0.42872941 0.4840216
vt 0.34637475 0.76618034
vt 0.18166523 0.59699368
vt 0.42872941 0.72852278
vn 0 -1 0
vn 0 -1 0
vn 0 -1 0
vn 0 -1 0
vn 0 1 0
vn 0 1 0
vn 0 1 0
vn 0 1 0
vn 0 0 -1
vn 0 0 -1
vn 0 0 -1
vn 0 0 -1
vn 0 0 1
vn 0 0 1
vn 0 0 1
vn 0 0 1
vn 0.90943408 0.41584814 0
vn 0.90943408 0.41584814 0
vn 0.90943408 0.41584814 0
vn 0.90943408 0.41584814 0
vn 0 1 0
vn 0 1 0
vn 0 1 0
vn 0 1 0
vn -0.90943485 -0.41584638 0
vn -0.90943485 -0.41584638 0
vn -0.90943485 -0.41584638 0
vn -0.90943485 -0.41584638 0
vn -2.7122045e-17 0 -1
vn 0 0 -1
vn -2.7122045e-17 0 -1
vn 0 0 -1
vn 6.7805112e-18 0 1
vn -2.7122045e-17 0 1
vn 6.7805112e-18 0 1
vn 0 0 1
vn -0.070163906 0.072071098 -0.99492854
vn -0.070163906 0.072071098 -0.99492854
vn -0.070163906 0.072071098 -0.99492854
vn 0.070163906 -0.072071098 0.99492854
vn 0.070163906 -0.072071098 0.99492854
vn 0.070163906 -0.072071098 0.99492854
vn 0 -1 0
vn 0 -1 0
vn 0 -1 0
vn 0 -1 0
vn -0.13514826 0 -0.99082541
vn -0.13514826 0 -0.99082541
vn -0.13514826 0 -0.99082541
vn 0.13514826 0 0.99082541
vn 0.13514826 0 0.99082541
vn 0.13514826 0 0.99082541
vn 0 1 0
vn 0 1 0
vn 0 1 0
vn 0 1 0
vn 0.13514826 0 -0.99082541
vn 0.13514826 0 -0.99082541
vn 0.13514826 0 -0.99082541
vn -0.13514826 0 0.99082541
vn -0.13514826 0 0.99082541
vn -0.13514826 0 0.99082541
vn 0 1 0
vn 0 1 0
vn 0 1 0
vn 0 1 0
vn 0.070163906 0.072071098 -0.99492854
vn 0.070163906 0.072071098 -0.99492854
vn 0.070163906 0.072071098 -0.99492854
vn -0.070163906 -0.072071098 0.99492854
vn -0.070163906 -0.072071098 0.99492854
vn -0.070163906 -0.072071098 0.99492854
vn 0 -1 0
vn 0 -1 0
vn 0 -1 0
vn 0 -1 0
vn 0.90943485 -0.41584638 0
vn 0.90943485 -0.41584638 0
vn 0.90943485 -0.41584638 0
vn 0.90943485 -0.41584638 0
vn 0 1 0
vn 0 1 0
vn 0 1 0
vn 0 1 0
vn -0.90943408 0.41584814 0
vn -0.90943408 0.41584814 0
vn -0.90943408 0.41584814 0
vn -0.90943408 0.41584814 0
vn -2.7122045e-17 0 -1
vn 0 0 -1
vn 0 0 -1
vn -2.7122045e-17 0 -1
vn 6.7805112e-18 0 1
vn -2.7122045e-17 0 1
vn 0 0 1
vn 6.7805112e-18 0 1
f 2/2/2 1/1/1 3/3/3 4/4/4
f 6/6/6 5/5/5 7/7/7 8/8/8
f 10/10/10 12/12/12 11/11/11 9/9/9
f 14/14/14 13/13/13 15/15/15 16/16/16
f 18/18/18 17/17/17 19/19/19 20/20/20
f 22/22/22 21/21/21 23/23/23 24/24/24
f 26/26/26 25/25/25 27/27/27 28/28/28
f 29/29/29 31/31/31 30/30/30
f 30/30/30 32/32/32 29/29/29
f 33/33/33 34/34/34 35/35/35
f 34/34/34 33/33/33 36/36/36
f 39/39/39 37/37/37 38/38/38
f 42/42/42 41/41/41 40/40/40
f 44/44/44 43/43/43 45/45/45 46/46/46
f 48/48/48 49/49/49 47/47/47
f 51/51/51 50/50/50 52/52/52
f 54/54/54 56/56/56 55/55/55 53/53/53
f 58/58/58 57/57/57 59/59/59
f 61/61/61 62/62/62 60/60/60
f 64/64/64 63/63/63 65/65/65 66/66/66
f 69/69/69 68/68/68 67/67/67
f 72/72/72 70/70/70 71/71/71
f 74/74/74 76/76/76 75/75/75 73/73/73
f 78/78/78 77/77/77 79/79/79 80/80/80
f 82/82/82 81/81/81 83/83/83 84/84/84
f 86/86/86 85/85/85 87/87/87 88/88/88
f 90/90/90 89/89/89 91/91/91
f 89/89/89 90/90/90 92/92/92
f 94/94/94 95/95/95 93/93/93
f 93/93/93 96/96/96 94/94/94
o object_2
v 74.24382 -166.9346 12.999365
v 166.2674 -146.94485 9.0018702
v 98.074013 -146.94485 12.999365
v 74.24382 -166.9346 13.19924
v 166.2674 -146.94485 9.201745
v 98.074013 -146.94485 13.19924
v 98.074013 -146.94485 12.999365
v 98.074013 -146.94485 13.19924
v 166.2674 -146.94485 9.0018702
v 166.2674 -146.94485 9.201745
v 166.2674 -146.94485 9.0018816
v 74.24382 -166.9346 12.999365
v 166.2674 -146.94485 9.0018702
v 157.12688 -166.93463 9.0018816
v 157.12688 -166.93463 9.0018816
v 166.2674 -146.94485 9.0018702
v 166.2674 -146.94485 9.0018816
v 74.24382 -166.9346 13.19924
v 166.2674 -146.94485 9.201745
v 157.12688 -166.93463 9.2017555
v 74.24382 -166.9346 12.999365
v 74.24382 -166.9346 13.19924
v 157.12688 -166.93463 9.0018816
v 157.12688 -166.93463 9.2017555
v 175.40791 -126.95507 9.0018816
v 175.40791 -126.95507 9.2017555
v 157.12688 -166.93463 9.2017555
v 166.2674 -146.94485 9.201745
v 166.2674 -146.94485 9.0018816
v 157.12688 -166.93463 9.0018816
v 157.12688 -166.93463 9.2017555
v 167.1218 -166.93463 9.0018816
v 167.1218 -166.93463 9.2017555
v 167.1218 -166.93463 9.0018816
v 167.1218 -166.93463 9.2017555
v 181.77916 -134.80714 9.0018816
v 181.77916 -134.80714 9.2017555
v 181.77916 -134.80714 9.0018816
v 181.77916 -134.80714 9.2017555
v 188.90504 -134.80714 9.0018816
v 188.90504 -134.80714 9.2017555
v 188.90504 -126.95738 9.0018816
v 188.90504 -126.95738 9.2017555
v 175.40791 -126.95507 9.0018816
v 175.40791 -126.95507 9.2017555
v 175.40791 -126.95507 9.0018816
v 166.2674 -146.94485 9.0018816
v 157.12688 -166.93463 9.0018816
v 167.1218 -166.93463 9.0018816
v 181.77916 -134.80714 9.0018816
v 188.90504 -134.80714 9.0018816
v 188.90504 -126.95738 9.0018816
v 175.40791 -126.95507 9.2017555
v 157.12688 -166.93463 9.2017555
v 167.1218 -166.93463 9.2017555
v 181.77916 -134.80714 9.2017555
v 188.90504 -134.80714 9.2017555
v 188.90504 -126.95738 9.2017555
v 202.40218 -126.95507 9.0018816
v 202.40218 -126.95507 9.2017555
v 220.68321 -166.93463 9.2017555
v 211.54269 -146.94485 9.0018816
v 211.54269 -146.94485 9.201745
v 220.68321 -166.93463 9.0018816
v 220.68321 -166.93463 9.2017555
v 210.68829 -166.93463 9.0018816
v 210.68829 -166.93463 9.2017555
v 210.68829 -166.93463 9.0018816
v 210.68829 -166.93463 9.2017555
v 196.03094 -134.80714 9.0018816
v 196.03094 -134.80714 9.2017555
v 196.03094 -134.80714 9.0018816
v 196.03094 -134.80714 9.2017555
v 188.90504 -134.80714 9.0018816
v 188.90504 -134.80714 9.2017555
v 188.90504 -126.95738 9.0018816
v 188.90504 -126.95738 9.2017555
v 202.40218 -126.95507 9.0018816
v 202.40218 -126.95507 9.2017555
v 188.90504 -134.80714 9.0018816
v 188.90504 -126.95738 9.0018816
v 202.40218 -126.95507 9.0018816
v 211.54269 -146.94485 9.0018816
v 220.68321 -166.93463 9.0018816
v 210.68829 -166.93463 9.0018816
v 196.03094 -134.80714 9.0018816
v 188.90504 -134.80714 9.2017555
v 188.90504 -126.95738 9.2017555
v 202.40218 -126.95507 9.2017555
v 220.68321 -166.93463 9.2017555
v 210.68829 -166.93463 9.2017555
v 196.03094 -134.80714 9.2017555
v 303.56625 -166.9346 12.999365
v 303.56625 -166.9346 13.19924
v 321.84726 -126.95507 12.999365
v 321.84726 -126.95507 13.19924
v 321.84726 -126.95507 12.999365
v 321.84726 -126.95507 13.19924
v 288.87659 -126.95507 12.999365
v 288.87659 -126.95507 13.19924
v 288.87659 -126.95507 12.999365
v 288.87659 -126.95507 13.19924
v 279.73608 -146.94485 12.999365
v 279.73608 -146.94485 13.19924
v 321.84726 -126.95507 12.999365
v 279.73608 -146.94485 12.999365
v 303.56625 -166.9346 12.999365
v 288.87659 -126.95507 12.999365
v 321.84726 -126.95507 13.19924
v 279.73608 -146.94485 13.19924
v 303.56625 -166.9346 13.19924
v 288.87659 -126.95507 13.19924
v 303.56625 -166.9346 12.999365
v 211.54269 -146.94485 9.0018702
v 220.68321 -166.93463 9.0018816
v 220.68321 -166.93463 9.0018816
v 211.54269 -146.94485 9.0018702
v 211.54269 -146.94485 9.0018816
v 303.56625 -166.9346 13.19924
v 211.54269 -146.94485 9.201745
v 220.68321 -166.93463 9.2017555
v 303.56625 -166.9346 12.999365
v 303.56625 -166.9346 13.19924
v 220.68321 -166.93463 9.0018816
v 220.68321 -166.93463 9.2017555
v 303.56625 -166.9346 12.999365
v 211.54269 -146.94485 9.0018702
v 279.73608 -146.94485 12.999365
v 303.56625 -166.9346 13.19924
v 211.54269 -146.94485 9.201745
v 279.73608 -146.94485 13.19924
v 279.73608 -146.94485 12.999365
v 279.73608 -146.94485 13.19924
v 211.54269 -146.94485 9.0018702
v 211.54269 -146.94485 9.201745
v 211.54269 -146.94485 9.0018816
v 98.074013 -146.94485 12.999365
v 98.074013 -146.94485 13.19924
v 88.933495 -126.95507 12.999365
v 88.933495 -126.95507 13.19924
v 88.933495 -126.95507 12.999365
v 88.933495 -126.95507 13.19924
v 55.962845 -126.95507 12.999365
v 55.962845 -126.95507 13.19924
v 55.962845 -126.95507 12.999365
v 55.962845 -126.95507 13.19924
v 74.24382 -166.9346 12.999365
v 74.24382 -166.9346 13.19924
v 55.962845 -126.95507 12.999365
v 74.24382 -166.9346 12.999365
v 98.074013 -146.94485 12.999365
v 88.933495 -126.95507 12.999365
v 55.962845 -126.95507 13.19924
v 74.24382 -166.9346 13.19924
v 98.074013 -146.94485 13.19924
v 88.933495 -126.95507 13.19924
vt 0.22305557 0
vt 0.22305557 0.4857243
vt 0.14968027 0.14174555
vt 0.14821543 0
vt 0.14821543 0.4857243
vt 0.074840136 0.14174555
vt 0.47943994 0.39981398
vt 0.47943994 0.40084401
vt 0.83146608 0.39981398
vt 0.83146608 0.40084401
vt 0.83146608 0.39981404
vt 0.31523341 0.47671416
vt 0.80095768 0.47671416
vt 0.73312104 0.56596231
vt 0.47943994 0.39363381
vt 0.5927124 0.39363381
vt 0.5927124 0.39363387
vt 0.31376857 0
vt 0.31376857 0.4857243
vt 0.22452042 0.41788763
vt 0.47943994 0.38951367
vt 0.47943994 0.3905437
vt 0.90675235 0.38951367
vt 0.90675235 0.3905437
vt 0.7403338 0.77345496
vt 0.73930377 0.77345496
vt 0.73930377 0.99853516
vt 0.73930383 0.88599509
vt 0.7403338 0.88599509
vt 0.47943994 0.39672393
vt 0.47943994 0.39775395
vt 0.53094703 0.39672393
vt 0.53094703 0.39775395
vt 0.47943994 0.38848367
vt 0.47943994 0.38951367
vt 0.66141981 0.38848367
vt 0.66141981 0.38951367
vt 0.47943994 0.39363387
vt 0.47943994 0.3946639
vt 0.51616198 0.39363387
vt 0.51616198 0.3946639
vt 0.47943994 0.39878398
vt 0.47943994 0.39981398
vt 0.54899508 0.39878398
vt 0.54899508 0.39981398
vt 0.40885386 0.38745379
vt 0.36204362 0.28443989
vt 0.31523341 0.18142599
vt 0.36641917 0.18142597
vt 0.44148213 0.34698945
vt 0.4779751 0.34698945
vt 0.4779751 0.3874419
vt 0.8378194 0.97948283
vt 0.74445385 0.77345502
vt 0.79550022 0.77345496
vt 0.87035877 0.93901849
vt 0.90675235 0.93901849
vt 0.90675235 0.97947091
vt 0.73930377 0.77345496
vt 0.73827374 0.77345496
vt 0.73827374 0.99853516
vt 0.73930377 0.88599509
vt 0.7382738 0.88599509
vt 0.47943994 0.3956939
vt 0.47943994 0.39672393
vt 0.53094703 0.3956939
vt 0.53094703 0.39672393
vt 0.47943994 0.38745365
vt 0.47943994 0.38848367
vt 0.66141981 0.38745365
vt 0.66141981 0.38848367
vt 0.47943994 0.3946639
vt 0.47943994 0.3956939
vt 0.51616198 0.3946639
vt 0.51616198 0.3956939
vt 0.47943994 0.39775395
vt 0.47943994 0.39878398
vt 0.54899508 0.39775395
vt 0.54899508 0.39878398
vt 0.883995 0.73181349
vt 0.883995 0.77197832
vt 0.81443983 0.77199012
vt 0.76733571 0.66970867
vt 0.72023165 0.56742716
vt 0.77173877 0.56742716
vt 0.84727293 0.73181349
vt 0.69600946 0.73181349
vt 0.69600946 0.77197832
vt 0.62645429 0.77199012
vt 0.53224605 0.56742716
vt 0.58375317 0.56742716
vt 0.65928739 0.73181349
vt 0.47943994 0.39157373
vt 0.47943994 0.39260375
vt 0.70598471 0.39157373
vt 0.70598471 0.39260375
vt 0.74342382 0.77345496
vt 0.74239379 0.77345496
vt 0.74342382 0.94336355
vt 0.74239379 0.94336355
vt 0.74239379 0.77345496
vt 0.74136382 0.77345496
vt 0.74239379 0.88672751
vt 0.74136382 0.88672751
vt 0.31523341 0.78371358
vt 0.53078121 0.88672751
vt 0.40880537 0.98974127
vt 0.48399508 0.78371358
vt 0.31523341 0.56742716
vt 0.53078121 0.67044109
vt 0.40880537 0.77345484
vt 0.48399508 0.56742716
vt 0.31523341 0.090712987
vt 0.80095768 0.090712987
vt 0.73312104 0.17996113
vt 0.47943994 0.39363375
vt 0.5927124 0.39363375
vt 0.5927124 0.39363381
vt 0.31523341 0
vt 0.80095768 0
vt 0.73312104 0.089248143
vt 0.47943994 0.3905437
vt 0.47943994 0.39157373
vt 0.90675235 0.3905437
vt 0.90675235 0.39157373
vt 0.073375292 0
vt 0.073375292 0.4857243
vt 0 0.14174555
vt 0.31523341 0.40187404
vt 0.80095768 0.40187404
vt 0.45697895 0.47524932
vt 0.47943994 0.40084401
vt 0.47943994 0.40187404
vt 0.83146608 0.40084401
vt 0.83146608 0.40187404
vt 0.83146608 0.40084407
vt 0.74136382 0.77345496
vt 0.7403338 0.77345496
vt 0.74136382 0.88672751
vt 0.7403338 0.88672751
vt 0.74445385 0.77345496
vt 0.74342382 0.77345496
vt 0.74445385 0.94336355
vt 0.74342382 0.94336355
vt 0.47943994 0.39260375
vt 0.47943994 0.39363375
vt 0.70598471 0.39260375
vt 0.70598471 0.39363375
vt 0.7368089 0.99046767
vt 0.53224605 0.89625978
vt 0.63452739 0.77345496
vt 0.7368089 0.82055908
vt 0.69645262 0.18142597
vt 0.60224473 0.3859888
vt 0.47943994 0.28370747
vt 0.52654403 0.18142597
vn -0.058377635 0.069593161 -0.99586588
vn -0.058377635 0.069593161 -0.99586588
vn -0.058377635 0.069593161 -0.99586588
vn 0.058377635 -0.069593161 0.99586588
vn 0.058377635 -0.069593161 0.99586588
vn 0.058377635 -0.069593161 0.99586588
vn 0 1 0
vn 0 1 0
vn 0 1 0
vn 0 1 0
vn 0 1 0
vn -0.048162721 0.022022335 -0.99859673
vn -0.048162721 0.022022335 -0.99859673
vn -0.048162721 0.022022335 -0.99859673
vn 0.90943432 -0.4158476 0
vn 0.90943432 -0.4158476 0
vn 0.90943432 -0.4158476 0
vn 0.048162721 -0.022022335 0.99859673
vn 0.048162721 -0.022022335 0.99859673
vn 0.048162721 -0.022022335 0.99859673
vn -3.3571422e-07 -1 0
vn -3.3571422e-07 -1 0
vn -3.3571422e-07 -1 0
vn -3.3571422e-07 -1 0
vn -0.90943432 0.4158476 0
vn -0.90943432 0.4158476 0
vn -0.90943432 0.4158476 0
vn -0.90943432 0.4158476 0
vn -0.90943432 0.4158476 0
vn -3.3571422e-07 -1 0
vn -3.3571422e-07 -1 0
vn -3.3571422e-07 -1 0
vn -3.3571422e-07 -1 0
vn 0.90978998 -0.41506886 0
vn 0.90978998 -0.41506886 0
vn 0.90978998 -0.41506886 0
vn 0.90978998 -0.41506886 0
vn 0 -1 0
vn 0 -1 0
vn 0 -1 0
vn 0 -1 0
vn 0.0001712192 1 0
vn 0.0001712192 1 0
vn 0.0001712192 1 0
vn 0.0001712192 1 0
vn 0 0 -1
vn 0 0 -1
vn -1.6951278e-18 0 -1
vn 5.0853832e-18 0 -1
vn 0 0 -1
vn 0 0 -1
vn 0 0 -1
vn 0 0 1
vn 6.7805112e-18 0 1
vn 0 0 1
vn 0 0 1
vn 0 0 1
vn 0 0 1
vn 0.90943432 0.4158476 0
vn 0.90943432 0.4158476 0
vn 0.90943432 0.4158476 0
vn 0.90943432 0.4158476 0
vn 0.90943432 0.4158476 0
vn 3.3571422e-07 -1 0
vn 3.3571422e-07 -1 0
vn 3.3571422e-07 -1 0
vn 3.3571422e-07 -1 0
vn -0.90978998 -0.41506886 0
vn -0.90978998 -0.41506886 0
vn -0.90978998 -0.41506886 0
vn -0.90978998 -0.41506886 0
vn 0 -1 0
vn 0 -1 0
vn 0 -1 0
vn 0 -1 0
vn -0.0001712192 1 0
vn -0.0001712192 1 0
vn -0.0001712192 1 0
vn -0.0001712192 1 0
vn 0 0 -1
vn 0 0 -1
vn 0 0 -1
vn 0 0 -1
vn 1.6951278e-18 0 -1
vn -5.0853832e-18 0 -1
vn 0 0 -1
vn 0 0 1
vn 0 0 1
vn 0 0 1
vn -6.7805112e-18 0 1
vn 0 0 1
vn 0 0 1
vn 0.90943474 -0.41584671 0
vn 0.90943474 -0.41584671 0
vn 0.90943474 -0.41584671 0
vn 0.90943474 -0.41584671 0
vn 0 1 0
vn 0 1 0
vn 0 1 0
vn 0 1 0
vn -0.90943432 0.4158476 0
vn -0.90943432 0.4158476 0
vn -0.90943432 0.4158476 0
vn -0.90943432 0.4158476 0
vn 1.3561022e-17 0 -1
vn 2.7122045e-17 0 -1
vn 0 0 -1
vn 1.3561022e-17 0 -1
vn -2.0341533e-17 0 1
vn 0 0 1
vn -2.7122045e-17 0 1
vn -2.0341533e-17 0 1
vn 0.048162721 0.022022335 -0.99859673
vn 0.048162721 0.022022335 -0.99859673
vn 0.048162721 0.022022335 -0.99859673
vn -0.90943432 -0.4158476 0
vn -0.90943432 -0.4158476 0
vn -0.90943432 -0.4158476 0
vn -0.048162721 -0.022022335 0.99859673
vn -0.048162721 -0.022022335 0.99859673
vn -0.048162721 -0.022022335 0.99859673
vn 3.3571422e-07 -1 0
vn 3.3571422e-07 -1 0
vn 3.3571422e-07 -1 0
vn 3.3571422e-07 -1 0
vn 0.058377635 0.069593161 -0.99586588
vn 0.058377635 0.069593161 -0.99586588
vn 0.058377635 0.069593161 -0.99586588
vn -0.058377635 -0.069593161 0.99586588
vn -0.058377635 -0.069593161 0.99586588
vn -0.058377635 -0.069593161 0.99586588
vn 0 1 0
vn 0 1 0
vn 0 1 0
vn 0 1 0
vn 0 1 0
vn 0.90943432 0.4158476 0
vn 0.90943432 0.4158476 0
vn 0.90943432 0.4158476 0
vn 0.90943432 0.4158476 0
vn 0 1 0
vn 0 1 0
vn 0 1 0
vn 0 1 0
vn -0.90943474 -0.41584671 0
vn -0.90943474 -0.41584671 0
vn -0.90943474 -0.41584671 0
vn -0.90943474 -0.41584671 0
vn 1.3561022e-17 0 -1
vn 0 0 -1
vn 2.7122045e-17 0 -1
vn 1.3561022e-17 0 -1
vn -2.0341533e-17 0 1
vn -2.7122045e-17 0 1
vn 0 0 1
vn -2.0341533e-17 0 1
f 99/99/99 98/98/98 97/97/97
f 102/102/102 100/100/100 101/101/101
f 104/104/104 106/106/106 107/107/107 103/103/103
f 103/103/103 107/107/107 105/105/105
f 110/110/110 108/108/108 109/109/109
f 113/113/113 111/111/111 112/112/112
f 116/116/116 115/115/115 114/114/114
f 118/118/118 117/117/117 119/119/119 120/120/120
f 122/122/122 121/121/121 125/125/125 124/124/124
f 122/122/122 124/124/124 123/123/123
f 127/127/127 126/126/126 128/128/128 129/129/129
f 131/131/131 130/130/130 132/132/132 133/133/133
f 135/135/135 134/134/134 136/136/136 137/137/137
f 139/139/139 138/138/138 140/140/140 141/141/141
f 143/143/143 145/145/145 144/144/144
f 146/146/146 145/145/145 143/143/143
f 148/148/148 147/147/147 146/146/146
f 146/146/146 142/142/142 148/148/148
f 143/143/143 142/142/142 146/146/146
f 149/149/149 150/150/150 151/151/151
f 152/152/152 149/149/149 151/151/151
f 154/154/154 152/152/152 153/153/153
f 149/149/149 152/152/152 154/154/154
f 156/156/156 159/159/159 158/158/158 155/155/155
f 156/156/156 157/157/157 159/159/159
f 161/161/161 163/163/163 162/162/162 160/160/160
f 165/165/165 167/167/167 166/166/166 164/164/164
f 169/169/169 171/171/171 170/170/170 168/168/168
f 173/173/173 175/175/175 174/174/174 172/172/172
f 179/179/179 180/180/180 181/181/181
f 182/182/182 179/179/179 181/181/181
f 177/177/177 182/182/182 176/176/176
f 182/182/182 177/177/177 178/178/178
f 179/179/179 182/182/182 178/178/178
f 185/185/185 187/187/187 186/186/186
f 188/188/188 187/187/187 185/185/185
f 184/184/184 183/183/183 188/188/188
f 185/185/185 184/184/184 188/188/188
f 190/190/190 189/189/189 191/191/191 192/192/192
f 194/194/194 193/193/193 195/195/195 196/196/196
f 198/198/198 197/197/197 199/199/199 200/200/200
f 204/204/204 201/201/201 203/203/203
f 203/203/203 202/202/202 204/204/204
f 208/208/208 207/207/207 205/205/205
f 207/207/207 208/208/208 206/206/206
f 211/211/211 210/210/210 209/209/209
f 214/214/214 213/213/213 212/212/212
f 217/217/217 215/215/215 216/216/216
f 219/219/219 221/221/221 220/220/220 218/218/218
f 224/224/224 222/222/222 223/223/223
f 227/227/227 226/226/226 225/225/225
f 229/229/229 228/228/228 232/232/232 231/231/231
f 228/228/228 230/230/230 232/232/232
f 234/234/234 233/233/233 235/235/235 236/236/236
f 238/238/238 237/237/237 239/239/239 240/240/240
f 242/242/242 241/241/241 243/243/243 244/244/244
f 246/246/246 248/248/248 247/247/247
f 248/248/248 246/246/246 245/245/245
f 250/250/250 251/251/251 252/252/252
f 252/252/252 249/249/249 250/250/250
