{
  "accessors": [
    {
      "bufferView": 1,
      "componentType": 5126,
      "count": 15872,
      "max": [
        0.91145002841949463,
        0.67435002326965332,
        1.5581099987030029
      ],
      "min": [
        -1.2467499971389771,
        -1.1442699432373047,
        -0.40689000487327576
      ],
      "type": "VEC3"
    },
    {
      "bufferView": 1,
      "byteOffset": 190464,
      "componentType": 5126,
      "count": 15872,
      "max": [
        0.99043834209442139,
        0.99043834209442139,
        0.99513870477676392
      ],
      "min": [
        -0.99043834209442139,
        -0.99043834209442139,
        -0.99513870477676392
      ],
      "type": "VEC3"
    },
    {
      "bufferView": 0,
      "componentType": 5125,
      "count": 23040,
      "max": [
        15871
      ],
      "min": [
        0
      ],
      "type": "SCALAR"
    },
    {
      "bufferView": 1,
      "byteOffset": 380928,
      "componentType": 5126,
      "count": 3264,
      "max": [
        1.031000018119812,
        1.031000018119812,
        0.030999999493360519
      ],
      "min": [
        -1.031000018119812,
        -1.031000018119812,
        0
      ],
      "type": "VEC3"
    },
    {
      "bufferView": 1,
      "byteOffset": 420096,
      "componentType": 5126,
      "count": 3264,
      "max": [
        0.99971681833267212,
        0.99971681833267212,
        0.99971765279769897
      ],
      "min": [
        -0.99971681833267212,
        -0.99971681833267212,
        0.02371051162481308
      ],
      "type": "VEC3"
    },
    {
      "bufferView": 0,
      "byteOffset": 92160,
      "componentType": 5125,
      "count": 19008,
      "max": [
        3263
      ],
      "min": [
        0
      ],
      "type": "SCALAR"
    },
    {
      "bufferView": 1,
      "byteOffset": 459264,
      "componentType": 5126,
      "count": 6528,
      "max": [
        1.0069999694824219,
        1.0069999694824219,
        0.0070000002160668373
      ],
      "min": [
        -1.0069999694824219,
        -1.0069999694824219,
        -0.0070000002160668373
      ],
      "type": "VEC3"
    },
    {
      "bufferView": 1,
      "byteOffset": 537600,
      "componentType": 5126,
      "count": 6528,
      "max": [
        1,
        1,
        1
      ],
      "min": [
        -1,
        -1,
        -1
      ],
      "type": "VEC3"
    },
    {
      "bufferView": 0,
      "byteOffset": 168192,
      "componentType": 5125,
      "count": 39168,
      "max": [
        6527
      ],
      "min": [
        0
      ],
      "type": "SCALAR"
    },
    {
      "bufferView": 1,
      "byteOffset": 615936,
      "componentType": 5126,
      "count": 3264,
      "max": [
        -0.91246002912521362,
        3.1777000427246094,
        0.030999999493360519
      ],
      "min": [
        -2.9744598865509033,
        1.1157000064849854,
        0
      ],
      "type": "VEC3"
    },
    {
      "bufferView": 1,
      "byteOffset": 655104,
      "componentType": 5126,
      "count": 3264,
      "max": [
        0.99971681833267212,
        0.9997137188911438,
        0.99971765279769897
      ],
      "min": [
        -0.99971514940261841,
        -0.99971681833267212,
        0.023590335622429848
      ],
      "type": "VEC3"
    },
    {
      "bufferView": 0,
      "byteOffset": 324864,
      "componentType": 5125,
      "count": 19008,
      "max": [
        3263
      ],
      "min": [
        0
      ],
      "type": "SCALAR"
    },
    {
      "bufferView": 1,
      "byteOffset": 694272,
      "componentType": 5126,
      "count": 3264,
      "max": [
        2.9744598865509033,
        3.2158000469207764,
        0.030999999493360519
      ],
      "min": [
        0.91246002912521362,
        1.1538000106811523,
        0
      ],
      "type": "VEC3"
    },
    {
      "bufferView": 1,
      "byteOffset": 733440,
      "componentType": 5126,
      "count": 3264,
      "max": [
        0.99971753358840942,
        0.99971884489059448,
        0.99971765279769897
      ],
      "min": [
        -0.99971514940261841,
        -0.99971753358840942,
        0.023560676723718643
      ],
      "type": "VEC3"
    },
    {
      "bufferView": 0,
      "byteOffset": 400896,
      "componentType": 5125,
      "count": 19008,
      "max": [
        3263
      ],
      "min": [
        0
      ],
      "type": "SCALAR"
    },
    {
      "bufferView": 1,
      "byteOffset": 772608,
      "componentType": 5126,
      "count": 1984,
      "max": [
        -4.4031500816345215,
        5.6127200126647949,
        0.36632001399993896
      ],
      "min": [
        -5.135779857635498,
        4.8800902366638184,
        -0.36632001399993896
      ],
      "type": "VEC3"
    },
    {
      "bufferView": 1,
      "byteOffset": 796416,
      "componentType": 5126,
      "count": 1984,
      "max": [
        0.99043834209442139,
        0.99043929576873779,
        0.99513870477676392
      ],
      "min": [
        -0.99043834209442139,
        -0.99043834209442139,
        -0.99513870477676392
      ],
      "type": "VEC3"
    },
    {
      "bufferView": 0,
      "byteOffset": 476928,
      "componentType": 5125,
      "count": 2880,
      "max": [
        1983
      ],
      "min": [
        0
      ],
      "type": "SCALAR"
    },
    {
      "bufferView": 1,
      "byteOffset": 820224,
      "componentType": 5126,
      "count": 1984,
      "max": [
        5.2620401382446289,
        5.6127200126647949,
        0.36632001399993896
      ],
      "min": [
        4.5294098854064941,
        4.8800902366638184,
        -0.36632001399993896
      ],
      "type": "VEC3"
    },
    {
      "bufferView": 1,
      "byteOffset": 844032,
      "componentType": 5126,
      "count": 1984,
      "max": [
        0.99043834209442139,
        0.99043929576873779,
        0.99513870477676392
      ],
      "min": [
        -0.99043834209442139,
        -0.99043834209442139,
        -0.99513870477676392
      ],
      "type": "VEC3"
    },
    {
      "bufferView": 0,
      "byteOffset": 488448,
      "componentType": 5125,
      "count": 2880,
      "max": [
        1983
      ],
      "min": [
        0
      ],
      "type": "SCALAR"
    },
    {
      "bufferView": 1,
      "byteOffset": 867840,
      "componentType": 5126,
      "count": 1984,
      "max": [
        1,
        8.9412698745727539,
        1
      ],
      "min": [
        -1,
        6.9412698745727539,
        -1
      ],
      "type": "VEC3"
    },
    {
      "bufferView": 1,
      "byteOffset": 891648,
      "componentType": 5126,
      "count": 1984,
      "max": [
        0.99043834209442139,
        0.99043834209442139,
        0.99513870477676392
      ],
      "min": [
        -0.99043834209442139,
        -0.99043834209442139,
        -0.99513870477676392
      ],
      "type": "VEC3"
    },
    {
      "bufferView": 0,
      "byteOffset": 499968,
      "componentType": 5125,
      "count": 2880,
      "max": [
        1983
      ],
      "min": [
        0
      ],
      "type": "SCALAR"
    },
    {
      "bufferView": 1,
      "byteOffset": 915456,
      "componentType": 5126,
      "count": 1984,
      "max": [
        1,
        -6.9412698745727539,
        1
      ],
      "min": [
        -1,
        -8.9412698745727539,
        -1
      ],
      "type": "VEC3"
    },
    {
      "bufferView": 1,
      "byteOffset": 939264,
      "componentType": 5126,
      "count": 1984,
      "max": [
        0.99043834209442139,
        0.99043834209442139,
        0.99513870477676392
      ],
      "min": [
        -0.99043834209442139,
        -0.99043834209442139,
        -0.99513870477676392
      ],
      "type": "VEC3"
    },
    {
      "bufferView": 0,
      "byteOffset": 511488,
      "componentType": 5125,
      "count": 2880,
      "max": [
        1983
      ],
      "min": [
        0
      ],
      "type": "SCALAR"
    },
    {
      "bufferView": 1,
      "byteOffset": 963072,
      "componentType": 5126,
      "count": 3968,
      "max": [
        -8.2274703979492188,
        13.047080039978027,
        1
      ],
      "min": [
        -11.764800071716309,
        9.704350471496582,
        -1
      ],
      "type": "VEC3"
    },
    {
      "bufferView": 1,
      "byteOffset": 1010688,
      "componentType": 5126,
      "count": 3968,
      "max": [
        0.99043834209442139,
        0.99043834209442139,
        0.99513870477676392
      ],
      "min": [
        -0.99043834209442139,
        -0.99043834209442139,
        -0.99513870477676392
      ],
      "type": "VEC3"
    },
    {
      "bufferView": 0,
      "byteOffset": 523008,
      "componentType": 5125,
      "count": 5760,
      "max": [
        3967
      ],
      "min": [
        0
      ],
      "type": "SCALAR"
    },
    {
      "bufferView": 1,
      "byteOffset": 1058304,
      "componentType": 5126,
      "count": 3968,
      "max": [
        12.110329627990723,
        12.72953987121582,
        1
      ],
      "min": [
        8.636540412902832,
        9.3359498977661133,
        -1
      ],
      "type": "VEC3"
    },
    {
      "bufferView": 1,
      "byteOffset": 1105920,
      "componentType": 5126,
      "count": 3968,
      "max": [
        0.99522644281387329,
        0.99522644281387329,
        0.99513858556747437
      ],
      "min": [
        -0.99522644281387329,
        -0.99522644281387329,
        -0.99513858556747437
      ],
      "type": "VEC3"
    },
    {
      "bufferView": 0,
      "byteOffset": 546048,
      "componentType": 5125,
      "count": 5760,
      "max": [
        3967
      ],
      "min": [
        0
      ],
      "type": "SCALAR"
    },
    {
      "bufferView": 1,
      "byteOffset": 1153536,
      "componentType": 5126,
      "count": 3968,
      "max": [
        -8.6365499496459961,
        -9.3359498977661133,
        1
      ],
      "min": [
        -12.110340118408203,
        -12.72953987121582,
        -1
      ],
      "type": "VEC3"
    },
    {
      "bufferView": 1,
      "byteOffset": 1201152,
      "componentType": 5126,
      "count": 3968,
      "max": [
        0.99522644281387329,
        0.99522644281387329,
        0.99513858556747437
      ],
      "min": [
        -0.99522644281387329,
        -0.99522644281387329,
        -0.99513858556747437
      ],
      "type": "VEC3"
    },
    {
      "bufferView": 0,
      "byteOffset": 569088,
      "componentType": 5125,
      "count": 5760,
      "max": [
        3967
      ],
      "min": [
        0
      ],
      "type": "SCALAR"
    },
    {
      "bufferView": 1,
      "byteOffset": 1248768,
      "componentType": 5126,
      "count": 3968,
      "max": [
        11.764800071716309,
        -9.7043600082397461,
        1
      ],
      "min": [
        8.2274703979492188,
        -13.047089576721191,
        -1
      ],
      "type": "VEC3"
    },
    {
      "bufferView": 1,
      "byteOffset": 1296384,
      "componentType": 5126,
      "count": 3968,
      "max": [
        0.99043834209442139,
        0.99043834209442139,
        0.99513870477676392
      ],
      "min": [
        -0.99043834209442139,
        -0.99043834209442139,
        -0.99513870477676392
      ],
      "type": "VEC3"
    },
    {
      "bufferView": 0,
      "byteOffset": 592128,
      "componentType": 5125,
      "count": 5760,
      "max": [
        3967
      ],
      "min": [
        0
      ],
      "type": "SCALAR"
    },
    {
      "bufferView": 1,
      "byteOffset": 1344000,
      "componentType": 5126,
      "count": 15872,
      "max": [
        2.0693700313568115,
        1.5265300273895264,
        4.7270097732543945
      ],
      "min": [
        -2.7332100868225098,
        -3.5008699893951416,
        -0.18449999392032623
      ],
      "type": "VEC3"
    },
    {
      "bufferView": 1,
      "byteOffset": 1534464,
      "componentType": 5126,
      "count": 15872,
      "max": [
        0.99043834209442139,
        0.99043834209442139,
        0.99513870477676392
      ],
      "min": [
        -0.99043834209442139,
        -0.99043834209442139,
        -0.99513870477676392
      ],
      "type": "VEC3"
    },
    {
      "bufferView": 0,
      "byteOffset": 615168,
      "componentType": 5125,
      "count": 23040,
      "max": [
        15871
      ],
      "min": [
        0
      ],
      "type": "SCALAR"
    }
  ],
  "asset": {
    "extras": {
      "author": "danarmenta (https://sketchfab.com/danarmenta)",
      "license": "CC-BY-4.0 (http://creativecommons.org/licenses/by/4.0/)",
      "source": "https://sketchfab.com/models/92348536da73455f86493653e2376a2e",
      "title": "H2O"
    },
    "generator": "Sketchfab-3.18.5",
    "version": "2.0"
  },
  "bufferViews": [
    {
      "buffer": 0,
      "byteLength": 707328,
      "byteOffset": 0,
      "name": "floatBufferViews",
      "target": 34963
    },
    {
      "buffer": 0,
      "byteLength": 1724928,
      "byteOffset": 707328,
      "byteStride": 12,
      "name": "floatBufferViews",
      "target": 34962
    }
  ],
  "buffers": [
    {
      "byteLength": 2432256,
      "uri": "scene.bin"
    }
  ],
  "materials": [
    {
      "doubleSided": true,
      "emissiveFactor": [
        0,
        0,
        0
      ],
      "name": "Neutrons",
      "pbrMetallicRoughness": {
        "baseColorFactor": [
          0.80000001190000003,
          0.80000001190000003,
          0,
          1
        ],
        "metallicFactor": 0,
        "roughnessFactor": 0.59999999999999998
      }
    },
    {
      "doubleSided": true,
      "emissiveFactor": [
        0,
        0,
        0
      ],
      "name": "electrons",
      "pbrMetallicRoughness": {
        "baseColorFactor": [
          0.80000001190000003,
          0,
          0,
          1
        ],
        "metallicFactor": 0,
        "roughnessFactor": 0.59999999999999998
      }
    },
    {
      "doubleSided": true,
      "emissiveFactor": [
        0,
        0,
        0
      ],
      "name": "protons",
      "pbrMetallicRoughness": {
        "baseColorFactor": [
          0,
          0.80000001190000003,
          0,
          1
        ],
        "metallicFactor": 0,
        "roughnessFactor": 0.59999999999999998
      }
    },
    {
      "doubleSided": true,
      "emissiveFactor": [
        0,
        0,
        0
      ],
      "name": "orbits",
      "pbrMetallicRoughness": {
        "baseColorFactor": [
          0.0088701487719434619,
          0.0088701487719434619,
          0.0088701487719434619,
          1
        ],
        "metallicFactor": 0,
        "roughnessFactor": 0.59999999999999998
      }
    }
  ],
  "meshes": [
    {
      "name": "Sphere_0",
      "primitives": [
        {
          "attributes": {
            "NORMAL": 1,
            "POSITION": 0
          },
          "indices": 2,
          "material": 2,
          "mode": 4
        }
      ]
    },
    {
      "name": "NurbsCircle_0",
      "primitives": [
        {
          "attributes": {
            "NORMAL": 4,
            "POSITION": 3
          },
          "indices": 5,
          "material": 3,
          "mode": 4
        }
      ]
    },
    {
      "name": "NurbsCircle.001_0",
      "primitives": [
        {
          "attributes": {
            "NORMAL": 7,
            "POSITION": 6
          },
          "indices": 8,
          "material": 3,
          "mode": 4
        }
      ]
    },
    {
      "name": "NurbsCircle.002_0",
      "primitives": [
        {
          "attributes": {
            "NORMAL": 10,
            "POSITION": 9
          },
          "indices": 11,
          "material": 3,
          "mode": 4
        }
      ]
    },
    {
      "name": "NurbsCircle.003_0",
      "primitives": [
        {
          "attributes": {
            "NORMAL": 13,
            "POSITION": 12
          },
          "indices": 14,
          "material": 3,
          "mode": 4
        }
      ]
    },
    {
      "name": "Sphere.001_0",
      "primitives": [
        {
          "attributes": {
            "NORMAL": 16,
            "POSITION": 15
          },
          "indices": 17,
          "material": 2,
          "mode": 4
        }
      ]
    },
    {
      "name": "Sphere.002_0",
      "primitives": [
        {
          "attributes": {
            "NORMAL": 19,
            "POSITION": 18
          },
          "indices": 20,
          "material": 2,
          "mode": 4
        }
      ]
    },
    {
      "name": "Sphere.003_0",
      "primitives": [
        {
          "attributes": {
            "NORMAL": 22,
            "POSITION": 21
          },
          "indices": 23,
          "material": 1,
          "mode": 4
        }
      ]
    },
    {
      "name": "Sphere.004_0",
      "primitives": [
        {
          "attributes": {
            "NORMAL": 25,
            "POSITION": 24
          },
          "indices": 26,
          "material": 1,
          "mode": 4
        }
      ]
    },
    {
      "name": "Sphere.005_0",
      "primitives": [
        {
          "attributes": {
            "NORMAL": 28,
            "POSITION": 27
          },
          "indices": 29,
          "material": 1,
          "mode": 4
        }
      ]
    },
    {
      "name": "Sphere.006_0",
      "primitives": [
        {
          "attributes": {
            "NORMAL": 31,
            "POSITION": 30
          },
          "indices": 32,
          "material": 1,
          "mode": 4
        }
      ]
    },
    {
      "name": "Sphere.007_0",
      "primitives": [
        {
          "attributes": {
            "NORMAL": 34,
            "POSITION": 33
          },
          "indices": 35,
          "material": 1,
          "mode": 4
        }
      ]
    },
    {
      "name": "Sphere.008_0",
      "primitives": [
        {
          "attributes": {
            "NORMAL": 37,
            "POSITION": 36
          },
          "indices": 38,
          "material": 1,
          "mode": 4
        }
      ]
    },
    {
      "name": "Sphere.010_0",
      "primitives": [
        {
          "attributes": {
            "NORMAL": 40,
            "POSITION": 39
          },
          "indices": 41,
          "material": 0,
          "mode": 4
        }
      ]
    }
  ],
  "nodes": [
    {
      "children": [
        1
      ],
      "name": "RootNode (gltf orientation matrix)",
      "rotation": [
        -0.70710678118654746,
        -0,
        -0,
        0.70710678118654757
      ]
    },
    {
      "children": [
        2
      ],
      "name": "RootNode (model correction matrix)"
    },
    {
      "children": [
        3,
        5,
        7,
        9,
        11,
        13,
        15,
        17,
        19,
        21,
        23,
        25,
        27,
        29,
        31
      ],
      "name": "Root"
    },
    {
      "children": [
        4
      ],
      "matrix": [
        -0.29086000000000006,
        0.95517000000000007,
        -0.05519000000000001,
        0,
        -0.77110000000000001,
        -0.19988000000000003,
        0.60452000000000006,
        0,
        0.56639000000000006,
        0.21839000000000003,
        0.7946700000000001,
        0,
        4.0762500000000008,
        1.00545,
        5.9038600000000008,
        1
      ],
      "name": "Lamp"
    },
    {
      "name": "Lamp"
    },
    {
      "children": [
        6
      ],
      "matrix": [
        0.40700000000000003,
        0,
        0,
        0,
        0,
        0.40700000000000003,
        0,
        0,
        0,
        0,
        0.40700000000000003,
        0,
        0,
        0.13973000000000002,
        -0.36244000000000004,
        1
      ],
      "name": "Sphere"
    },
    {
      "mesh": 0,
      "name": "Sphere_0"
    },
    {
      "children": [
        8
      ],
      "name": "NurbsCircle"
    },
    {
      "mesh": 1,
      "name": "NurbsCircle_0"
    },
    {
      "children": [
        10
      ],
      "matrix": [
        1.8909500000000001,
        0,
        0,
        0,
        0,
        1.8909500000000001,
        0,
        0,
        0,
        0,
        1.8909500000000001,
        0,
        0,
        0,
        0,
        1
      ],
      "name": "NurbsCircle.001"
    },
    {
      "mesh": 2,
      "name": "NurbsCircle.001_0"
    },
    {
      "children": [
        12
      ],
      "name": "NurbsCircle.002"
    },
    {
      "mesh": 3,
      "name": "NurbsCircle.002_0"
    },
    {
      "children": [
        14
      ],
      "name": "NurbsCircle.003"
    },
    {
      "mesh": 4,
      "name": "NurbsCircle.003_0"
    },
    {
      "children": [
        16
      ],
      "matrix": [
        0.40689000000000003,
        0,
        0,
        0,
        0,
        0.40689000000000003,
        0,
        0,
        0,
        0,
        0.40689000000000003,
        0,
        0,
        0,
        0,
        1
      ],
      "name": "Sphere.001"
    },
    {
      "mesh": 5,
      "name": "Sphere.001_0"
    },
    {
      "children": [
        18
      ],
      "matrix": [
        0.40689000000000003,
        0,
        0,
        0,
        0,
        0.40689000000000003,
        0,
        0,
        0,
        0,
        0.40689000000000003,
        0,
        0,
        0,
        0,
        1
      ],
      "name": "Sphere.002"
    },
    {
      "mesh": 6,
      "name": "Sphere.002_0"
    },
    {
      "children": [
        20
      ],
      "matrix": [
        0.12651000000000001,
        0,
        0,
        0,
        0,
        0.12651000000000001,
        0,
        0,
        0,
        0,
        0.12651000000000001,
        0,
        0,
        0,
        0,
        1
      ],
      "name": "Sphere.003"
    },
    {
      "mesh": 7,
      "name": "Sphere.003_0"
    },
    {
      "children": [
        22
      ],
      "matrix": [
        0.12651000000000001,
        0,
        0,
        0,
        0,
        0.12651000000000001,
        0,
        0,
        0,
        0,
        0.12651000000000001,
        0,
        0,
        0,
        0,
        1
      ],
      "name": "Sphere.004"
    },
    {
      "mesh": 8,
      "name": "Sphere.004_0"
    },
    {
      "children": [
        24
      ],
      "matrix": [
        0.12651000000000001,
        0,
        0,
        0,
        0,
        0.12651000000000001,
        0,
        0,
        0,
        0,
        0.12651000000000001,
        0,
        0,
        0,
        0,
        1
      ],
      "name": "Sphere.005"
    },
    {
      "mesh": 9,
      "name": "Sphere.005_0"
    },
    {
      "children": [
        26
      ],
      "matrix": [
        0.12651000000000001,
        0,
        0,
        0,
        0,
        0.12651000000000001,
        0,
        0,
        0,
        0,
        0.12651000000000001,
        0,
        0,
        0,
        0,
        1
      ],
      "name": "Sphere.006"
    },
    {
      "mesh": 10,
      "name": "Sphere.006_0"
    },
    {
      "children": [
        28
      ],
      "matrix": [
        0.12651000000000001,
        0,
        0,
        0,
        0,
        0.12651000000000001,
        0,
        0,
        0,
        0,
        0.12651000000000001,
        0,
        0,
        0,
        0,
        1
      ],
      "name": "Sphere.007"
    },
    {
      "mesh": 11,
      "name": "Sphere.007_0"
    },
    {
      "children": [
        30
      ],
      "matrix": [
        0.12651000000000001,
        0,
        0,
        0,
        0,
        0.12651000000000001,
        0,
        0,
        0,
        0,
        0.12651000000000001,
        0,
        0,
        0,
        0,
        1
      ],
      "name": "Sphere.008"
    },
    {
      "mesh": 12,
      "name": "Sphere.008_0"
    },
    {
      "children": [
        32
      ],
      "matrix": [
        0.16160000000000002,
        0,
        0,
        0,
        0,
        0.16160000000000002,
        0,
        0,
        0,
        0,
        0.16160000000000002,
        0,
        0,
        0.13973000000000002,
        -0.36244000000000004,
        1
      ],
      "name": "Sphere.010"
    },
    {
      "mesh": 13,
      "name": "Sphere.010_0"
    }
  ],
  "scene": 0,
  "scenes": [
    {
      "name": "OSG_Scene",
      "nodes": [
        0
      ]
    }
  ]
}

