# Rhino

o object_1
v -20707.996 14545.331 -72491
v -20707.996 14545.331 -68966.18
v -20625.488 14213.204 -72491
v -20625.488 14213.204 -68966.18
v -20480.73 13887.61 -72491
v -20480.73 13887.61 -68966.18
v -20274.711 13585.842 -72491
v -20274.711 13585.842 -68966.18
v -20014.775 13324.539 -72491
v -20014.775 13324.539 -68966.18
v -19713.938 13116.853 -72491
v -19713.938 13116.853 -68966.18
v -19388.781 12970.307 -72491
v -19388.781 12970.307 -68966.18
v -19056.613 12886.066 -72491
v -19056.613 12886.066 -68966.18
v -18732.855 12859.688 -72491
v -18732.855 12859.688 -68966.18
v -20707.996 14545.331 -70728.594
vt 0 0
vt 0 1
vt 0.125 0
vt 0.125 1
vt 0.25 0
vt 0.25 1
vt 0.375 0
vt 0.375 1
vt 0.5 0
vt 0.5 1
vt 0.625 0
vt 0.625 1
vt 0.75 0
vt 0.75 1
vt 0.875 0
vt 0.875 1
vt 1 0
vt 1 1
vt 0 0.5
vn 0.98757017 0.15717876 0
vn 0.98757017 0.15717876 0
vn 0.9463163 0.32324219 0
vn 0.9463163 0.32324219 0
vn 0.87393719 0.48603892 0
vn 0.87393719 0.48603892 0
vn 0.77092725 0.63692325 0
vn 0.77092725 0.63692325 0
vn 0.64095968 0.76757455 0
vn 0.64095968 0.76757455 0
vn 0.49054143 0.87141788 0
vn 0.49054143 0.87141788 0
vn 0.32796246 0.94469076 0
vn 0.32796246 0.94469076 0
vn 0.16187885 0.98681062 0
vn 0.16187885 0.98681062 0
vn -4.932591e-16 1 0
vn -4.932591e-16 1 0
vn 0.98757017 0.15717876 0
f 6/6/6 5/5/5 3/3/3 4/4/4
f 8/8/8 7/7/7 5/5/5 6/6/6
f 10/10/10 9/9/9 7/7/7 8/8/8
f 12/12/12 11/11/11 9/9/9 10/10/10
f 14/14/14 13/13/13 11/11/11 12/12/12
f 16/16/16 15/15/15 13/13/13 14/14/14
f 18/18/18 17/17/17 15/15/15 16/16/16
f 3/3/3 1/1/1 19/19/19
f 2/2/2 4/4/4 19/19/19
f 3/3/3 19/19/19 4/4/4
o object_2
v -18732.855 12859.688 -72491
v -18732.855 12859.688 -68966.18
v 18732.855 12859.688 -72491
v 18732.855 12859.688 -68966.18
vt 0 0
vt 0 1
vt 1 0
vt 1 1
vn 1.110223e-16 1 0
vn 1.110223e-16 1 0
vn 1.110223e-16 1 0
vn 1.110223e-16 1 0
f 23/23/23 22/22/22 20/20/20 21/21/21
o object_3
v -37260.547 359.66257 -71140.945
v -37260.547 15254.923 -71140.945
v -35578.719 359.66257 -72269.398
v -35578.719 7757.769 -72269.398
v -35578.719 15155.876 -72269.398
v -35578.719 359.66257 -72269.398
v -35578.719 15155.876 -72269.398
v -35125.219 359.66257 -72486.719
v -34635.328 359.66257 -72561
v -35578.719 7757.769 -72269.398
v -34635.328 5273.2139 -72561
v -34635.328 10186.766 -72561
v -34635.328 15100.317 -72561
v -34884.867 15115.013 -72541.992
v -35128.719 15129.374 -72485.633
v -34635.328 359.66257 -72561
v -25970.316 7729.9897 -72561
v -25970.316 9572.5713 -72561
v -25970.316 11415.153 -72561
v -17268.043 7729.9897 -72561
v -17268.043 9572.5713 -72561
v -17268.043 11415.153 -72561
v -8600.8086 7729.9897 -72561
v -8600.8086 9572.5713 -72561
v -8600.8086 11415.153 -72561
v -5.4569682e-12 7729.9897 -72561
v -5.4569682e-12 9572.5713 -72561
v -5.4569682e-12 11415.153 -72561
v 8653.0195 7729.9897 -72561
v 8653.0195 9572.5713 -72561
v 8653.0195 11415.153 -72561
v 17267.273 7729.9897 -72561
v 17267.273 9572.5713 -72561
v 17267.273 11415.153 -72561
v 25918.707 359.66257 -72561
v 25918.707 7729.9897 -72561
v 25918.707 9572.5713 -72561
v 25918.707 11415.153 -72561
v 34635.328 359.66257 -72561
v 34635.328 15100.317 -72561
v -34635.328 15100.317 -72561
v -34635.328 10186.766 -72561
v -34635.328 5273.2139 -72561
v 34635.328 5273.2139 -72561
v 34635.328 10186.766 -72561
v -26902.908 14644.935 -72561
v -30769.117 14872.626 -72561
v 26902.908 14644.935 -72561
v 20698.574 14490.971 -72561
v 30769.117 14872.626 -72561
v 20467.441 13864.091 -72561
v 20010.072 13320.624 -72561
v 19391.602 12971.288 -72561
v 18732.855 12859.688 -72561
v 14049.643 12859.688 -72561
v 9366.4297 12859.688 -72561
v 4683.2158 12859.688 -72561
v 0.0022331304 12859.688 -72561
v -4683.2119 12859.688 -72561
v -9366.4258 12859.688 -72561
v -14049.641 12859.688 -72561
v -18732.855 12859.688 -72561
v -19391.602 12971.288 -72561
v -20010.072 13320.624 -72561
v -20467.441 13864.091 -72561
v -20698.574 14490.971 -72561
v -24634.102 359.66257 -72561
v -24634.102 2477.3252 -72561
v -23338.207 5123.0513 -72561
v -22387.744 6236.022 -72561
v -21746.66 6543.8325 -72561
v -21082.191 6644 -72561
v -15811.644 6644 -72561
v -10541.096 6644 -72561
v -5270.5479 6644 -72561
v -4.4201443e-10 6644 -72561
v 5270.5479 6644 -72561
v 10541.096 6644 -72561
v 15811.644 6644 -72561
v 21082.191 6644 -72561
v 21746.66 6543.8325 -72561
v 22387.744 6236.022 -72561
v 23338.207 5123.0513 -72561
v 24634.102 2477.3252 -72561
v 24634.102 359.66257 -72561
v -25970.316 2202.2444 -72561
v -25970.316 5887.4082 -72561
v 25918.707 5887.4082 -72561
v 25918.707 4044.8262 -72561
v 34635.328 359.66257 -72561
v 35125.219 359.66257 -72486.719
v 35578.719 359.66257 -72269.398
v 35578.719 15155.876 -72269.398
v 34635.328 15100.317 -72561
v 34635.328 10186.766 -72561
v 34635.328 5273.2139 -72561
v 35578.719 7757.769 -72269.398
v 35128.719 15129.374 -72485.633
v 34884.867 15115.013 -72541.992
v 35578.719 359.66257 -72269.398
v 37260.547 359.66257 -71140.945
v 37260.547 15254.923 -71140.945
v 35578.719 15155.876 -72269.398
v 35578.719 7757.769 -72269.398
vt 0.058063176 0
vt 0.058063176 0.21502988
vt 0.085836209 0
vt 0.085836209 0.10680001
vt 0.085836209 0.21360002
vt 0 0
vt 0 0.21360002
vt 0.0064739017 0
vt 0.012947803 0
vt 0 0.10680001
vt 0.012947803 0.070932657
vt 0.012947803 0.14186531
vt 0.012947803 0.21279797
vt 0.0096655935 0.21301012
vt 0.0064267204 0.21321744
vt 0.29863417 0
vt 0.19296762 0.12349328
vt 0.16655098 0.12349328
vt 0.14013433 0.12349328
vt 0.19296762 0.24845204
vt 0.16655098 0.24845204
vt 0.14013433 0.24845204
vt 0.19296762 0.37385979
vt 0.16655098 0.37385979
vt 0.14013433 0.37385979
vt 0.19296762 0.49926758
vt 0.16655098 0.49926758
vt 0.14013433 0.49926758
vt 0.19296762 0.62543368
vt 0.16655098 0.62543368
vt 0.14013433 0.62543368
vt 0.19296762 0.750072
vt 0.16655098 0.750072
vt 0.14013433 0.750072
vt 0.29863417 0.87430364
vt 0.19296762 0.87430364
vt 0.16655098 0.87430364
vt 0.14013433 0.87430364
vt 0.29863417 0.99853516
vt 0.087301053 0.99853516
vt 0.087301053 0
vt 0.15774542 0
vt 0.22818981 0
vt 0.22818981 0.99853516
vt 0.15774542 0.99853516
vt 0.093829766 0.11015783
vt 0.090565406 0.054987639
vt 0.093829766 0.88837731
vt 0.096037097 0.79945642
vt 0.090565406 0.94354749
vt 0.10502453 0.79613447
vt 0.11281607 0.78955913
vt 0.11782441 0.78066349
vt 0.1194244 0.77118331
vt 0.1194244 0.70362759
vt 0.1194244 0.63579208
vt 0.1194244 0.56767327
vt 0.1194244 0.49926764
vt 0.1194244 0.43086192
vt 0.1194244 0.36274311
vt 0.1194244 0.2949076
vt 0.1194244 0.22735187
vt 0.11782441 0.21787165
vt 0.11281607 0.20897603
vt 0.10502453 0.20240065
vt 0.096037097 0.19907877
vt 0.29863417 0.14261903
vt 0.26827377 0.14261903
vt 0.23034266 0.16118883
vt 0.21438627 0.17482197
vt 0.20997326 0.18402386
vt 0.20853719 0.19356683
vt 0.20853719 0.26945794
vt 0.20853719 0.34570178
vt 0.20853719 0.42230329
vt 0.20853719 0.49926758
vt 0.20853719 0.5762319
vt 0.20853719 0.65283334
vt 0.20853719 0.72907722
vt 0.20853719 0.8049683
vt 0.20997326 0.8145113
vt 0.21438627 0.82371318
vt 0.23034266 0.83734632
vt 0.26827377 0.85591614
vt 0.29863417 0.85591614
vt 0.27221754 0.12349328
vt 0.21938425 0.12349328
vt 0.21938425 0.87430364
vt 0.2458009 0.87430364
vt 0.014412647 0
vt 0.02088655 0
vt 0.02736045 0
vt 0.02736045 0.21360002
vt 0.014412647 0.21279797
vt 0.014412647 0.14186531
vt 0.014412647 0.070932657
vt 0.02736045 0.10680001
vt 0.020933731 0.21321744
vt 0.017694857 0.21301012
vt 0.028825294 0
vt 0.056598332 0
vt 0.056598332 0.21502988
vt 0.028825294 0.21360002
vt 0.028825294 0.10680001
vn -0.55716836 0 -0.83039957
vn -0.55716836 0 -0.83039957
vn -0.55716836 0 -0.83039957
vn -0.55716836 0 -0.83039957
vn -0.55716836 0 -0.83039957
vn -0.55716836 0 -0.83039957
vn -0.55716836 0 -0.83039957
vn -0.29531592 0 -0.95539963
vn -4.6592928e-14 0 -1
vn -0.55716836 0 -0.83039957
vn -6.2454348e-14 0 -1
vn -4.6592928e-14 0 -1
vn -4.6592928e-14 0 -1
vn -0.15129457 0 -0.98848873
vn -0.29739392 0 -0.95475489
vn 4.6364842e-16 0 -1
vn 8.6956852e-16 0 -1
vn 7.006619e-16 0 -1
vn 9.3421583e-16 0 -1
vn 4.5804852e-16 0 -1
vn 3.5299608e-16 0 -1
vn 4.7066143e-16 0 -1
vn 6.9871383e-16 0 -1
vn -5.0839761e-17 0 -1
vn 2.3714125e-16 0 -1
vn 0 0 -1
vn 2.3897986e-16 0 -1
vn 0 0 -1
vn -1.7784767e-16 0 -1
vn -5.3354298e-16 0 -1
vn -1.6513831e-16 0 -1
vn -2.2271797e-16 0 -1
vn -4.5804884e-16 0 -1
vn -3.5299632e-16 0 -1
vn -4.6712877e-16 0 -1
vn 6.2591162e-17 0 -1
vn -7.0069313e-16 0 -1
vn -4.6712877e-16 0 -1
vn -4.6364842e-16 0 -1
vn -4.6364842e-16 0 -1
vn 4.6364842e-16 0 -1
vn 1.1591211e-15 0 -1
vn 7.9895975e-16 0 -1
vn -1.2750332e-15 0 -1
vn -6.954726e-16 0 -1
vn 9.5847898e-16 0 -1
vn 1.0923423e-15 0 -1
vn -1.1668297e-15 0 -1
vn 5.0300413e-17 0 -1
vn -2.575234e-16 0 -1
vn -4.4419032e-16 0 -1
vn -2.0960119e-16 0 -1
vn -4.9496577e-16 0 -1
vn -4.700576e-16 0 -1
vn -3.0340257e-16 0 -1
vn 7.8296827e-17 0 -1
vn -4.6738818e-17 0 -1
vn 3.1245965e-16 0 -1
vn -2.3797343e-16 0 -1
vn 4.7395924e-16 0 -1
vn 4.7199635e-16 0 -1
vn 1.175144e-16 0 -1
vn -1.4262563e-16 0 -1
vn 8.4684808e-16 0 -1
vn 2.3467278e-16 0 -1
vn 1.1731274e-16 0 -1
vn 7.0147251e-16 0 -1
vn 1.254723e-15 0 -1
vn 3.6784531e-16 0 -1
vn 6.1287995e-16 0 -1
vn 2.4069309e-16 0 -1
vn 4.1045726e-16 0 -1
vn -1.2629053e-17 0 -1
vn 9.9768136e-16 0 -1
vn 3.5677218e-16 0 -1
vn 4.7795973e-16 0 -1
vn -9.1331592e-17 0 -1
vn -4.460016e-16 0 -1
vn -2.9454006e-16 0 -1
vn -6.9107009e-16 0 -1
vn 3.7690868e-17 0 -1
vn -7.9470418e-17 0 -1
vn -6.6255897e-16 0 -1
vn -4.8434419e-16 0 -1
vn -4.6764832e-16 0 -1
vn 3.4825151e-16 0 -1
vn 7.5279153e-16 0 -1
vn -9.3425754e-16 0 -1
vn -3.4408747e-16 0 -1
vn 4.262757e-14 0 -1
vn 0.29531592 0 -0.95539963
vn 0.55716836 0 -0.83039957
vn 0.55716836 0 -0.83039957
vn 4.262757e-14 0 -1
vn 5.9480334e-14 0 -1
vn 5.1549622e-14 0 -1
vn 0.55716836 0 -0.83039957
vn 0.29739392 0 -0.95475489
vn 0.15129457 0 -0.98848873
vn 0.55716836 0 -0.83039957
vn 0.55716836 0 -0.83039957
vn 0.55716836 0 -0.83039957
vn 0.55716836 0 -0.83039957
vn 0.55716836 0 -0.83039957
f 25/25/25 28/28/28 27/27/27 24/24/24
f 24/24/24 27/27/27 26/26/26
f 33/33/33 31/31/31 29/29/29
f 30/30/30 38/38/38 33/33/33
f 31/31/31 33/33/33 38/38/38
f 38/38/38 37/37/37 31/31/31
f 31/31/31 37/37/37 34/34/34
f 36/36/36 35/35/35 37/37/37
f 34/34/34 37/37/37 35/35/35
f 32/32/32 31/31/31 34/34/34
f 44/44/44 43/43/43 40/40/40 41/41/41
f 45/45/45 44/44/44 41/41/41 42/42/42
f 47/47/47 46/46/46 43/43/43 44/44/44
f 48/48/48 47/47/47 44/44/44 45/45/45
f 50/50/50 49/49/49 46/46/46 47/47/47
f 51/51/51 50/50/50 47/47/47 48/48/48
f 53/53/53 52/52/52 49/49/49 50/50/50
f 54/54/54 53/53/53 50/50/50 51/51/51
f 56/56/56 55/55/55 52/52/52 53/53/53
f 57/57/57 56/56/56 53/53/53 54/54/54
f 60/60/60 59/59/59 55/55/55 56/56/56
f 61/61/61 60/60/60 56/56/56 57/57/57
f 66/66/66 110/110/110 109/109/109 39/39/39
f 90/90/90 39/39/39 109/109/109
f 109/109/109 91/91/91 90/90/90
f 109/109/109 92/92/92 91/91/91
f 40/40/40 110/110/110 66/66/66
f 92/92/92 110/110/110 93/93/93
f 40/40/40 94/94/94 110/110/110
f 109/109/109 110/110/110 92/92/92
f 65/65/65 41/41/41 40/40/40 66/66/66
f 110/110/110 94/94/94 93/93/93
f 43/43/43 96/96/96 95/95/95
f 40/40/40 43/43/43 95/95/95
f 46/46/46 97/97/97 43/43/43
f 96/96/96 43/43/43 97/97/97
f 98/98/98 46/46/46 49/49/49
f 97/97/97 46/46/46 98/98/98
f 99/99/99 98/98/98 49/49/49
f 94/94/94 40/40/40 95/95/95
f 42/42/42 41/41/41 65/65/65
f 64/64/64 42/42/42 65/65/65
f 69/69/69 87/87/87 42/42/42
f 87/87/87 69/69/69 88/88/88
f 42/42/42 64/64/64 70/70/70
f 88/88/88 69/69/69 89/89/89
f 69/69/69 42/42/42 70/70/70
f 45/45/45 85/85/85 84/84/84
f 42/42/42 86/86/86 85/85/85
f 51/51/51 48/48/48 82/82/82
f 45/45/45 84/84/84 83/83/83 48/48/48
f 86/86/86 42/42/42 87/87/87
f 48/48/48 83/83/83 82/82/82
f 85/85/85 45/45/45 42/42/42
f 49/49/49 100/100/100 99/99/99
f 52/52/52 101/101/101 100/100/100
f 111/111/111 105/105/105 104/104/104
f 55/55/55 102/102/102 101/101/101 52/52/52
f 103/103/103 55/55/55 59/59/59
f 102/102/102 55/55/55 103/103/103
f 59/59/59 104/104/104 103/103/103
f 58/58/58 108/108/108 107/107/107
f 107/107/107 62/62/62 58/58/58
f 67/67/67 62/62/62 107/107/107
f 111/111/111 112/112/112 106/106/106
f 107/107/107 106/106/106 112/112/112
f 59/59/59 67/67/67 111/111/111
f 112/112/112 111/111/111 67/67/67
f 67/67/67 59/59/59 60/60/60 68/68/68
f 111/111/111 104/104/104 59/59/59
f 67/67/67 107/107/107 112/112/112
f 106/106/106 105/105/105 111/111/111
f 51/51/51 81/81/81 80/80/80 54/54/54
f 78/78/78 57/57/57 54/54/54
f 61/61/61 77/77/77 76/76/76
f 57/57/57 78/78/78 77/77/77
f 54/54/54 80/80/80 79/79/79
f 54/54/54 79/79/79 78/78/78
f 61/61/61 57/57/57 77/77/77
f 82/82/82 81/81/81 51/51/51
f 75/75/75 61/61/61 76/76/76
f 71/71/71 61/61/61 75/75/75
f 60/60/60 61/61/61 68/68/68
f 68/68/68 61/61/61 63/63/63
f 71/71/71 74/74/74 72/72/72
f 75/75/75 74/74/74 71/71/71
f 73/73/73 61/61/61 71/71/71
f 73/73/73 63/63/63 61/61/61
f 100/100/100 49/49/49 52/52/52
f 114/114/114 119/119/119 122/122/122
f 117/117/117 122/122/122 118/118/118
f 119/119/119 118/118/118 122/122/122
f 114/114/114 113/113/113 119/119/119
f 120/120/120 115/115/115 114/114/114
f 116/116/116 120/120/120 121/121/121
f 114/114/114 121/121/121 120/120/120
f 122/122/122 121/121/121 114/114/114
f 124/124/124 123/123/123 127/127/127
f 126/126/126 125/125/125 127/127/127
f 124/124/124 127/127/127 125/125/125
o object_4
v -28500 2477.3252 0
v 28500 2477.3252 0
v -20499.846 2477.3252 0
v -21525.818 4348.3813 0
v -14411.28 5696.2759 0
v -7215.7627 6507.4424 0
v -1.8189894e-11 6777.3252 0
v 7215.7627 6507.4424 0
v 14411.28 5696.2759 0
v 21525.818 4348.3813 0
v 20499.846 2477.3252 0
v 10415.021 5242.1323 0
v 4.0017767e-10 6177.6733 0
v -10415.021 5242.1323 0
vt 0 1
vt 1 1
vt 0.14035358 1
vt 0.12235407 0.5648706
vt 0.24717052 0.25140679
vt 0.37340766 0.0627634
vt 0.5 0
vt 0.62659234 0.0627634
vt 0.75282949 0.25140679
vt 0.87764591 0.5648706
vt 0.85964644 1
vt 0.68271965 0.35702157
vt 0.5 0.13945386
vt 0.31728035 0.35702157
vn 0 0 1
vn 0 0 1
vn 0 0 1
vn 0 0 1
vn 0 0 1
vn 0 0 1
vn 0 0 1
vn 0 0 1
vn 0 0 1
vn 0 0 1
vn 0 0 1
vn 0 0 1
vn 0 0 1
vn 0 0 1
f 132/132/132 141/141/141 140/140/140
f 132/132/132 140/140/140 133/133/133
f 130/130/130 131/131/131 128/128/128
f 131/131/131 130/130/130 141/141/141
f 141/141/141 132/132/132 131/131/131
f 134/134/134 133/133/133 140/140/140
f 136/136/136 135/135/135 140/140/140
f 134/134/134 140/140/140 135/135/135
f 139/139/139 136/136/136 140/140/140
f 138/138/138 137/137/137 139/139/139
f 138/138/138 129/129/129 137/137/137
f 137/137/137 136/136/136 139/139/139
o object_5
v 20499.846 2477.3252 0
v 20499.846 2477.3252 -9995.1807
v 15529.007 4081.5105 0
v 15529.007 4081.5105 -9995.1807
v 10415.021 5242.1323 0
v 10415.021 5242.1323 -9995.1807
v 5217.9932 5942.7119 0
v 5217.9932 5942.7119 -9995.1807
v 4.0017767e-10 6177.6733 0
v 4.0017767e-10 6177.6733 -9995.1807
v -5217.9932 5942.7119 0
v -5217.9932 5942.7119 -9995.1807
v -10415.021 5242.1323 0
v -10415.021 5242.1323 -9995.1807
v -15529.007 4081.5105 0
v -15529.007 4081.5105 -9995.1807
v -20499.846 2477.3252 0
v -20499.846 2477.3252 -9995.1807
vt 0 0
vt 0 1
vt 0.125 0
vt 0.125 1
vt 0.25 0
vt 0.25 1
vt 0.375 0
vt 0.375 1
vt 0.5 0
vt 0.5 1
vt 0.625 0
vt 0.625 1
vt 0.75 0
vt 0.75 1
vt 0.875 0
vt 0.875 1
vt 1 0
vt 1 1
vn -0.3490696 -0.93709677 0
vn -0.3490696 -0.93709677 0
vn -0.26456922 -0.96436667 0
vn -0.26456922 -0.96436667 0
vn -0.17763545 -0.98409635 0
vn -0.17763545 -0.98409635 0
vn -0.08929006 -0.99600565 0
vn -0.08929006 -0.99600565 0
vn 0.0005882674 -0.99999982 0
vn 0.0005882674 -0.99999982 0
vn 0.08929006 -0.99600565 0
vn 0.08929006 -0.99600565 0
vn 0.17763545 -0.98409635 0
vn 0.17763545 -0.98409635 0
vn 0.26456922 -0.96436667 0
vn 0.26456922 -0.96436667 0
vn 0.3490696 -0.93709677 0
vn 0.3490696 -0.93709677 0
f 145/145/145 143/143/143 142/142/142 144/144/144
f 147/147/147 145/145/145 144/144/144 146/146/146
f 149/149/149 147/147/147 146/146/146 148/148/148
f 151/151/151 149/149/149 148/148/148 150/150/150
f 153/153/153 151/151/151 150/150/150 152/152/152
f 155/155/155 153/153/153 152/152/152 154/154/154
f 157/157/157 155/155/155 154/154/154 156/156/156
f 159/159/159 157/157/157 156/156/156 158/158/158
o object_6
v -28500 2477.3252 0
v -28500 2477.3252 -9995.1807
v -14411.28 5696.2759 0
v -14411.28 5696.2759 -9995.1807
v -1.8189894e-11 6777.3252 0
v -1.8189894e-11 6777.3252 -9995.1807
v 14411.28 5696.2759 0
v 14411.28 5696.2759 -9995.1807
v 28500 2477.3252 0
v 28500 2477.3252 -9995.1807
vt 0 0
vt 0 1
vt 0.25 0
vt 0.25 1
vt 0.5 0
vt 0.5 1
vt 0.75 0
vt 0.75 1
vt 1 0
vt 1 1
vn -0.29503816 0.95548546 0
vn -0.29503816 0.95548546 0
vn -0.14918868 0.98880875 0
vn -0.14918868 0.98880875 0
vn -4.002708e-13 1 0
vn -4.002708e-13 1 0
vn 0.14918868 0.98880875 0
vn 0.14918868 0.98880875 0
vn 0.29503816 0.95548546 0
vn 0.29503816 0.95548546 0
f 163/163/163 161/161/161 160/160/160 162/162/162
f 165/165/165 163/163/163 162/162/162 164/164/164
f 167/167/167 165/165/165 164/164/164 166/166/166
f 169/169/169 167/167/167 166/166/166 168/168/168
o object_7
v -24634.102 -5186 -72491
v -24634.102 -5186 -70333.18
v -24634.102 2477.3252 -72491
v -24634.102 2477.3252 -70333.18
v -24634.102 2477.3252 -72491
v -24634.102 2477.3252 -70333.18
v -23338.207 5123.0513 -72491
v -23338.207 5123.0513 -70333.18
v -22387.744 6236.022 -72491
v -22387.744 6236.022 -70333.18
v -21082.191 6644 -72491
v -21082.191 6644 -70333.18
v -4.4201443e-10 6644 -72491
v -4.4201443e-10 6644 -70333.18
v 21082.191 6644 -72491
v 21082.191 6644 -70333.18
v 22387.744 6236.022 -72491
v 22387.744 6236.022 -70333.18
v 23338.207 5123.0513 -72491
v 23338.207 5123.0513 -70333.18
v 24634.102 2477.3252 -72491
v 24634.102 2477.3252 -70333.18
v 24634.102 2477.3252 -72491
v 24634.102 2477.3252 -70333.18
v 24634.102 -4807 -72491
v 24634.102 -4807 -70333.18
vt 0 0
vt 0 1
vt 0.10064458 0
vt 0.10064458 1
vt 0.10064458 0
vt 0.10064458 1
vt 0.14058283 0
vt 0.14058283 1
vt 0.16137101 0
vt 0.16137101 1
vt 0.1821592 0
vt 0.1821592 1
vt 0.50248873 0
vt 0.50248873 1
vt 0.82281834 0
vt 0.82281834 1
vt 0.84360653 0
vt 0.84360653 1
vt 0.86439466 0
vt 0.86439466 1
vt 0.90433294 0
vt 0.90433294 1
vt 0.90433294 0
vt 0.90433294 1
vt 1 0
vt 1 1
vn 1 4.7472588e-14 6.0027378e-29
vn 1 4.7472588e-14 6.0027378e-29
vn 1 4.7472588e-14 6.0027378e-29
vn 1 4.7472588e-14 6.0027378e-29
vn 0.89805883 -0.43987533 -5.5620646e-16
vn 0.89805883 -0.43987533 -5.5620646e-16
vn 0.89805883 -0.43987533 -5.5620646e-16
vn 0.89805883 -0.43987533 -5.5620646e-16
vn 0.55900258 -0.82916588 -1.0484504e-15
vn 0.55900258 -0.82916588 -1.0484504e-15
vn 1.0957668e-14 -1 -1.2644639e-15
vn 1.0957668e-14 -1 -1.2644639e-15
vn 0 -1 -1.2644639e-15
vn 0 -1 -1.2644639e-15
vn -2.463258e-14 -1 -1.2644639e-15
vn -2.463258e-14 -1 -1.2644639e-15
vn -0.55900258 -0.82916588 -1.0484504e-15
vn -0.55900258 -0.82916588 -1.0484504e-15
vn -0.89805883 -0.43987533 -5.5620646e-16
vn -0.89805883 -0.43987533 -5.5620646e-16
vn -0.89805883 -0.43987533 -5.5620646e-16
vn -0.89805883 -0.43987533 -5.5620646e-16
vn -1 0 0
vn -1 0 0
vn -1 0 0
vn -1 0 0
f 170/170/170 172/172/172 173/173/173 171/171/171
f 174/174/174 176/176/176 177/177/177 175/175/175
f 176/176/176 178/178/178 179/179/179 177/177/177
f 178/178/178 180/180/180 181/181/181 179/179/179
f 180/180/180 182/182/182 183/183/183 181/181/181
f 182/182/182 184/184/184 185/185/185 183/183/183
f 184/184/184 186/186/186 187/187/187 185/185/185
f 186/186/186 188/188/188 189/189/189 187/187/187
f 188/188/188 190/190/190 191/191/191 189/189/189
f 192/192/192 194/194/194 195/195/195 193/193/193
o object_8
v 18732.855 12859.688 -72491
v 18732.855 12859.688 -68966.18
v 19056.613 12886.066 -72491
v 19056.613 12886.066 -68966.18
v 19388.781 12970.307 -72491
v 19388.781 12970.307 -68966.18
v 19713.938 13116.853 -72491
v 19713.938 13116.853 -68966.18
v 20014.775 13324.539 -72491
v 20014.775 13324.539 -68966.18
v 20274.711 13585.842 -72491
v 20274.711 13585.842 -68966.18
v 20480.73 13887.61 -72491
v 20480.73 13887.61 -68966.18
v 20625.488 14213.204 -72491
v 20625.488 14213.204 -68966.18
v 20707.996 14545.331 -72491
v 20707.996 14545.331 -68966.18
v 20707.996 14545.331 -70728.594
vt 0 0
vt 0 1
vt 0.125 0
vt 0.125 1
vt 0.25 0
vt 0.25 1
vt 0.375 0
vt 0.375 1
vt 0.5 0
vt 0.5 1
vt 0.625 0
vt 0.625 1
vt 0.75 0
vt 0.75 1
vt 0.875 0
vt 0.875 1
vt 1 0
vt 1 1
vt 1 0.5
vn 1.9730364e-15 1 0
vn 1.9730364e-15 1 0
vn -0.16187885 0.98681062 0
vn -0.16187885 0.98681062 0
vn -0.32796246 0.94469076 0
vn -0.32796246 0.94469076 0
vn -0.49054143 0.87141788 0
vn -0.49054143 0.87141788 0
vn -0.64095968 0.76757455 0
vn -0.64095968 0.76757455 0
vn -0.77092725 0.63692325 0
vn -0.77092725 0.63692325 0
vn -0.87393719 0.48603892 0
vn -0.87393719 0.48603892 0
vn -0.9463163 0.32324219 0
vn -0.9463163 0.32324219 0
vn -0.98757017 0.15717876 0
vn -0.98757017 0.15717876 0
vn -0.98757017 0.15717876 0
f 199/199/199 198/198/198 196/196/196 197/197/197
f 201/201/201 200/200/200 198/198/198 199/199/199
f 203/203/203 202/202/202 200/200/200 201/201/201
f 205/205/205 204/204/204 202/202/202 203/203/203
f 207/207/207 206/206/206 204/204/204 205/205/205
f 209/209/209 208/208/208 206/206/206 207/207/207
f 211/211/211 210/210/210 208/208/208 209/209/209
f 214/214/214 210/210/210 211/211/211
f 210/210/210 214/214/214 212/212/212
f 211/211/211 213/213/213 214/214/214
