{
  "accessors": [
    {
      "bufferView": 1,
      "componentType": 5126,
      "count": 294,
      "max": [
        1.5524799823760986,
        0.87847000360488892,
        0.87847000360488892
      ],
      "min": [
        -1.5374799966812134,
        -0.87847000360488892,
        -0.94932997226715088
      ],
      "type": "VEC3"
    },
    {
      "bufferView": 1,
      "byteOffset": 3528,
      "componentType": 5126,
      "count": 294,
      "max": [
        1,
        1,
        1
      ],
      "min": [
        -1,
        -1,
        -1
      ],
      "type": "VEC3"
    },
    {
      "bufferView": 0,
      "componentType": 5125,
      "count": 1728,
      "max": [
        293
      ],
      "min": [
        0
      ],
      "type": "SCALAR"
    },
    {
      "bufferView": 1,
      "byteOffset": 7056,
      "componentType": 5126,
      "count": 294,
      "max": [
        1.5524799823760986,
        0.87847000360488892,
        0.87847000360488892
      ],
      "min": [
        -1.5374799966812134,
        -0.87847000360488892,
        -0.94932997226715088
      ],
      "type": "VEC3"
    },
    {
      "bufferView": 1,
      "byteOffset": 10584,
      "componentType": 5126,
      "count": 294,
      "max": [
        1,
        1,
        1
      ],
      "min": [
        -1,
        -1,
        -1
      ],
      "type": "VEC3"
    },
    {
      "bufferView": 0,
      "byteOffset": 6912,
      "componentType": 5125,
      "count": 1728,
      "max": [
        293
      ],
      "min": [
        0
      ],
      "type": "SCALAR"
    },
    {
      "bufferView": 1,
      "byteOffset": 14112,
      "componentType": 5126,
      "count": 294,
      "max": [
        1.5524799823760986,
        0.87847000360488892,
        0.87847000360488892
      ],
      "min": [
        -1.5374799966812134,
        -0.87847000360488892,
        -0.94932997226715088
      ],
      "type": "VEC3"
    },
    {
      "bufferView": 1,
      "byteOffset": 17640,
      "componentType": 5126,
      "count": 294,
      "max": [
        1,
        1,
        1
      ],
      "min": [
        -1,
        -1,
        -1
      ],
      "type": "VEC3"
    },
    {
      "bufferView": 0,
      "byteOffset": 13824,
      "componentType": 5125,
      "count": 1728,
      "max": [
        293
      ],
      "min": [
        0
      ],
      "type": "SCALAR"
    },
    {
      "bufferView": 1,
      "byteOffset": 21168,
      "componentType": 5126,
      "count": 294,
      "max": [
        1.5524799823760986,
        0.87847000360488892,
        0.87847000360488892
      ],
      "min": [
        -1.5374799966812134,
        -0.87847000360488892,
        -0.94932997226715088
      ],
      "type": "VEC3"
    },
    {
      "bufferView": 1,
      "byteOffset": 24696,
      "componentType": 5126,
      "count": 294,
      "max": [
        1,
        1,
        1
      ],
      "min": [
        -1,
        -1,
        -1
      ],
      "type": "VEC3"
    },
    {
      "bufferView": 0,
      "byteOffset": 20736,
      "componentType": 5125,
      "count": 1728,
      "max": [
        293
      ],
      "min": [
        0
      ],
      "type": "SCALAR"
    },
    {
      "bufferView": 1,
      "byteOffset": 28224,
      "componentType": 5126,
      "count": 294,
      "max": [
        1.5524799823760986,
        0.87847000360488892,
        0.87847000360488892
      ],
      "min": [
        -1.5374799966812134,
        -0.87847000360488892,
        -0.94932997226715088
      ],
      "type": "VEC3"
    },
    {
      "bufferView": 1,
      "byteOffset": 31752,
      "componentType": 5126,
      "count": 294,
      "max": [
        1,
        1,
        1
      ],
      "min": [
        -1,
        -1,
        -1
      ],
      "type": "VEC3"
    },
    {
      "bufferView": 0,
      "byteOffset": 27648,
      "componentType": 5125,
      "count": 1728,
      "max": [
        293
      ],
      "min": [
        0
      ],
      "type": "SCALAR"
    },
    {
      "bufferView": 1,
      "byteOffset": 35280,
      "componentType": 5126,
      "count": 294,
      "max": [
        1.5524799823760986,
        0.87847000360488892,
        0.87847000360488892
      ],
      "min": [
        -1.5374799966812134,
        -0.87847000360488892,
        -0.94932997226715088
      ],
      "type": "VEC3"
    },
    {
      "bufferView": 1,
      "byteOffset": 38808,
      "componentType": 5126,
      "count": 294,
      "max": [
        1,
        1,
        1
      ],
      "min": [
        -1,
        -1,
        -1
      ],
      "type": "VEC3"
    },
    {
      "bufferView": 0,
      "byteOffset": 34560,
      "componentType": 5125,
      "count": 1728,
      "max": [
        293
      ],
      "min": [
        0
      ],
      "type": "SCALAR"
    },
    {
      "bufferView": 1,
      "byteOffset": 42336,
      "componentType": 5126,
      "count": 294,
      "max": [
        1.5524799823760986,
        0.87847000360488892,
        0.87847000360488892
      ],
      "min": [
        -1.5374799966812134,
        -0.87847000360488892,
        -0.94932997226715088
      ],
      "type": "VEC3"
    },
    {
      "bufferView": 1,
      "byteOffset": 45864,
      "componentType": 5126,
      "count": 294,
      "max": [
        1,
        1,
        1
      ],
      "min": [
        -1,
        -1,
        -1
      ],
      "type": "VEC3"
    },
    {
      "bufferView": 0,
      "byteOffset": 41472,
      "componentType": 5125,
      "count": 1728,
      "max": [
        293
      ],
      "min": [
        0
      ],
      "type": "SCALAR"
    },
    {
      "bufferView": 1,
      "byteOffset": 49392,
      "componentType": 5126,
      "count": 294,
      "max": [
        1.5524799823760986,
        0.87847000360488892,
        0.87847000360488892
      ],
      "min": [
        -1.5374799966812134,
        -0.87847000360488892,
        -0.94932997226715088
      ],
      "type": "VEC3"
    },
    {
      "bufferView": 1,
      "byteOffset": 52920,
      "componentType": 5126,
      "count": 294,
      "max": [
        1,
        1,
        1
      ],
      "min": [
        -1,
        -1,
        -1
      ],
      "type": "VEC3"
    },
    {
      "bufferView": 0,
      "byteOffset": 48384,
      "componentType": 5125,
      "count": 1728,
      "max": [
        293
      ],
      "min": [
        0
      ],
      "type": "SCALAR"
    },
    {
      "bufferView": 2,
      "componentType": 5126,
      "count": 250,
      "max": [
        10.416669845581055
      ],
      "min": [
        0.041669998317956924
      ],
      "type": "SCALAR"
    },
    {
      "bufferView": 3,
      "componentType": 5126,
      "count": 250,
      "max": [
        6.6129999160766602,
        14.118220329284668,
        8.9357700347900391
      ],
      "min": [
        -11.187359809875488,
        -13.210260391235352,
        0.85811001062393188
      ],
      "type": "VEC3"
    },
    {
      "bufferView": 2,
      "byteOffset": 1000,
      "componentType": 5126,
      "count": 116,
      "max": [
        10.416669845581055
      ],
      "min": [
        0.041669998317956924
      ],
      "type": "SCALAR"
    },
    {
      "bufferView": 4,
      "componentType": 5126,
      "count": 116,
      "max": [
        0.22325000166893005,
        0.69389998912811279,
        0.99777001142501831,
        0.9483799934387207
      ],
      "min": [
        -0.51836001873016357,
        -0.08034999668598175,
        -0.99927002191543579,
        0.0020600000862032175
      ],
      "type": "VEC4"
    },
    {
      "bufferView": 2,
      "byteOffset": 1464,
      "componentType": 5126,
      "count": 2,
      "max": [
        10.416669845581055
      ],
      "min": [
        0.041669998317956924
      ],
      "type": "SCALAR"
    },
    {
      "bufferView": 3,
      "byteOffset": 3000,
      "componentType": 5126,
      "count": 2,
      "max": [
        0.98803001642227173,
        0.98803001642227173,
        0.98803001642227173
      ],
      "min": [
        0.98803001642227173,
        0.98803001642227173,
        0.98803001642227173
      ],
      "type": "VEC3"
    },
    {
      "bufferView": 2,
      "byteOffset": 1472,
      "componentType": 5126,
      "count": 242,
      "max": [
        10.416669845581055
      ],
      "min": [
        0.041669998317956924
      ],
      "type": "SCALAR"
    },
    {
      "bufferView": 3,
      "byteOffset": 3024,
      "componentType": 5126,
      "count": 242,
      "max": [
        8.0230302810668945,
        9.1469898223876953,
        17.076309204101562
      ],
      "min": [
        -12.537810325622559,
        -4.7718801498413086,
        0.42620000243186951
      ],
      "type": "VEC3"
    },
    {
      "bufferView": 2,
      "byteOffset": 2440,
      "componentType": 5126,
      "count": 187,
      "max": [
        10.416669845581055
      ],
      "min": [
        0.041669998317956924
      ],
      "type": "SCALAR"
    },
    {
      "bufferView": 4,
      "byteOffset": 1856,
      "componentType": 5126,
      "count": 187,
      "max": [
        0.7127000093460083,
        0.99510002136230469,
        0.98010998964309692,
        0.99431002140045166
      ],
      "min": [
        -0.89301997423171997,
        -0.9695199728012085,
        -0.95169997215270996,
        -0.0074700000695884228
      ],
      "type": "VEC4"
    },
    {
      "bufferView": 2,
      "byteOffset": 3188,
      "componentType": 5126,
      "count": 2,
      "max": [
        10.416669845581055
      ],
      "min": [
        0.041669998317956924
      ],
      "type": "SCALAR"
    },
    {
      "bufferView": 3,
      "byteOffset": 5928,
      "componentType": 5126,
      "count": 2,
      "max": [
        0.98803001642227173,
        0.98803001642227173,
        0.98803001642227173
      ],
      "min": [
        0.98803001642227173,
        0.98803001642227173,
        0.98803001642227173
      ],
      "type": "VEC3"
    },
    {
      "bufferView": 2,
      "byteOffset": 3196,
      "componentType": 5126,
      "count": 250,
      "max": [
        10.416669845581055
      ],
      "min": [
        0.041669998317956924
      ],
      "type": "SCALAR"
    },
    {
      "bufferView": 3,
      "byteOffset": 5952,
      "componentType": 5126,
      "count": 250,
      "max": [
        13.10906982421875,
        12.258110046386719,
        15.23567008972168
      ],
      "min": [
        -12.061070442199707,
        -14.856619834899902,
        0.024870000779628754
      ],
      "type": "VEC3"
    },
    {
      "bufferView": 2,
      "byteOffset": 4196,
      "componentType": 5126,
      "count": 234,
      "max": [
        10.416669845581055
      ],
      "min": [
        0.041669998317956924
      ],
      "type": "SCALAR"
    },
    {
      "bufferView": 4,
      "byteOffset": 4848,
      "componentType": 5126,
      "count": 234,
      "max": [
        0.73009997606277466,
        0.80483001470565796,
        -0.25587001442909241,
        0.74276000261306763
      ],
      "min": [
        -0.18253999948501587,
        -0.57923001050949097,
        -0.95806998014450073,
        0.030249999836087227
      ],
      "type": "VEC4"
    },
    {
      "bufferView": 2,
      "byteOffset": 5132,
      "componentType": 5126,
      "count": 2,
      "max": [
        10.416669845581055
      ],
      "min": [
        0.041669998317956924
      ],
      "type": "SCALAR"
    },
    {
      "bufferView": 3,
      "byteOffset": 8952,
      "componentType": 5126,
      "count": 2,
      "max": [
        0.98803001642227173,
        0.98803001642227173,
        0.98803001642227173
      ],
      "min": [
        0.98803001642227173,
        0.98803001642227173,
        0.98803001642227173
      ],
      "type": "VEC3"
    },
    {
      "bufferView": 2,
      "byteOffset": 5140,
      "componentType": 5126,
      "count": 4,
      "max": [
        10.416669845581055
      ],
      "min": [
        0.041669998317956924
      ],
      "type": "SCALAR"
    },
    {
      "bufferView": 3,
      "byteOffset": 8976,
      "componentType": 5126,
      "count": 4,
      "max": [
        -4.0668301582336426,
        3.9773600101470947,
        2.2751801013946533
      ],
      "min": [
        -4.4998002052307129,
        3.713900089263916,
        1.4469799995422363
      ],
      "type": "VEC3"
    },
    {
      "bufferView": 2,
      "byteOffset": 5156,
      "componentType": 5126,
      "count": 4,
      "max": [
        10.416669845581055
      ],
      "min": [
        0.041669998317956924
      ],
      "type": "SCALAR"
    },
    {
      "bufferView": 4,
      "byteOffset": 8592,
      "componentType": 5126,
      "count": 4,
      "max": [
        0,
        0,
        -0.59867000579833984,
        0.80098998546600342
      ],
      "min": [
        0,
        0,
        -0.83882999420166016,
        0.54439997673034668
      ],
      "type": "VEC4"
    },
    {
      "bufferView": 2,
      "byteOffset": 5172,
      "componentType": 5126,
      "count": 2,
      "max": [
        10.416669845581055
      ],
      "min": [
        0.041669998317956924
      ],
      "type": "SCALAR"
    },
    {
      "bufferView": 3,
      "byteOffset": 9024,
      "componentType": 5126,
      "count": 2,
      "max": [
        0.98803001642227173,
        0.98803001642227173,
        0.98803001642227173
      ],
      "min": [
        0.98803001642227173,
        0.98803001642227173,
        0.98803001642227173
      ],
      "type": "VEC3"
    },
    {
      "bufferView": 2,
      "byteOffset": 5180,
      "componentType": 5126,
      "count": 250,
      "max": [
        10.416669845581055
      ],
      "min": [
        0.041669998317956924
      ],
      "type": "SCALAR"
    },
    {
      "bufferView": 3,
      "byteOffset": 9048,
      "componentType": 5126,
      "count": 250,
      "max": [
        11.728420257568359,
        9.9886703491210938,
        16.87101936340332
      ],
      "min": [
        -7.2448301315307617,
        -0.41635000705718994,
        1.1007000207901001
      ],
      "type": "VEC3"
    },
    {
      "bufferView": 2,
      "byteOffset": 6180,
      "componentType": 5126,
      "count": 242,
      "max": [
        10.416669845581055
      ],
      "min": [
        0.041669998317956924
      ],
      "type": "SCALAR"
    },
    {
      "bufferView": 4,
      "byteOffset": 8656,
      "componentType": 5126,
      "count": 242,
      "max": [
        0.61842000484466553,
        0.9135100245475769,
        0.94642001390457153,
        0.94529998302459717
      ],
      "min": [
        -0.99636000394821167,
        -0.82837998867034912,
        -0.94591999053955078,
        -0.0068799997679889202
      ],
      "type": "VEC4"
    },
    {
      "bufferView": 2,
      "byteOffset": 7148,
      "componentType": 5126,
      "count": 2,
      "max": [
        10.416669845581055
      ],
      "min": [
        0.041669998317956924
      ],
      "type": "SCALAR"
    },
    {
      "bufferView": 3,
      "byteOffset": 12048,
      "componentType": 5126,
      "count": 2,
      "max": [
        0.98803001642227173,
        0.98803001642227173,
        0.98803001642227173
      ],
      "min": [
        0.98803001642227173,
        0.98803001642227173,
        0.98803001642227173
      ],
      "type": "VEC3"
    },
    {
      "bufferView": 2,
      "byteOffset": 7156,
      "componentType": 5126,
      "count": 2,
      "max": [
        10.416669845581055
      ],
      "min": [
        0.041669998317956924
      ],
      "type": "SCALAR"
    },
    {
      "bufferView": 3,
      "byteOffset": 12072,
      "componentType": 5126,
      "count": 2,
      "max": [
        -2.706049919128418,
        1.2107100486755371,
        1.4471399784088135
      ],
      "min": [
        -2.706049919128418,
        1.2107100486755371,
        1.4471399784088135
      ],
      "type": "VEC3"
    },
    {
      "bufferView": 2,
      "byteOffset": 7164,
      "componentType": 5126,
      "count": 2,
      "max": [
        10.416669845581055
      ],
      "min": [
        0.041669998317956924
      ],
      "type": "SCALAR"
    },
    {
      "bufferView": 4,
      "byteOffset": 12528,
      "componentType": 5126,
      "count": 2,
      "max": [
        0,
        0,
        -0.39346000552177429,
        0.91934001445770264
      ],
      "min": [
        0,
        0,
        -0.39346000552177429,
        0.91934001445770264
      ],
      "type": "VEC4"
    },
    {
      "bufferView": 2,
      "byteOffset": 7172,
      "componentType": 5126,
      "count": 2,
      "max": [
        10.416669845581055
      ],
      "min": [
        0.041669998317956924
      ],
      "type": "SCALAR"
    },
    {
      "bufferView": 3,
      "byteOffset": 12096,
      "componentType": 5126,
      "count": 2,
      "max": [
        0.98803001642227173,
        0.98803001642227173,
        0.98803001642227173
      ],
      "min": [
        0.98803001642227173,
        0.98803001642227173,
        0.98803001642227173
      ],
      "type": "VEC3"
    },
    {
      "bufferView": 2,
      "byteOffset": 7180,
      "componentType": 5126,
      "count": 250,
      "max": [
        10.416669845581055
      ],
      "min": [
        0.041669998317956924
      ],
      "type": "SCALAR"
    },
    {
      "bufferView": 3,
      "byteOffset": 12120,
      "componentType": 5126,
      "count": 250,
      "max": [
        10.104390144348145,
        12.123220443725586,
        9.6011695861816406
      ],
      "min": [
        -12.654800415039062,
        -17.088190078735352,
        1.0490599870681763
      ],
      "type": "VEC3"
    },
    {
      "bufferView": 2,
      "byteOffset": 8180,
      "componentType": 5126,
      "count": 146,
      "max": [
        10.416669845581055
      ],
      "min": [
        0.041669998317956924
      ],
      "type": "SCALAR"
    },
    {
      "bufferView": 4,
      "byteOffset": 12560,
      "componentType": 5126,
      "count": 146,
      "max": [
        0.26069000363349915,
        0.92779999971389771,
        0.73238998651504517,
        0.96214002370834351
      ],
      "min": [
        -0.65723997354507446,
        -0.99063998460769653,
        -0.59883999824523926,
        0.01875000074505806
      ],
      "type": "VEC4"
    },
    {
      "bufferView": 2,
      "byteOffset": 8764,
      "componentType": 5126,
      "count": 2,
      "max": [
        10.416669845581055
      ],
      "min": [
        0.041669998317956924
      ],
      "type": "SCALAR"
    },
    {
      "bufferView": 3,
      "byteOffset": 15120,
      "componentType": 5126,
      "count": 2,
      "max": [
        0.98803001642227173,
        0.98803001642227173,
        0.98803001642227173
      ],
      "min": [
        0.98803001642227173,
        0.98803001642227173,
        0.98803001642227173
      ],
      "type": "VEC3"
    },
    {
      "bufferView": 2,
      "byteOffset": 8772,
      "componentType": 5126,
      "count": 250,
      "max": [
        10.416669845581055
      ],
      "min": [
        0.041669998317956924
      ],
      "type": "SCALAR"
    },
    {
      "bufferView": 3,
      "byteOffset": 15144,
      "componentType": 5126,
      "count": 250,
      "max": [
        7.2100000381469727,
        14.614709854125977,
        15.125479698181152
      ],
      "min": [
        -8.8837404251098633,
        -7.8007497787475586,
        1.5143500566482544
      ],
      "type": "VEC3"
    },
    {
      "bufferView": 2,
      "byteOffset": 9772,
      "componentType": 5126,
      "count": 229,
      "max": [
        10.416669845581055
      ],
      "min": [
        0.041669998317956924
      ],
      "type": "SCALAR"
    },
    {
      "bufferView": 4,
      "byteOffset": 14896,
      "componentType": 5126,
      "count": 229,
      "max": [
        0.23249000310897827,
        0.32677000761032104,
        0.9887700080871582,
        1
      ],
      "min": [
        -0.15963000059127808,
        -0.15795999765396118,
        -0.25424998998641968,
        0.13511000573635101
      ],
      "type": "VEC4"
    },
    {
      "bufferView": 2,
      "byteOffset": 10688,
      "componentType": 5126,
      "count": 2,
      "max": [
        10.416669845581055
      ],
      "min": [
        0.041669998317956924
      ],
      "type": "SCALAR"
    },
    {
      "bufferView": 3,
      "byteOffset": 18144,
      "componentType": 5126,
      "count": 2,
      "max": [
        0.98803001642227173,
        0.98803001642227173,
        0.98803001642227173
      ],
      "min": [
        0.98803001642227173,
        0.98803001642227173,
        0.98803001642227173
      ],
      "type": "VEC3"
    }
  ],
  "animations": [
    {
      "channels": [
        {
          "sampler": 0,
          "target": {
            "node": 17,
            "path": "translation"
          }
        },
        {
          "sampler": 1,
          "target": {
            "node": 17,
            "path": "rotation"
          }
        },
        {
          "sampler": 2,
          "target": {
            "node": 17,
            "path": "scale"
          }
        },
        {
          "sampler": 3,
          "target": {
            "node": 19,
            "path": "translation"
          }
        },
        {
          "sampler": 4,
          "target": {
            "node": 19,
            "path": "rotation"
          }
        },
        {
          "sampler": 5,
          "target": {
            "node": 19,
            "path": "scale"
          }
        },
        {
          "sampler": 6,
          "target": {
            "node": 15,
            "path": "translation"
          }
        },
        {
          "sampler": 7,
          "target": {
            "node": 15,
            "path": "rotation"
          }
        },
        {
          "sampler": 8,
          "target": {
            "node": 15,
            "path": "scale"
          }
        },
        {
          "sampler": 9,
          "target": {
            "node": 13,
            "path": "translation"
          }
        },
        {
          "sampler": 10,
          "target": {
            "node": 13,
            "path": "rotation"
          }
        },
        {
          "sampler": 11,
          "target": {
            "node": 13,
            "path": "scale"
          }
        },
        {
          "sampler": 12,
          "target": {
            "node": 11,
            "path": "translation"
          }
        },
        {
          "sampler": 13,
          "target": {
            "node": 11,
            "path": "rotation"
          }
        },
        {
          "sampler": 14,
          "target": {
            "node": 11,
            "path": "scale"
          }
        },
        {
          "sampler": 15,
          "target": {
            "node": 9,
            "path": "translation"
          }
        },
        {
          "sampler": 16,
          "target": {
            "node": 9,
            "path": "rotation"
          }
        },
        {
          "sampler": 17,
          "target": {
            "node": 9,
            "path": "scale"
          }
        },
        {
          "sampler": 18,
          "target": {
            "node": 7,
            "path": "translation"
          }
        },
        {
          "sampler": 19,
          "target": {
            "node": 7,
            "path": "rotation"
          }
        },
        {
          "sampler": 20,
          "target": {
            "node": 7,
            "path": "scale"
          }
        },
        {
          "sampler": 21,
          "target": {
            "node": 5,
            "path": "translation"
          }
        },
        {
          "sampler": 22,
          "target": {
            "node": 5,
            "path": "rotation"
          }
        },
        {
          "sampler": 23,
          "target": {
            "node": 5,
            "path": "scale"
          }
        }
      ],
      "name": "Take 01",
      "samplers": [
        {
          "input": 24,
          "interpolation": "LINEAR",
          "output": 25
        },
        {
          "input": 26,
          "interpolation": "LINEAR",
          "output": 27
        },
        {
          "input": 28,
          "interpolation": "LINEAR",
          "output": 29
        },
        {
          "input": 30,
          "interpolation": "LINEAR",
          "output": 31
        },
        {
          "input": 32,
          "interpolation": "LINEAR",
          "output": 33
        },
        {
          "input": 34,
          "interpolation": "LINEAR",
          "output": 35
        },
        {
          "input": 36,
          "interpolation": "LINEAR",
          "output": 37
        },
        {
          "input": 38,
          "interpolation": "LINEAR",
          "output": 39
        },
        {
          "input": 40,
          "interpolation": "LINEAR",
          "output": 41
        },
        {
          "input": 42,
          "interpolation": "LINEAR",
          "output": 43
        },
        {
          "input": 44,
          "interpolation": "LINEAR",
          "output": 45
        },
        {
          "input": 46,
          "interpolation": "LINEAR",
          "output": 47
        },
        {
          "input": 48,
          "interpolation": "LINEAR",
          "output": 49
        },
        {
          "input": 50,
          "interpolation": "LINEAR",
          "output": 51
        },
        {
          "input": 52,
          "interpolation": "LINEAR",
          "output": 53
        },
        {
          "input": 54,
          "interpolation": "LINEAR",
          "output": 55
        },
        {
          "input": 56,
          "interpolation": "LINEAR",
          "output": 57
        },
        {
          "input": 58,
          "interpolation": "LINEAR",
          "output": 59
        },
        {
          "input": 60,
          "interpolation": "LINEAR",
          "output": 61
        },
        {
          "input": 62,
          "interpolation": "LINEAR",
          "output": 63
        },
        {
          "input": 64,
          "interpolation": "LINEAR",
          "output": 65
        },
        {
          "input": 66,
          "interpolation": "LINEAR",
          "output": 67
        },
        {
          "input": 68,
          "interpolation": "LINEAR",
          "output": 69
        },
        {
          "input": 70,
          "interpolation": "LINEAR",
          "output": 71
        }
      ]
    }
  ],
  "asset": {
    "extras": {
      "author": "itlaborykt (https://sketchfab.com/itlaborykt)",
      "license": "CC-BY-4.0 (http://creativecommons.org/licenses/by/4.0/)",
      "source": "https://sketchfab.com/models/5076f80cce39461e83c2f64cfb64f114",
      "title": "Chemistry: atom structure"
    },
    "generator": "Sketchfab-3.18.7",
    "version": "2.0"
  },
  "bufferViews": [
    {
      "buffer": 0,
      "byteLength": 55296,
      "byteOffset": 0,
      "name": "floatBufferViews",
      "target": 34963
    },
    {
      "buffer": 0,
      "byteLength": 56448,
      "byteOffset": 55296,
      "byteStride": 12,
      "name": "floatBufferViews",
      "target": 34962
    },
    {
      "buffer": 0,
      "byteLength": 10696,
      "byteOffset": 111744,
      "name": "floatBufferViews"
    },
    {
      "buffer": 0,
      "byteLength": 18168,
      "byteOffset": 122440,
      "byteStride": 12,
      "name": "floatBufferViews"
    },
    {
      "buffer": 0,
      "byteLength": 18560,
      "byteOffset": 140608,
      "byteStride": 16,
      "name": "floatBufferViews"
    }
  ],
  "buffers": [
    {
      "byteLength": 159168,
      "uri": "scene.bin"
    }
  ],
  "extensionsRequired": [
    "KHR_materials_pbrSpecularGlossiness"
  ],
  "extensionsUsed": [
    "KHR_materials_pbrSpecularGlossiness"
  ],
  "materials": [
    {
      "doubleSided": true,
      "emissiveFactor": [
        0,
        0,
        0
      ],
      "extensions": {
        "KHR_materials_pbrSpecularGlossiness": {
          "diffuseFactor": [
            0,
            0.26188917820000002,
            1,
            1
          ],
          "glossinessFactor": 0.79999999700000002,
          "specularFactor": [
            0.80000001190000003,
            0.80000001190000003,
            0.80000001190000003
          ]
        }
      },
      "name": "Material"
    }
  ],
  "meshes": [
    {
      "name": "Cube_0",
      "primitives": [
        {
          "attributes": {
            "NORMAL": 1,
            "POSITION": 0
          },
          "indices": 2,
          "material": 0,
          "mode": 4
        }
      ]
    },
    {
      "name": "Cube.001_0",
      "primitives": [
        {
          "attributes": {
            "NORMAL": 4,
            "POSITION": 3
          },
          "indices": 5,
          "material": 0,
          "mode": 4
        }
      ]
    },
    {
      "name": "Cube.002_0",
      "primitives": [
        {
          "attributes": {
            "NORMAL": 7,
            "POSITION": 6
          },
          "indices": 8,
          "material": 0,
          "mode": 4
        }
      ]
    },
    {
      "name": "Cube.003_0",
      "primitives": [
        {
          "attributes": {
            "NORMAL": 10,
            "POSITION": 9
          },
          "indices": 11,
          "material": 0,
          "mode": 4
        }
      ]
    },
    {
      "name": "Cube.004_0",
      "primitives": [
        {
          "attributes": {
            "NORMAL": 13,
            "POSITION": 12
          },
          "indices": 14,
          "material": 0,
          "mode": 4
        }
      ]
    },
    {
      "name": "Cube.005_0",
      "primitives": [
        {
          "attributes": {
            "NORMAL": 16,
            "POSITION": 15
          },
          "indices": 17,
          "material": 0,
          "mode": 4
        }
      ]
    },
    {
      "name": "Cube.007_0",
      "primitives": [
        {
          "attributes": {
            "NORMAL": 19,
            "POSITION": 18
          },
          "indices": 20,
          "material": 0,
          "mode": 4
        }
      ]
    },
    {
      "name": "Cube.006_0",
      "primitives": [
        {
          "attributes": {
            "NORMAL": 22,
            "POSITION": 21
          },
          "indices": 23,
          "material": 0,
          "mode": 4
        }
      ]
    }
  ],
  "nodes": [
    {
      "children": [
        1
      ],
      "name": "RootNode (gltf orientation matrix)",
      "rotation": [
        -0.70710678118654746,
        -0,
        -0,
        0.70710678118654757
      ]
    },
    {
      "children": [
        2
      ],
      "name": "RootNode (model correction matrix)"
    },
    {
      "children": [
        3,
        5,
        7,
        9,
        11,
        13,
        15,
        17,
        19
      ],
      "name": "Root"
    },
    {
      "children": [
        4
      ],
      "matrix": [
        1,
        0,
        0,
        0,
        0,
        1,
        0,
        0,
        0,
        0,
        1,
        0,
        3.1444700000000001,
        0,
        3.4111999999999996,
        1
      ],
      "name": "Point"
    },
    {
      "name": "Point"
    },
    {
      "children": [
        6
      ],
      "name": "Cube",
      "scale": [
        0.98803001642227173,
        0.98803001642227173,
        0.98803001642227173
      ],
      "translation": [
        0.073739998042583466,
        0,
        1.6354700326919556
      ]
    },
    {
      "mesh": 0,
      "name": "Cube_0"
    },
    {
      "children": [
        8
      ],
      "name": "Cube.001",
      "rotation": [
        0,
        0,
        0.47781136631965637,
        0.87846249341964722
      ],
      "scale": [
        0.98803001642227173,
        0.98803001642227173,
        0.98803001642227173
      ],
      "translation": [
        2.9115300178527832,
        1.2489000558853149,
        1.4471499919891357
      ]
    },
    {
      "mesh": 1,
      "name": "Cube.001_0"
    },
    {
      "children": [
        10
      ],
      "name": "Cube.002",
      "rotation": [
        0,
        0,
        -0.39346066117286682,
        0.9193415641784668
      ],
      "scale": [
        0.98803001642227173,
        0.98803001642227173,
        0.98803001642227173
      ],
      "translation": [
        -2.706049919128418,
        1.2107100486755371,
        1.4471399784088135
      ]
    },
    {
      "mesh": 2,
      "name": "Cube.002_0"
    },
    {
      "children": [
        12
      ],
      "name": "Cube.003",
      "rotation": [
        0,
        0,
        0.73442262411117554,
        0.67869246006011963
      ],
      "scale": [
        0.98803001642227173,
        0.98803001642227173,
        0.98803001642227173
      ],
      "translation": [
        3.9829099178314209,
        4.2227201461791992,
        1.4469799995422363
      ]
    },
    {
      "mesh": 3,
      "name": "Cube.003_0"
    },
    {
      "children": [
        14
      ],
      "name": "Cube.004",
      "rotation": [
        0,
        0,
        -0.69440978765487671,
        0.71957975625991821
      ],
      "scale": [
        0.98803001642227173,
        0.98803001642227173,
        0.98803001642227173
      ],
      "translation": [
        -4.0006299018859863,
        4.0382299423217773,
        1.4469799995422363
      ]
    },
    {
      "mesh": 4,
      "name": "Cube.004_0"
    },
    {
      "children": [
        16
      ],
      "name": "Cube.005",
      "rotation": [
        0,
        0,
        -0.91610890626907349,
        0.40092951059341431
      ],
      "scale": [
        0.98803001642227173,
        0.98803001642227173,
        0.98803001642227173
      ],
      "translation": [
        -2.7559499740600586,
        6.642859935760498,
        1.4468100070953369
      ]
    },
    {
      "mesh": 5,
      "name": "Cube.005_0"
    },
    {
      "children": [
        18
      ],
      "name": "Cube.007",
      "rotation": [
        0,
        0,
        0.9999922513961792,
        -0.0039400090463459492
      ],
      "scale": [
        0.98803001642227173,
        0.98803001642227173,
        0.98803001642227173
      ],
      "translation": [
        -0.06892000138759613,
        8.1427001953125,
        1.4466899633407593
      ]
    },
    {
      "mesh": 6,
      "name": "Cube.007_0"
    },
    {
      "children": [
        20
      ],
      "name": "Cube.006",
      "rotation": [
        0,
        0,
        0.94100964069366455,
        0.33837988972663879
      ],
      "scale": [
        0.98803001642227173,
        0.98803001642227173,
        0.98803001642227173
      ],
      "translation": [
        2.7574400901794434,
        6.9313597679138184,
        1.4467699527740479
      ]
    },
    {
      "mesh": 7,
      "name": "Cube.006_0"
    }
  ],
  "scene": 0,
  "scenes": [
    {
      "name": "OSG_Scene",
      "nodes": [
        0
      ]
    }
  ]
}

