# Rhino

o object_1
v 205.79448 0.60000002 349.49084
v 205.79448 0.60000002 -155.84924
v 205.12975 0.60000002 -158.59422
v 203.28282 0.60000002 -160.73099
v 200.66298 0.60000002 -161.78606
v 197.85068 0.60000002 -161.52565
v 197.04866 0.60000002 -161.1068
v 196.381 0.60000002 -160.43065
v 195.9583 0.60000002 -159.57961
v 195.82257 0.60000002 -158.68503
v 195.83258 0.60000002 -146.29427
v 195.84709 0.60000002 -128.29427
v 188.84709 0.60000002 -128.28862
v 188.83258 0.60000002 -146.28862
v 188.82753 0.60000002 -152.55286
v 188.4642 0.60000002 -153.98151
v 187.46425 0.60000002 -155.06462
v 186.06912 0.60000002 -155.5407
v 184.61565 0.60000002 -155.29477
v 169.17838 0.60000002 -149.0623
v 165.23837 0.60000002 -148.32974
v 161.27689 0.60000002 -148.93536
v 153.96332 0.60000002 -151.4765
v 152.54492 0.60000002 -151.63205
v 151.2151 0.60000002 -151.11472
v 150.2747 0.60000002 -150.04153
v 149.93648 0.60000002 -148.65529
v 149.94341 0.60000002 -140.07959
v 149.9529 0.60000002 -128.30415
v 142.9529 0.60000002 -128.29851
v 142.93839 0.60000002 -146.29849
v 142.93233 0.60000002 -153.79405
v 142.81023 0.60000002 -154.63882
v 142.43436 0.60000002 -155.4469
v 141.83768 0.60000002 -156.1089
v 141.10797 0.60000002 -156.55168
v 139.7285 0.60000002 -157.144
v 136.82784 0.60000002 -157.61526
v 134.05128 0.60000002 -156.65256
v 132.06494 0.60000002 -154.48683
v 131.34528 0.60000002 -151.63762
v 131.34528 0.60000002 318.70847
v 193.69391 0.60000002 346.87128
vt 0.0099151721 0.0098039219
vt 0.9885034 0.0098039219
vt 0.99381906 0.018557549
vt 0.99795687 0.042878821
vt 1 0.077378668
vt 0.99949574 0.11441269
vt 0.99868459 0.12497419
vt 0.99737525 0.13376625
vt 0.99572724 0.13933259
vt 0.99399489 0.14111993
vt 0.97000021 0.14098829
vt 0.93514335 0.14079708
vt 0.93513238 0.23297729
vt 0.9699893 0.23316851
vt 0.98211998 0.23323505
vt 0.98488653 0.23801954
vt 0.98698401 0.25118747
vt 0.98790592 0.26955941
vt 0.98742968 0.28869954
vt 0.97536051 0.49198696
vt 0.97394192 0.54387122
vt 0.9751147 0.59603852
vt 0.9800356 0.692348
vt 0.98033684 0.71102637
vt 0.97933501 0.72853822
vt 0.97725677 0.74092191
vt 0.97457236 0.74537587
vt 0.95796555 0.74528474
vt 0.93516248 0.74515969
vt 0.93515152 0.83733988
vt 0.97000843 0.83753109
vt 0.98452353 0.83761072
vt 0.98615944 0.83921868
vt 0.98772424 0.84416837
vt 0.98900622 0.85202587
vt 0.98986369 0.86163497
vt 0.99101067 0.8798008
vt 0.99192327 0.91799855
vt 0.99005902 0.95456165
vt 0.98586512 0.98071915
vt 0.98034763 0.99019605
vt 0.069525048 0.99019605
vt 0.014987953 0.16915154
vn 0 1 0
vn 0 1 0
vn 0 1 0
vn 0 1 0
vn 0 1 0
vn 0 1 0
vn 0 1 0
vn 0 1 0
vn 0 1 0
vn 0 1 0
vn 0 1 0
vn 0 1 0
vn 0 1 0
vn 0 1 0
vn 0 1 0
vn 0 1 0
vn 0 1 0
vn 0 1 0
vn 0 1 0
vn 0 1 0
vn 0 1 0
vn 0 1 0
vn 0 1 0
vn 0 1 0
vn 0 1 0
vn 0 1 0
vn 0 1 0
vn 0 1 0
vn 0 1 0
vn 0 1 0
vn 0 1 0
vn 0 1 0
vn 0 1 0
vn 0 1 0
vn 0 1 0
vn 0 1 0
vn 0 1 0
vn 0 1 0
vn 0 1 0
vn 0 1 0
vn 0 1 0
vn 0 1 0
vn 0 1 0
f 43/43/43 1/1/1 12/12/12
f 5/5/5 11/11/11 12/12/12
f 43/43/43 12/12/12 13/13/13
f 19/19/19 20/20/20 13/13/13
f 20/20/20 43/43/43 13/13/13
f 18/18/18 13/13/13 14/14/14
f 20/20/20 21/21/21 43/43/43
f 29/29/29 43/43/43 21/21/21
f 2/2/2 12/12/12 1/1/1
f 22/22/22 29/29/29 21/21/21
f 24/24/24 28/28/28 29/29/29
f 30/30/30 41/41/41 42/42/42
f 29/29/29 30/30/30 42/42/42
f 30/30/30 39/39/39 41/41/41
f 29/29/29 42/42/42 43/43/43
f 25/25/25 28/28/28 24/24/24
f 28/28/28 25/25/25 26/26/26
f 26/26/26 27/27/27 28/28/28
f 31/31/31 36/36/36 30/30/30
f 23/23/23 24/24/24 29/29/29
f 29/29/29 22/22/22 23/23/23
f 16/16/16 14/14/14 15/15/15
f 11/11/11 5/5/5 6/6/6
f 14/14/14 17/17/17 18/18/18
f 4/4/4 2/2/2 3/3/3
f 12/12/12 2/2/2 4/4/4
f 6/6/6 7/7/7 11/11/11
f 7/7/7 8/8/8 11/11/11
f 9/9/9 10/10/10 8/8/8
f 10/10/10 11/11/11 8/8/8
f 5/5/5 12/12/12 4/4/4
f 30/30/30 38/38/38 39/39/39
f 33/33/33 34/34/34 32/32/32
f 35/35/35 31/31/31 34/34/34
f 34/34/34 31/31/31 32/32/32
f 36/36/36 37/37/37 30/30/30
f 40/40/40 41/41/41 39/39/39
f 30/30/30 37/37/37 38/38/38
f 31/31/31 35/35/35 36/36/36
f 19/19/19 13/13/13 18/18/18
f 14/14/14 16/16/16 17/17/17
