# Rhino

o object_1
v -25077.914 -12021 -72305.18
v -25077.914 7786 -72305.18
v 25077.914 -12021 -72305.18
v 25077.914 7786 -72305.18
vt 0 0
vt 0 1
vt 1 0
vt 1 1
vn 0 0 1
vn 0 0 1
vn 0 0 1
vn 0 0 1
f 4/4/4 2/2/2 1/1/1 3/3/3
