# Rhino

o object_1
v 13213.586 13676.972 -26399.959
v 13213.586 13676.972 -62500
v 14765.81 14889.702 -26399.959
v 14765.81 14889.702 -62500
v 14765.81 14889.702 -26399.959
v 14765.81 14889.702 -62500
v 14394.53 15260.982 -26399.959
v 14394.53 15260.982 -62500
v 14394.53 15260.982 -26399.959
v 14394.53 15260.982 -62500
v 9103.79 15260.982 -26399.959
v 9103.79 15260.982 -62500
v 9103.79 15260.982 -26399.959
v 9103.79 15260.982 -62500
v 8732.5098 14889.702 -26399.959
v 8732.5098 14889.702 -62500
v 8732.5098 14889.702 -26399.959
v 8732.5098 14889.702 -62500
v 10284.734 13676.972 -26399.959
v 10284.734 13676.972 -62500
vt 0.029089674 0
vt 0.029089674 0.99853516
vt 0.082189895 0
vt 0.082189895 0.99853516
vt 0.014544837 0
vt 0.014544837 0.99853516
vt 0.027624831 0
vt 0.027624831 0.99853516
vt 0.1382198 0
vt 0.1382198 0.99853516
vt 0.28331268 0
vt 0.28331268 0.99853516
vt 0 0
vt 0 0.99853516
vt 0.013079993 0
vt 0.013079993 0.99853516
vt 0.083654739 0
vt 0.083654739 0.99853516
vt 0.13675496 0
vt 0.13675496 0.99853516
vn 0.6156615 -0.78801078 -1.9453242e-15
vn 0.6156615 -0.78801078 -1.9453242e-15
vn 0.6156615 -0.78801078 -1.9453242e-15
vn 0.6156615 -0.78801078 -1.9453242e-15
vn 0.70710677 0.70710677 -3.2186896e-15
vn 0.70710677 0.70710677 -3.2186896e-15
vn 0.70710677 0.70710677 -3.2186896e-15
vn 0.70710677 0.70710677 -3.2186896e-15
vn -2.7117094e-30 1 -6.1062266e-16
vn -2.1693675e-30 1 -6.1062266e-16
vn -2.7117094e-30 1 -6.1062266e-16
vn -2.1693675e-30 1 -6.1062266e-16
vn -0.70710677 0.70710677 2.3551387e-15
vn -0.70710677 0.70710677 2.3551387e-15
vn -0.70710677 0.70710677 2.3355125e-15
vn -0.70710677 0.70710677 2.3355125e-15
vn -0.6156615 -0.78801078 2.8905908e-15
vn -0.6156615 -0.78801078 2.8905908e-15
vn -0.6156615 -0.78801078 2.8735027e-15
vn -0.6156615 -0.78801078 2.8735027e-15
f 2/2/2 4/4/4 3/3/3 1/1/1
f 6/6/6 8/8/8 7/7/7 5/5/5
f 10/10/10 12/12/12 11/11/11 9/9/9
f 14/14/14 16/16/16 15/15/15 13/13/13
f 18/18/18 20/20/20 19/19/19 17/17/17
o object_2
v 32102.574 13652.014 -62500
v 30550.35 14864.744 -62500
v 30921.631 15236.024 -62500
v 36212.371 15236.024 -62500
v 36583.648 14864.744 -62500
v 35031.426 13652.014 -62500
vt 0.26203549 0.99019605
vt 0.0098039219 0.23960036
vt 0.07013575 0.0098039219
vt 0.92986423 0.0098039219
vt 0.99019605 0.23960036
vt 0.73796451 0.99019605
vn 0 0 -1
vn 0 0 -1
vn 0 0 -1
vn 0 0 -1
vn 0 0 -1
vn 0 0 -1
f 26/26/26 21/21/21 22/22/22
f 25/25/25 22/22/22 23/23/23 24/24/24
f 26/26/26 22/22/22 25/25/25
o object_3
v 10284.734 13676.972 -62500
v 8732.5098 14889.702 -62500
v 9103.79 15260.982 -62500
v 14394.53 15260.982 -62500
v 14765.81 14889.702 -62500
v 13213.586 13676.972 -62500
vt 0.26203549 0.99019605
vt 0.0098039219 0.23960036
vt 0.07013575 0.0098039219
vt 0.92986423 0.0098039219
vt 0.99019605 0.23960036
vt 0.73796451 0.99019605
vn 0 0 -1
vn 0 0 -1
vn 0 0 -1
vn 0 0 -1
vn 0 0 -1
vn 0 0 -1
f 32/32/32 27/27/27 28/28/28
f 31/31/31 28/28/28 29/29/29 30/30/30
f 32/32/32 28/28/28 31/31/31
o object_4
v -13213.586 13676.972 -62500
v -14765.81 14889.702 -62500
v -14394.53 15260.982 -62500
v -9103.79 15260.982 -62500
v -8732.5098 14889.702 -62500
v -10284.734 13676.972 -62500
vt 0.26203549 0.99019605
vt 0.0098039219 0.23960036
vt 0.07013575 0.0098039219
vt 0.92986423 0.0098039219
vt 0.99019605 0.23960036
vt 0.73796451 0.99019605
vn 0 0 -1
vn 0 0 -1
vn 0 0 -1
vn 0 0 -1
vn 0 0 -1
vn 0 0 -1
f 38/38/38 33/33/33 34/34/34
f 37/37/37 34/34/34 35/35/35 36/36/36
f 38/38/38 34/34/34 37/37/37
o object_5
v -35031.426 13652.014 -62500
v -36583.648 14864.744 -62500
v -36212.371 15236.024 -62500
v -30921.631 15236.024 -62500
v -30550.35 14864.744 -62500
v -32102.574 13652.014 -62500
vt 0.26203549 0.99019605
vt 0.0098039219 0.23960036
vt 0.07013575 0.0098039219
vt 0.92986423 0.0098039219
vt 0.99019605 0.23960036
vt 0.73796451 0.99019605
vn 0 0 -1
vn 0 0 -1
vn 0 0 -1
vn 0 0 -1
vn 0 0 -1
vn 0 0 -1
f 44/44/44 39/39/39 40/40/40
f 43/43/43 40/40/40 41/41/41 42/42/42
f 44/44/44 40/40/40 43/43/43
o object_6
v -35031.426 13652.014 -26399.959
v -36583.648 14864.744 -26399.959
v -36212.371 15236.024 -26399.959
v -30921.631 15236.024 -26399.959
v -30550.35 14864.744 -26399.959
v -32102.574 13652.014 -26399.959
vt 0.26203549 0.99019605
vt 0.0098039219 0.23960036
vt 0.07013575 0.0098039219
vt 0.92986423 0.0098039219
vt 0.99019605 0.23960036
vt 0.73796451 0.99019605
vn 0 0 1
vn 0 0 1
vn 0 0 1
vn 0 0 1
vn 0 0 1
vn 0 0 1
f 50/50/50 46/46/46 45/45/45
f 49/49/49 48/48/48 47/47/47 46/46/46
f 50/50/50 49/49/49 46/46/46
o object_7
v -13213.586 13676.972 -26399.959
v -14765.81 14889.702 -26399.959
v -14394.53 15260.982 -26399.959
v -9103.79 15260.982 -26399.959
v -8732.5098 14889.702 -26399.959
v -10284.734 13676.972 -26399.959
vt 0.26203549 0.99019605
vt 0.0098039219 0.23960036
vt 0.07013575 0.0098039219
vt 0.92986423 0.0098039219
vt 0.99019605 0.23960036
vt 0.73796451 0.99019605
vn 0 0 1
vn 0 0 1
vn 0 0 1
vn 0 0 1
vn 0 0 1
vn 0 0 1
f 56/56/56 52/52/52 51/51/51
f 55/55/55 54/54/54 53/53/53 52/52/52
f 56/56/56 55/55/55 52/52/52
o object_8
v 10284.734 13676.972 -26399.959
v 8732.5098 14889.702 -26399.959
v 9103.79 15260.982 -26399.959
v 14394.53 15260.982 -26399.959
v 14765.81 14889.702 -26399.959
v 13213.586 13676.972 -26399.959
vt 0.26203549 0.99019605
vt 0.0098039219 0.23960036
vt 0.07013575 0.0098039219
vt 0.92986423 0.0098039219
vt 0.99019605 0.23960036
vt 0.73796451 0.99019605
vn 0 0 1
vn 0 0 1
vn 0 0 1
vn 0 0 1
vn 0 0 1
vn 0 0 1
f 62/62/62 58/58/58 57/57/57
f 61/61/61 60/60/60 59/59/59 58/58/58
f 62/62/62 61/61/61 58/58/58
o object_9
v 32102.574 13652.014 -26399.959
v 30550.35 14864.744 -26399.959
v 30921.631 15236.024 -26399.959
v 36212.371 15236.024 -26399.959
v 36583.648 14864.744 -26399.959
v 35031.426 13652.014 -26399.959
vt 0.26203549 0.99019605
vt 0.0098039219 0.23960036
vt 0.07013575 0.0098039219
vt 0.92986423 0.0098039219
vt 0.99019605 0.23960036
vt 0.73796451 0.99019605
vn 0 0 1
vn 0 0 1
vn 0 0 1
vn 0 0 1
vn 0 0 1
vn 0 0 1
f 68/68/68 64/64/64 63/63/63
f 67/67/67 66/66/66 65/65/65 64/64/64
f 68/68/68 67/67/67 64/64/64
o object_10
v -13213.586 13676.972 -26399.959
v -13213.586 13676.972 -62500
v -14765.81 14889.702 -26399.959
v -14765.81 14889.702 -62500
v -14765.81 14889.702 -26399.959
v -14765.81 14889.702 -62500
v -14394.53 15260.982 -26399.959
v -14394.53 15260.982 -62500
v -14394.53 15260.982 -26399.959
v -14394.53 15260.982 -62500
v -9103.79 15260.982 -26399.959
v -9103.79 15260.982 -62500
v -9103.79 15260.982 -26399.959
v -9103.79 15260.982 -62500
v -8732.5098 14889.702 -26399.959
v -8732.5098 14889.702 -62500
v -8732.5098 14889.702 -26399.959
v -8732.5098 14889.702 -62500
v -10284.734 13676.972 -26399.959
v -10284.734 13676.972 -62500
vt 0 0
vt 0 1
vt 0.19160594 0
vt 0.19160594 1
vt 0.19160594 0
vt 0.19160594 1
vt 0.24268031 0
vt 0.24268031 1
vt 0.24268031 0
vt 0.24268031 1
vt 0.75731969 0
vt 0.75731969 1
vt 0.75731969 0
vt 0.75731969 1
vt 0.80839407 0
vt 0.80839407 1
vt 0.80839407 0
vt 0.80839407 1
vt 1 0
vt 1 1
vn -0.6156615 -0.78801078 2.8744425e-15
vn -0.6156615 -0.78801078 2.8744425e-15
vn -0.6156615 -0.78801078 2.8744425e-15
vn -0.6156615 -0.78801078 2.8744425e-15
vn -0.70710677 0.70710677 2.3265954e-15
vn -0.70710677 0.70710677 2.3265954e-15
vn -0.70710677 0.70710677 2.3265954e-15
vn -0.70710677 0.70710677 2.3265954e-15
vn -2.3550811e-30 1 -6.0464955e-16
vn -2.3550811e-30 1 -6.0464955e-16
vn -2.3550811e-30 1 -6.0464955e-16
vn -2.3550811e-30 1 -6.0464955e-16
vn 0.70710677 0.70710677 -3.1816991e-15
vn 0.70710677 0.70710677 -3.1816991e-15
vn 0.70710677 0.70710677 -3.1816991e-15
vn 0.70710677 0.70710677 -3.1816991e-15
vn 0.6156615 -0.78801078 -1.9215019e-15
vn 0.6156615 -0.78801078 -1.9215019e-15
vn 0.6156615 -0.78801078 -1.9215019e-15
vn 0.6156615 -0.78801078 -1.9215019e-15
f 69/69/69 71/71/71 72/72/72 70/70/70
f 73/73/73 75/75/75 76/76/76 74/74/74
f 77/77/77 79/79/79 80/80/80 78/78/78
f 81/81/81 83/83/83 84/84/84 82/82/82
f 85/85/85 87/87/87 88/88/88 86/86/86
o object_11
v -36212.371 15236.024 -26399.959
v -36212.371 15236.024 -62500
v -30921.631 15236.024 -26399.959
v -30921.631 15236.024 -62500
v -30921.631 15236.024 -26399.959
v -30921.631 15236.024 -62500
v -30550.35 14864.744 -26399.959
v -30550.35 14864.744 -62500
vt 0 0
vt 0 1
vt 0.9097169 0
vt 0.9097169 1
vt 0.9097169 0
vt 0.9097169 1
vt 1 0
vt 1 1
vn -2.3550811e-30 1 -6.0464955e-16
vn -2.3550811e-30 1 -6.0464955e-16
vn -2.3550811e-30 1 -6.0464955e-16
vn -2.3550811e-30 1 -6.0464955e-16
vn 0.70710677 0.70710677 -3.1816991e-15
vn 0.70710677 0.70710677 -3.1816991e-15
vn 0.70710677 0.70710677 -3.1816991e-15
vn 0.70710677 0.70710677 -3.1816991e-15
f 89/89/89 91/91/91 92/92/92 90/90/90
f 93/93/93 95/95/95 96/96/96 94/94/94
o object_12
v 36212.371 15236.024 -26399.959
v 36212.371 15236.024 -62500
v 30921.631 15236.024 -26399.959
v 30921.631 15236.024 -62500
v 30921.631 15236.024 -26399.959
v 30921.631 15236.024 -62500
v 30550.35 14864.744 -26399.959
v 30550.35 14864.744 -62500
vt 0.014544837 0
vt 0.014544837 0.99853516
vt 0.15963772 0
vt 0.15963772 0.99853516
vt 0 0
vt 0 0.99853516
vt 0.013079993 0
vt 0.013079993 0.99853516
vn -1.9721523e-30 1 -5.5511151e-16
vn -1.9721523e-30 1 -5.5511151e-16
vn -1.9721523e-30 1 -5.5511151e-16
vn -1.9721523e-30 1 -5.5511151e-16
vn -0.70710677 0.70710677 2.276634e-15
vn -0.70710677 0.70710677 2.276634e-15
vn -0.70710677 0.70710677 2.276634e-15
vn -0.70710677 0.70710677 2.276634e-15
f 98/98/98 100/100/100 99/99/99 97/97/97
f 102/102/102 104/104/104 103/103/103 101/101/101
